<?xml version="1.0" encoding="utf-8"?>
<!DOCTYPE eagle SYSTEM "eagle.dtd">
<eagle version="6.6.0">
<drawing>
<settings>
<setting alwaysvectorfont="no"/>
<setting verticaltext="up"/>
</settings>
<grid distance="0.1" unitdist="inch" unit="inch" style="lines" multiple="1" display="no" altdistance="0.01" altunitdist="inch" altunit="inch"/>
<layers>
<layer number="1" name="Top" color="4" fill="1" visible="yes" active="yes"/>
<layer number="16" name="Bottom" color="1" fill="1" visible="yes" active="yes"/>
<layer number="17" name="Pads" color="2" fill="1" visible="yes" active="yes"/>
<layer number="18" name="Vias" color="2" fill="1" visible="yes" active="yes"/>
<layer number="19" name="Unrouted" color="6" fill="1" visible="yes" active="yes"/>
<layer number="20" name="Dimension" color="15" fill="1" visible="yes" active="yes"/>
<layer number="21" name="tPlace" color="7" fill="1" visible="yes" active="yes"/>
<layer number="22" name="bPlace" color="7" fill="1" visible="yes" active="yes"/>
<layer number="23" name="tOrigins" color="15" fill="1" visible="yes" active="yes"/>
<layer number="24" name="bOrigins" color="15" fill="1" visible="yes" active="yes"/>
<layer number="25" name="tNames" color="7" fill="1" visible="yes" active="yes"/>
<layer number="26" name="bNames" color="7" fill="1" visible="yes" active="yes"/>
<layer number="27" name="tValues" color="7" fill="1" visible="yes" active="yes"/>
<layer number="28" name="bValues" color="7" fill="1" visible="yes" active="yes"/>
<layer number="29" name="tStop" color="7" fill="3" visible="no" active="yes"/>
<layer number="30" name="bStop" color="7" fill="6" visible="no" active="yes"/>
<layer number="31" name="tCream" color="7" fill="4" visible="no" active="yes"/>
<layer number="32" name="bCream" color="7" fill="5" visible="no" active="yes"/>
<layer number="33" name="tFinish" color="6" fill="3" visible="no" active="yes"/>
<layer number="34" name="bFinish" color="6" fill="6" visible="no" active="yes"/>
<layer number="35" name="tGlue" color="7" fill="4" visible="no" active="yes"/>
<layer number="36" name="bGlue" color="7" fill="5" visible="no" active="yes"/>
<layer number="37" name="tTest" color="7" fill="1" visible="no" active="yes"/>
<layer number="38" name="bTest" color="7" fill="1" visible="no" active="yes"/>
<layer number="39" name="tKeepout" color="4" fill="11" visible="yes" active="yes"/>
<layer number="40" name="bKeepout" color="1" fill="11" visible="yes" active="yes"/>
<layer number="41" name="tRestrict" color="4" fill="10" visible="yes" active="yes"/>
<layer number="42" name="bRestrict" color="1" fill="10" visible="yes" active="yes"/>
<layer number="43" name="vRestrict" color="2" fill="10" visible="yes" active="yes"/>
<layer number="44" name="Drills" color="7" fill="1" visible="no" active="yes"/>
<layer number="45" name="Holes" color="7" fill="1" visible="yes" active="yes"/>
<layer number="46" name="Milling" color="3" fill="1" visible="no" active="yes"/>
<layer number="47" name="Measures" color="7" fill="1" visible="no" active="yes"/>
<layer number="48" name="Document" color="7" fill="1" visible="yes" active="yes"/>
<layer number="49" name="Reference" color="7" fill="1" visible="yes" active="yes"/>
<layer number="51" name="tDocu" color="7" fill="1" visible="yes" active="yes"/>
<layer number="52" name="bDocu" color="7" fill="1" visible="yes" active="yes"/>
<layer number="91" name="Nets" color="2" fill="1" visible="yes" active="yes"/>
<layer number="92" name="Busses" color="1" fill="1" visible="yes" active="yes"/>
<layer number="93" name="Pins" color="2" fill="1" visible="yes" active="yes"/>
<layer number="94" name="Symbols" color="4" fill="1" visible="yes" active="yes"/>
<layer number="95" name="Names" color="7" fill="1" visible="yes" active="yes"/>
<layer number="96" name="Values" color="7" fill="1" visible="yes" active="yes"/>
<layer number="97" name="Info" color="7" fill="1" visible="yes" active="yes"/>
<layer number="98" name="Guide" color="6" fill="1" visible="yes" active="yes"/>
</layers>
<library>
<packages>
<package name="RJ45-DIL">
<wire x1="0" y1="0" x2="16" y2="0" width="0.127" layer="21"/>
<wire x1="16" y1="0" x2="16" y2="16" width="0.127" layer="21"/>
<wire x1="16" y1="16" x2="0" y2="16" width="0.127" layer="21"/>
<wire x1="0" y1="16" x2="0" y2="0" width="0.127" layer="21"/>
<hole x="16" y="10" drill="1"/>
<hole x="14" y="6" drill="2"/>
<hole x="2" y="6" drill="2"/>
<hole x="0" y="10" drill="1"/>
<pad name="P$1" x="15" y="15" drill="0.5" shape="square" rot="R90"/>
<pad name="P$2" x="13" y="15" drill="0.5" shape="square" rot="R90"/>
<pad name="P$3" x="1" y="15" drill="0.5" shape="square" rot="R90"/>
<pad name="P$4" x="3" y="15" drill="0.5" shape="square" rot="R90"/>
<pad name="P$5" x="4" y="10" drill="0.5" diameter="1.016" shape="offset" rot="R90"/>
<pad name="P$6" x="6" y="10" drill="0.5" diameter="1.016" shape="offset" rot="R90"/>
<pad name="P$7" x="8" y="10" drill="0.5" diameter="1.016" shape="offset" rot="R90"/>
<pad name="P$8" x="10" y="10" drill="0.5" diameter="1.016" shape="offset" rot="R90"/>
<pad name="P$9" x="5" y="8" drill="0.5" diameter="1.016" shape="offset" rot="R270"/>
<pad name="P$10" x="7" y="8" drill="0.5" diameter="1.016" shape="offset" rot="R270"/>
<pad name="P$11" x="9" y="8" drill="0.5" diameter="1.016" shape="offset" rot="R270"/>
<pad name="P$12" x="11" y="8" drill="0.5" diameter="1.016" shape="offset" rot="R270"/>
<text x="5" y="3" size="1.27" layer="21">&gt;NAME</text>
<text x="7" y="1" size="1.27" layer="21">RJ45</text>
</package>
</packages>
<symbols>
<symbol name="RJ45-10_PIN">
<pin name="P$1" x="7.62" y="2.54" length="middle" rot="R180"/>
<pin name="P$2" x="7.62" y="0" length="middle" rot="R180"/>
<pin name="P$3" x="7.62" y="-2.54" length="middle" rot="R180"/>
<pin name="P$4" x="7.62" y="-5.08" length="middle" rot="R180"/>
<pin name="P$5" x="7.62" y="-7.62" length="middle" rot="R180"/>
<pin name="P$6" x="7.62" y="-10.16" length="middle" rot="R180"/>
<pin name="P$7" x="7.62" y="-12.7" length="middle" rot="R180"/>
<pin name="P$8" x="7.62" y="-15.24" length="middle" rot="R180"/>
<pin name="P$9" x="-17.78" y="0" length="middle"/>
<pin name="P$10" x="-17.78" y="2.54" length="middle"/>
<pin name="P$11" x="-17.78" y="-12.7" length="middle"/>
<pin name="P$12" x="-17.78" y="-15.24" length="middle"/>
<wire x1="-12.7" y1="5.08" x2="-12.7" y2="-17.78" width="0.254" layer="94"/>
<wire x1="-12.7" y1="-17.78" x2="2.54" y2="-17.78" width="0.254" layer="94"/>
<wire x1="2.54" y1="-17.78" x2="2.54" y2="5.08" width="0.254" layer="94"/>
<wire x1="2.54" y1="5.08" x2="-12.7" y2="5.08" width="0.254" layer="94"/>
<text x="-5.08" y="-2.54" size="1.27" layer="94" rot="R180">&gt;NAME</text>
<text x="-10.16" y="-7.62" size="1.27" layer="94">RJ_PIN</text>
</symbol>
</symbols>
<devicesets>
<deviceset name="RJ45_EDW">
<gates>
<gate name="G$1" symbol="RJ45-10_PIN" x="-5.08" y="7.62"/>
</gates>
<devices>
<device name="RJ45-DIL" package="RJ45-DIL">
<connects>
<connect gate="G$1" pin="P$1" pad="P$5"/>
<connect gate="G$1" pin="P$10" pad="P$3"/>
<connect gate="G$1" pin="P$11" pad="P$2"/>
<connect gate="G$1" pin="P$12" pad="P$1"/>
<connect gate="G$1" pin="P$2" pad="P$6"/>
<connect gate="G$1" pin="P$3" pad="P$7"/>
<connect gate="G$1" pin="P$4" pad="P$8"/>
<connect gate="G$1" pin="P$5" pad="P$9"/>
<connect gate="G$1" pin="P$6" pad="P$10"/>
<connect gate="G$1" pin="P$7" pad="P$11"/>
<connect gate="G$1" pin="P$8" pad="P$12"/>
<connect gate="G$1" pin="P$9" pad="P$4"/>
</connects>
<technologies>
<technology name=""/>
</technologies>
</device>
</devices>
</deviceset>
</devicesets>
</library>
</drawing>
</eagle>
