<?xml version="1.0" encoding="utf-8"?>
<!DOCTYPE eagle SYSTEM "eagle.dtd">
<eagle version="6.6.0">
<drawing>
<settings>
<setting alwaysvectorfont="no"/>
<setting verticaltext="up"/>
</settings>
<grid distance="0.1" unitdist="inch" unit="inch" style="lines" multiple="1" display="no" altdistance="0.01" altunitdist="inch" altunit="inch"/>
<layers>
<layer number="1" name="Top" color="4" fill="1" visible="no" active="no"/>
<layer number="16" name="Bottom" color="1" fill="1" visible="no" active="no"/>
<layer number="17" name="Pads" color="2" fill="1" visible="no" active="no"/>
<layer number="18" name="Vias" color="2" fill="1" visible="no" active="no"/>
<layer number="19" name="Unrouted" color="6" fill="1" visible="no" active="no"/>
<layer number="20" name="Dimension" color="15" fill="1" visible="no" active="no"/>
<layer number="21" name="tPlace" color="7" fill="1" visible="no" active="no"/>
<layer number="22" name="bPlace" color="7" fill="1" visible="no" active="no"/>
<layer number="23" name="tOrigins" color="15" fill="1" visible="no" active="no"/>
<layer number="24" name="bOrigins" color="15" fill="1" visible="no" active="no"/>
<layer number="25" name="tNames" color="7" fill="1" visible="no" active="no"/>
<layer number="26" name="bNames" color="7" fill="1" visible="no" active="no"/>
<layer number="27" name="tValues" color="7" fill="1" visible="no" active="no"/>
<layer number="28" name="bValues" color="7" fill="1" visible="no" active="no"/>
<layer number="29" name="tStop" color="7" fill="3" visible="no" active="no"/>
<layer number="30" name="bStop" color="7" fill="6" visible="no" active="no"/>
<layer number="31" name="tCream" color="7" fill="4" visible="no" active="no"/>
<layer number="32" name="bCream" color="7" fill="5" visible="no" active="no"/>
<layer number="33" name="tFinish" color="6" fill="3" visible="no" active="no"/>
<layer number="34" name="bFinish" color="6" fill="6" visible="no" active="no"/>
<layer number="35" name="tGlue" color="7" fill="4" visible="no" active="no"/>
<layer number="36" name="bGlue" color="7" fill="5" visible="no" active="no"/>
<layer number="37" name="tTest" color="7" fill="1" visible="no" active="no"/>
<layer number="38" name="bTest" color="7" fill="1" visible="no" active="no"/>
<layer number="39" name="tKeepout" color="4" fill="11" visible="no" active="no"/>
<layer number="40" name="bKeepout" color="1" fill="11" visible="no" active="no"/>
<layer number="41" name="tRestrict" color="4" fill="10" visible="no" active="no"/>
<layer number="42" name="bRestrict" color="1" fill="10" visible="no" active="no"/>
<layer number="43" name="vRestrict" color="2" fill="10" visible="no" active="no"/>
<layer number="44" name="Drills" color="7" fill="1" visible="no" active="no"/>
<layer number="45" name="Holes" color="7" fill="1" visible="no" active="no"/>
<layer number="46" name="Milling" color="3" fill="1" visible="no" active="no"/>
<layer number="47" name="Measures" color="7" fill="1" visible="no" active="no"/>
<layer number="48" name="Document" color="7" fill="1" visible="no" active="no"/>
<layer number="49" name="Reference" color="7" fill="1" visible="no" active="no"/>
<layer number="51" name="tDocu" color="7" fill="1" visible="no" active="no"/>
<layer number="52" name="bDocu" color="7" fill="1" visible="no" active="no"/>
<layer number="91" name="Nets" color="2" fill="1" visible="yes" active="yes"/>
<layer number="92" name="Busses" color="1" fill="1" visible="yes" active="yes"/>
<layer number="93" name="Pins" color="2" fill="1" visible="no" active="yes"/>
<layer number="94" name="Symbols" color="4" fill="1" visible="yes" active="yes"/>
<layer number="95" name="Names" color="7" fill="1" visible="yes" active="yes"/>
<layer number="96" name="Values" color="7" fill="1" visible="yes" active="yes"/>
<layer number="97" name="Info" color="7" fill="1" visible="yes" active="yes"/>
<layer number="98" name="Guide" color="6" fill="1" visible="yes" active="yes"/>
</layers>
<schematic xreflabel="%F%N/%S.%C%R" xrefpart="/%S.%C%R">
<libraries>
<library name="frames">
<description>&lt;b&gt;Frames for Sheet and Layout&lt;/b&gt;</description>
<packages>
</packages>
<symbols>
<symbol name="A4L-LOC">
<wire x1="256.54" y1="3.81" x2="256.54" y2="8.89" width="0.1016" layer="94"/>
<wire x1="256.54" y1="8.89" x2="256.54" y2="13.97" width="0.1016" layer="94"/>
<wire x1="256.54" y1="13.97" x2="256.54" y2="19.05" width="0.1016" layer="94"/>
<wire x1="256.54" y1="19.05" x2="256.54" y2="24.13" width="0.1016" layer="94"/>
<wire x1="161.29" y1="3.81" x2="161.29" y2="24.13" width="0.1016" layer="94"/>
<wire x1="161.29" y1="24.13" x2="215.265" y2="24.13" width="0.1016" layer="94"/>
<wire x1="215.265" y1="24.13" x2="256.54" y2="24.13" width="0.1016" layer="94"/>
<wire x1="246.38" y1="3.81" x2="246.38" y2="8.89" width="0.1016" layer="94"/>
<wire x1="246.38" y1="8.89" x2="256.54" y2="8.89" width="0.1016" layer="94"/>
<wire x1="246.38" y1="8.89" x2="215.265" y2="8.89" width="0.1016" layer="94"/>
<wire x1="215.265" y1="8.89" x2="215.265" y2="3.81" width="0.1016" layer="94"/>
<wire x1="215.265" y1="8.89" x2="215.265" y2="13.97" width="0.1016" layer="94"/>
<wire x1="215.265" y1="13.97" x2="256.54" y2="13.97" width="0.1016" layer="94"/>
<wire x1="215.265" y1="13.97" x2="215.265" y2="19.05" width="0.1016" layer="94"/>
<wire x1="215.265" y1="19.05" x2="256.54" y2="19.05" width="0.1016" layer="94"/>
<wire x1="215.265" y1="19.05" x2="215.265" y2="24.13" width="0.1016" layer="94"/>
<text x="217.17" y="15.24" size="2.54" layer="94">&gt;DRAWING_NAME</text>
<text x="217.17" y="10.16" size="2.286" layer="94">&gt;LAST_DATE_TIME</text>
<text x="230.505" y="5.08" size="2.54" layer="94">&gt;SHEET</text>
<text x="216.916" y="4.953" size="2.54" layer="94">Sheet:</text>
<frame x1="0" y1="0" x2="260.35" y2="179.07" columns="6" rows="4" layer="94"/>
</symbol>
</symbols>
<devicesets>
<deviceset name="A4L-LOC" prefix="FRAME" uservalue="yes">
<description>&lt;b&gt;FRAME&lt;/b&gt;&lt;p&gt;
DIN A4, landscape with location and doc. field</description>
<gates>
<gate name="G$1" symbol="A4L-LOC" x="0" y="0"/>
</gates>
<devices>
<device name="">
<technologies>
<technology name=""/>
</technologies>
</device>
</devices>
</deviceset>
</devicesets>
</library>
<library name="wirepad">
<description>&lt;b&gt;Single Pads&lt;/b&gt;&lt;p&gt;
&lt;author&gt;Created by librarian@cadsoft.de&lt;/author&gt;</description>
<packages>
<package name="1,6/0,8">
<description>&lt;b&gt;THROUGH-HOLE PAD&lt;/b&gt;</description>
<wire x1="-0.762" y1="0.762" x2="-0.508" y2="0.762" width="0.1524" layer="21"/>
<wire x1="-0.762" y1="0.762" x2="-0.762" y2="0.508" width="0.1524" layer="21"/>
<wire x1="0.762" y1="0.762" x2="0.762" y2="0.508" width="0.1524" layer="21"/>
<wire x1="0.762" y1="0.762" x2="0.508" y2="0.762" width="0.1524" layer="21"/>
<wire x1="0.762" y1="-0.508" x2="0.762" y2="-0.762" width="0.1524" layer="21"/>
<wire x1="0.762" y1="-0.762" x2="0.508" y2="-0.762" width="0.1524" layer="21"/>
<wire x1="-0.508" y1="-0.762" x2="-0.762" y2="-0.762" width="0.1524" layer="21"/>
<wire x1="-0.762" y1="-0.762" x2="-0.762" y2="-0.508" width="0.1524" layer="21"/>
<circle x="0" y="0" radius="0.635" width="0.1524" layer="51"/>
<pad name="1" x="0" y="0" drill="0.8128" diameter="1.6002" shape="octagon"/>
<text x="-0.762" y="1.016" size="1.27" layer="25" ratio="10">&gt;NAME</text>
<text x="0" y="0.6" size="0.0254" layer="27">&gt;VALUE</text>
</package>
<package name="1,6/0,9">
<description>&lt;b&gt;THROUGH-HOLE PAD&lt;/b&gt;</description>
<wire x1="-0.508" y1="0.762" x2="-0.762" y2="0.762" width="0.1524" layer="21"/>
<wire x1="-0.762" y1="0.762" x2="-0.762" y2="0.508" width="0.1524" layer="21"/>
<wire x1="-0.762" y1="-0.508" x2="-0.762" y2="-0.762" width="0.1524" layer="21"/>
<wire x1="-0.762" y1="-0.762" x2="-0.508" y2="-0.762" width="0.1524" layer="21"/>
<wire x1="0.508" y1="-0.762" x2="0.762" y2="-0.762" width="0.1524" layer="21"/>
<wire x1="0.762" y1="-0.762" x2="0.762" y2="-0.508" width="0.1524" layer="21"/>
<wire x1="0.762" y1="0.508" x2="0.762" y2="0.762" width="0.1524" layer="21"/>
<wire x1="0.762" y1="0.762" x2="0.508" y2="0.762" width="0.1524" layer="21"/>
<circle x="0" y="0" radius="0.635" width="0.1524" layer="51"/>
<pad name="1" x="0" y="0" drill="0.9144" diameter="1.6002" shape="octagon"/>
<text x="-0.762" y="1.016" size="1.27" layer="25" ratio="10">&gt;NAME</text>
<text x="0" y="0.6" size="0.0254" layer="27">&gt;VALUE</text>
</package>
<package name="2,15/1,0">
<description>&lt;b&gt;THROUGH-HOLE PAD&lt;/b&gt;</description>
<wire x1="1.143" y1="-1.143" x2="1.143" y2="-0.635" width="0.1524" layer="21"/>
<wire x1="1.143" y1="-1.143" x2="0.635" y2="-1.143" width="0.1524" layer="21"/>
<wire x1="1.143" y1="0.635" x2="1.143" y2="1.143" width="0.1524" layer="21"/>
<wire x1="1.143" y1="1.143" x2="0.635" y2="1.143" width="0.1524" layer="21"/>
<wire x1="-0.635" y1="1.143" x2="-1.143" y2="1.143" width="0.1524" layer="21"/>
<wire x1="-1.143" y1="1.143" x2="-1.143" y2="0.635" width="0.1524" layer="21"/>
<wire x1="-1.143" y1="-0.635" x2="-1.143" y2="-1.143" width="0.1524" layer="21"/>
<wire x1="-1.143" y1="-1.143" x2="-0.635" y2="-1.143" width="0.1524" layer="21"/>
<circle x="0" y="0" radius="1.016" width="0.1524" layer="51"/>
<pad name="1" x="0" y="0" drill="1.016" diameter="2.159" shape="octagon"/>
<text x="-1.143" y="1.397" size="1.27" layer="25" ratio="10">&gt;NAME</text>
<text x="0" y="1" size="0.0254" layer="27">&gt;VALUE</text>
</package>
<package name="2,54/0,8">
<description>&lt;b&gt;THROUGH-HOLE PAD&lt;/b&gt;</description>
<wire x1="-1.27" y1="1.27" x2="-0.762" y2="1.27" width="0.1524" layer="21"/>
<wire x1="-1.27" y1="1.27" x2="-1.27" y2="0.762" width="0.1524" layer="21"/>
<wire x1="1.27" y1="1.27" x2="1.27" y2="0.762" width="0.1524" layer="21"/>
<wire x1="1.27" y1="1.27" x2="0.762" y2="1.27" width="0.1524" layer="21"/>
<wire x1="1.27" y1="-0.762" x2="1.27" y2="-1.27" width="0.1524" layer="21"/>
<wire x1="1.27" y1="-1.27" x2="0.762" y2="-1.27" width="0.1524" layer="21"/>
<wire x1="-0.762" y1="-1.27" x2="-1.27" y2="-1.27" width="0.1524" layer="21"/>
<wire x1="-1.27" y1="-1.27" x2="-1.27" y2="-0.762" width="0.1524" layer="21"/>
<circle x="0" y="0" radius="0.635" width="0.1524" layer="51"/>
<pad name="1" x="0" y="0" drill="0.8128" diameter="2.54" shape="octagon"/>
<text x="-1.27" y="1.524" size="1.27" layer="25" ratio="10">&gt;NAME</text>
<text x="0" y="0.6" size="0.0254" layer="27">&gt;VALUE</text>
</package>
<package name="2,54/0,9">
<description>&lt;b&gt;THROUGH-HOLE PAD&lt;/b&gt;</description>
<wire x1="-1.27" y1="1.27" x2="-0.762" y2="1.27" width="0.1524" layer="21"/>
<wire x1="-1.27" y1="1.27" x2="-1.27" y2="0.762" width="0.1524" layer="21"/>
<wire x1="1.27" y1="1.27" x2="1.27" y2="0.762" width="0.1524" layer="21"/>
<wire x1="1.27" y1="1.27" x2="0.762" y2="1.27" width="0.1524" layer="21"/>
<wire x1="1.27" y1="-0.762" x2="1.27" y2="-1.27" width="0.1524" layer="21"/>
<wire x1="1.27" y1="-1.27" x2="0.762" y2="-1.27" width="0.1524" layer="21"/>
<wire x1="-0.762" y1="-1.27" x2="-1.27" y2="-1.27" width="0.1524" layer="21"/>
<wire x1="-1.27" y1="-1.27" x2="-1.27" y2="-0.762" width="0.1524" layer="21"/>
<circle x="0" y="0" radius="0.635" width="0.1524" layer="51"/>
<pad name="1" x="0" y="0" drill="0.9144" diameter="2.54" shape="octagon"/>
<text x="-1.27" y="1.524" size="1.27" layer="25" ratio="10">&gt;NAME</text>
<text x="0" y="0.6" size="0.0254" layer="27">&gt;VALUE</text>
</package>
<package name="2,54/1,0">
<description>&lt;b&gt;THROUGH-HOLE PAD&lt;/b&gt;</description>
<wire x1="1.27" y1="1.27" x2="1.27" y2="0.762" width="0.1524" layer="21"/>
<wire x1="1.27" y1="1.27" x2="0.762" y2="1.27" width="0.1524" layer="21"/>
<wire x1="-1.27" y1="1.27" x2="-0.762" y2="1.27" width="0.1524" layer="21"/>
<wire x1="-1.27" y1="1.27" x2="-1.27" y2="0.762" width="0.1524" layer="21"/>
<wire x1="-1.27" y1="-1.27" x2="-1.27" y2="-0.762" width="0.1524" layer="21"/>
<wire x1="-1.27" y1="-1.27" x2="-0.762" y2="-1.27" width="0.1524" layer="21"/>
<wire x1="0.762" y1="-1.27" x2="1.27" y2="-1.27" width="0.1524" layer="21"/>
<wire x1="1.27" y1="-1.27" x2="1.27" y2="-0.762" width="0.1524" layer="21"/>
<circle x="0" y="0" radius="1.016" width="0.1524" layer="51"/>
<pad name="1" x="0" y="0" drill="1.016" diameter="2.54" shape="octagon"/>
<text x="-1.27" y="1.524" size="1.27" layer="25" ratio="10">&gt;NAME</text>
<text x="0" y="1" size="0.0254" layer="27">&gt;VALUE</text>
</package>
<package name="2,54/1,1">
<description>&lt;b&gt;THROUGH-HOLE PAD&lt;/b&gt;</description>
<wire x1="1.27" y1="1.27" x2="1.27" y2="0.762" width="0.1524" layer="21"/>
<wire x1="1.27" y1="1.27" x2="0.762" y2="1.27" width="0.1524" layer="21"/>
<wire x1="-1.27" y1="1.27" x2="-1.27" y2="0.762" width="0.1524" layer="21"/>
<wire x1="-1.27" y1="1.27" x2="-0.762" y2="1.27" width="0.1524" layer="21"/>
<wire x1="-1.27" y1="-1.27" x2="-1.27" y2="-0.762" width="0.1524" layer="21"/>
<wire x1="-1.27" y1="-1.27" x2="-0.762" y2="-1.27" width="0.1524" layer="21"/>
<wire x1="1.27" y1="-1.27" x2="0.762" y2="-1.27" width="0.1524" layer="21"/>
<wire x1="1.27" y1="-1.27" x2="1.27" y2="-0.762" width="0.1524" layer="21"/>
<circle x="0" y="0" radius="1.016" width="0.1524" layer="51"/>
<pad name="1" x="0" y="0" drill="1.1176" diameter="2.54" shape="octagon"/>
<text x="-1.27" y="1.524" size="1.27" layer="25" ratio="10">&gt;NAME</text>
<text x="0" y="1" size="0.0254" layer="27">&gt;VALUE</text>
</package>
<package name="3,17/1,1">
<description>&lt;b&gt;THROUGH-HOLE PAD&lt;/b&gt;</description>
<wire x1="1.524" y1="-1.016" x2="1.524" y2="-1.524" width="0.1524" layer="21"/>
<wire x1="1.524" y1="-1.524" x2="1.016" y2="-1.524" width="0.1524" layer="21"/>
<wire x1="-1.016" y1="-1.524" x2="-1.524" y2="-1.524" width="0.1524" layer="21"/>
<wire x1="-1.524" y1="-1.524" x2="-1.524" y2="-1.016" width="0.1524" layer="21"/>
<wire x1="-1.524" y1="1.016" x2="-1.524" y2="1.524" width="0.1524" layer="21"/>
<wire x1="-1.524" y1="1.524" x2="-1.016" y2="1.524" width="0.1524" layer="21"/>
<wire x1="1.016" y1="1.524" x2="1.524" y2="1.524" width="0.1524" layer="21"/>
<wire x1="1.524" y1="1.524" x2="1.524" y2="1.016" width="0.1524" layer="21"/>
<circle x="0" y="0" radius="1.27" width="0.1524" layer="51"/>
<pad name="1" x="0" y="0" drill="1.1176" diameter="3.175" shape="octagon"/>
<text x="-1.524" y="1.905" size="1.27" layer="25" ratio="10">&gt;NAME</text>
<text x="0" y="1.2" size="0.0254" layer="27">&gt;VALUE</text>
</package>
<package name="3,17/1,2">
<description>&lt;b&gt;THROUGH-HOLE PAD&lt;/b&gt;</description>
<wire x1="1.524" y1="-1.016" x2="1.524" y2="-1.524" width="0.1524" layer="21"/>
<wire x1="1.524" y1="-1.524" x2="1.016" y2="-1.524" width="0.1524" layer="21"/>
<wire x1="-1.016" y1="-1.524" x2="-1.524" y2="-1.524" width="0.1524" layer="21"/>
<wire x1="-1.524" y1="-1.524" x2="-1.524" y2="-1.016" width="0.1524" layer="21"/>
<wire x1="-1.524" y1="1.016" x2="-1.524" y2="1.524" width="0.1524" layer="21"/>
<wire x1="-1.524" y1="1.524" x2="-1.016" y2="1.524" width="0.1524" layer="21"/>
<wire x1="1.016" y1="1.524" x2="1.524" y2="1.524" width="0.1524" layer="21"/>
<wire x1="1.524" y1="1.524" x2="1.524" y2="1.016" width="0.1524" layer="21"/>
<circle x="0" y="0" radius="1.27" width="0.1524" layer="51"/>
<pad name="1" x="0" y="0" drill="1.1938" diameter="3.175" shape="octagon"/>
<text x="-1.524" y="1.905" size="1.27" layer="25" ratio="10">&gt;NAME</text>
<text x="0" y="1.2" size="0.0254" layer="27">&gt;VALUE</text>
</package>
<package name="3,17/1,3">
<description>&lt;b&gt;THROUGH-HOLE PAD&lt;/b&gt;</description>
<wire x1="1.524" y1="-1.016" x2="1.524" y2="-1.524" width="0.1524" layer="21"/>
<wire x1="1.524" y1="-1.524" x2="1.016" y2="-1.524" width="0.1524" layer="21"/>
<wire x1="-1.016" y1="-1.524" x2="-1.524" y2="-1.524" width="0.1524" layer="21"/>
<wire x1="-1.524" y1="-1.524" x2="-1.524" y2="-1.016" width="0.1524" layer="21"/>
<wire x1="-1.524" y1="1.016" x2="-1.524" y2="1.524" width="0.1524" layer="21"/>
<wire x1="-1.524" y1="1.524" x2="-1.016" y2="1.524" width="0.1524" layer="21"/>
<wire x1="1.016" y1="1.524" x2="1.524" y2="1.524" width="0.1524" layer="21"/>
<wire x1="1.524" y1="1.524" x2="1.524" y2="1.016" width="0.1524" layer="21"/>
<circle x="0" y="0" radius="1.27" width="0.1524" layer="51"/>
<pad name="1" x="0" y="0" drill="1.3208" diameter="3.175" shape="octagon"/>
<text x="-1.524" y="1.905" size="1.27" layer="25" ratio="10">&gt;NAME</text>
<text x="0" y="1.2" size="0.0254" layer="27">&gt;VALUE</text>
</package>
<package name="3,81/1,1">
<description>&lt;b&gt;THROUGH-HOLE PAD&lt;/b&gt;</description>
<wire x1="1.905" y1="-1.27" x2="1.905" y2="-1.905" width="0.1524" layer="21"/>
<wire x1="1.905" y1="-1.905" x2="1.27" y2="-1.905" width="0.1524" layer="21"/>
<wire x1="-1.27" y1="-1.905" x2="-1.905" y2="-1.905" width="0.1524" layer="21"/>
<wire x1="-1.905" y1="-1.905" x2="-1.905" y2="-1.27" width="0.1524" layer="21"/>
<wire x1="-1.905" y1="1.27" x2="-1.905" y2="1.905" width="0.1524" layer="21"/>
<wire x1="-1.905" y1="1.905" x2="-1.27" y2="1.905" width="0.1524" layer="21"/>
<wire x1="1.27" y1="1.905" x2="1.905" y2="1.905" width="0.1524" layer="21"/>
<wire x1="1.905" y1="1.905" x2="1.905" y2="1.27" width="0.1524" layer="21"/>
<circle x="0" y="0" radius="1.27" width="0.1524" layer="51"/>
<pad name="1" x="0" y="0" drill="1.1176" diameter="3.81" shape="octagon"/>
<text x="-1.905" y="2.286" size="1.27" layer="25" ratio="10">&gt;NAME</text>
<text x="0" y="1.2" size="0.0254" layer="27">&gt;VALUE</text>
</package>
<package name="3,81/1,3">
<description>&lt;b&gt;THROUGH-HOLE PAD&lt;/b&gt;</description>
<wire x1="1.905" y1="-1.27" x2="1.905" y2="-1.905" width="0.1524" layer="21"/>
<wire x1="1.905" y1="-1.905" x2="1.27" y2="-1.905" width="0.1524" layer="21"/>
<wire x1="-1.27" y1="-1.905" x2="-1.905" y2="-1.905" width="0.1524" layer="21"/>
<wire x1="-1.905" y1="-1.905" x2="-1.905" y2="-1.27" width="0.1524" layer="21"/>
<wire x1="-1.905" y1="1.27" x2="-1.905" y2="1.905" width="0.1524" layer="21"/>
<wire x1="-1.905" y1="1.905" x2="-1.27" y2="1.905" width="0.1524" layer="21"/>
<wire x1="1.27" y1="1.905" x2="1.905" y2="1.905" width="0.1524" layer="21"/>
<wire x1="1.905" y1="1.905" x2="1.905" y2="1.27" width="0.1524" layer="21"/>
<circle x="0" y="0" radius="1.27" width="0.1524" layer="51"/>
<pad name="1" x="0" y="0" drill="1.3208" diameter="3.81" shape="octagon"/>
<text x="-1.905" y="2.286" size="1.27" layer="25" ratio="10">&gt;NAME</text>
<text x="0" y="1.2" size="0.0254" layer="27">&gt;VALUE</text>
</package>
<package name="3,81/1,4">
<description>&lt;b&gt;THROUGH-HOLE PAD&lt;/b&gt;</description>
<wire x1="1.905" y1="-1.27" x2="1.905" y2="-1.905" width="0.1524" layer="21"/>
<wire x1="1.905" y1="-1.905" x2="1.27" y2="-1.905" width="0.1524" layer="21"/>
<wire x1="-1.27" y1="-1.905" x2="-1.905" y2="-1.905" width="0.1524" layer="21"/>
<wire x1="-1.905" y1="-1.905" x2="-1.905" y2="-1.27" width="0.1524" layer="21"/>
<wire x1="-1.905" y1="1.27" x2="-1.905" y2="1.905" width="0.1524" layer="21"/>
<wire x1="-1.905" y1="1.905" x2="-1.27" y2="1.905" width="0.1524" layer="21"/>
<wire x1="1.27" y1="1.905" x2="1.905" y2="1.905" width="0.1524" layer="21"/>
<wire x1="1.905" y1="1.905" x2="1.905" y2="1.27" width="0.1524" layer="21"/>
<circle x="0" y="0" radius="1.27" width="0.1524" layer="51"/>
<pad name="1" x="0" y="0" drill="1.397" diameter="3.81" shape="octagon"/>
<text x="-1.905" y="2.286" size="1.27" layer="25" ratio="10">&gt;NAME</text>
<text x="0" y="1.2" size="0.0254" layer="27">&gt;VALUE</text>
</package>
<package name="4,16O1,6">
<description>&lt;b&gt;THROUGH-HOLE PAD&lt;/b&gt;</description>
<pad name="1" x="0" y="0" drill="1.6002" diameter="4.1656" shape="octagon"/>
<text x="0" y="0" size="0.0254" layer="27">&gt;VALUE</text>
<text x="-2.1" y="2.2" size="1.27" layer="25">&gt;NAME</text>
</package>
<package name="5-1,8">
<description>&lt;b&gt;THROUGH-HOLE PAD&lt;/b&gt;</description>
<wire x1="1.1684" y1="2.794" x2="-1.1684" y2="2.794" width="0.1524" layer="21"/>
<wire x1="-1.1684" y1="-2.794" x2="-1.1684" y2="2.794" width="0.1524" layer="21"/>
<wire x1="-1.1684" y1="-2.794" x2="1.1684" y2="-2.794" width="0.1524" layer="21"/>
<wire x1="1.1684" y1="2.794" x2="1.1684" y2="-2.794" width="0.1524" layer="21"/>
<smd name="1" x="0" y="0" dx="1.8288" dy="5.08" layer="1"/>
<text x="-1.524" y="-2.54" size="1.27" layer="25" ratio="10" rot="R90">&gt;NAME</text>
<text x="-0.1" y="2.8" size="0.0254" layer="27">&gt;VALUE</text>
</package>
<package name="5-2,5">
<description>&lt;b&gt;THROUGH-HOLE PAD&lt;/b&gt;</description>
<wire x1="1.524" y1="2.794" x2="-1.524" y2="2.794" width="0.1524" layer="21"/>
<wire x1="-1.524" y1="-2.794" x2="-1.524" y2="2.794" width="0.1524" layer="21"/>
<wire x1="-1.524" y1="-2.794" x2="1.524" y2="-2.794" width="0.1524" layer="21"/>
<wire x1="1.524" y1="2.794" x2="1.524" y2="-2.794" width="0.1524" layer="21"/>
<smd name="1" x="0" y="0" dx="2.54" dy="5.08" layer="1"/>
<text x="-1.778" y="-2.54" size="1.27" layer="25" ratio="10" rot="R90">&gt;NAME</text>
<text x="-0.1" y="2.8" size="0.0254" layer="27">&gt;VALUE</text>
</package>
<package name="SMD1,27-2,54">
<description>&lt;b&gt;SMD PAD&lt;/b&gt;</description>
<smd name="1" x="0" y="0" dx="1.27" dy="2.54" layer="1"/>
<text x="0" y="0" size="0.0254" layer="27">&gt;VALUE</text>
<text x="-0.8" y="-2.4" size="1.27" layer="25" rot="R90">&gt;NAME</text>
</package>
<package name="SMD2,54-5,08">
<description>&lt;b&gt;SMD PAD&lt;/b&gt;</description>
<smd name="1" x="0" y="0" dx="2.54" dy="5.08" layer="1"/>
<text x="0" y="0" size="0.0254" layer="27">&gt;VALUE</text>
<text x="-1.5" y="-2.5" size="1.27" layer="25" rot="R90">&gt;NAME</text>
</package>
</packages>
<symbols>
<symbol name="PAD">
<wire x1="-1.016" y1="1.016" x2="1.016" y2="-1.016" width="0.254" layer="94"/>
<wire x1="-1.016" y1="-1.016" x2="1.016" y2="1.016" width="0.254" layer="94"/>
<text x="-1.143" y="1.8542" size="1.778" layer="95">&gt;NAME</text>
<text x="-1.143" y="-3.302" size="1.778" layer="96">&gt;VALUE</text>
<pin name="P" x="2.54" y="0" visible="off" length="short" direction="pas" rot="R180"/>
</symbol>
</symbols>
<devicesets>
<deviceset name="WIREPAD" prefix="PAD">
<description>&lt;b&gt;Wire PAD&lt;/b&gt; connect wire on PCB</description>
<gates>
<gate name="G$1" symbol="PAD" x="0" y="0"/>
</gates>
<devices>
<device name="1,6/0,8" package="1,6/0,8">
<connects>
<connect gate="G$1" pin="P" pad="1"/>
</connects>
<technologies>
<technology name=""/>
</technologies>
</device>
<device name="1,6/0,9" package="1,6/0,9">
<connects>
<connect gate="G$1" pin="P" pad="1"/>
</connects>
<technologies>
<technology name=""/>
</technologies>
</device>
<device name="2,15/1,0" package="2,15/1,0">
<connects>
<connect gate="G$1" pin="P" pad="1"/>
</connects>
<technologies>
<technology name=""/>
</technologies>
</device>
<device name="2,54/0,8" package="2,54/0,8">
<connects>
<connect gate="G$1" pin="P" pad="1"/>
</connects>
<technologies>
<technology name=""/>
</technologies>
</device>
<device name="2,54/0,9" package="2,54/0,9">
<connects>
<connect gate="G$1" pin="P" pad="1"/>
</connects>
<technologies>
<technology name=""/>
</technologies>
</device>
<device name="2,54/1,0" package="2,54/1,0">
<connects>
<connect gate="G$1" pin="P" pad="1"/>
</connects>
<technologies>
<technology name=""/>
</technologies>
</device>
<device name="2,54/1,1" package="2,54/1,1">
<connects>
<connect gate="G$1" pin="P" pad="1"/>
</connects>
<technologies>
<technology name=""/>
</technologies>
</device>
<device name="3,17/1,1" package="3,17/1,1">
<connects>
<connect gate="G$1" pin="P" pad="1"/>
</connects>
<technologies>
<technology name=""/>
</technologies>
</device>
<device name="3,17/1,2" package="3,17/1,2">
<connects>
<connect gate="G$1" pin="P" pad="1"/>
</connects>
<technologies>
<technology name=""/>
</technologies>
</device>
<device name="3,17/1,3" package="3,17/1,3">
<connects>
<connect gate="G$1" pin="P" pad="1"/>
</connects>
<technologies>
<technology name=""/>
</technologies>
</device>
<device name="3,81/1,1" package="3,81/1,1">
<connects>
<connect gate="G$1" pin="P" pad="1"/>
</connects>
<technologies>
<technology name=""/>
</technologies>
</device>
<device name="3,81/1,3" package="3,81/1,3">
<connects>
<connect gate="G$1" pin="P" pad="1"/>
</connects>
<technologies>
<technology name=""/>
</technologies>
</device>
<device name="3,81/1,4" package="3,81/1,4">
<connects>
<connect gate="G$1" pin="P" pad="1"/>
</connects>
<technologies>
<technology name=""/>
</technologies>
</device>
<device name="4,16O1,6" package="4,16O1,6">
<connects>
<connect gate="G$1" pin="P" pad="1"/>
</connects>
<technologies>
<technology name=""/>
</technologies>
</device>
<device name="SMD5-1,8" package="5-1,8">
<connects>
<connect gate="G$1" pin="P" pad="1"/>
</connects>
<technologies>
<technology name=""/>
</technologies>
</device>
<device name="SMD5-2,5" package="5-2,5">
<connects>
<connect gate="G$1" pin="P" pad="1"/>
</connects>
<technologies>
<technology name=""/>
</technologies>
</device>
<device name="SMD1,27-254" package="SMD1,27-2,54">
<connects>
<connect gate="G$1" pin="P" pad="1"/>
</connects>
<technologies>
<technology name=""/>
</technologies>
</device>
<device name="SMD2,54-5,08" package="SMD2,54-5,08">
<connects>
<connect gate="G$1" pin="P" pad="1"/>
</connects>
<technologies>
<technology name=""/>
</technologies>
</device>
</devices>
</deviceset>
</devicesets>
</library>
</libraries>
<attributes>
</attributes>
<variantdefs>
</variantdefs>
<classes>
<class number="0" name="default" width="0" drill="0">
</class>
</classes>
<parts>
<part name="FRAME1" library="frames" deviceset="A4L-LOC" device=""/>
<part name="AIN" library="wirepad" deviceset="WIREPAD" device="3,81/1,4"/>
<part name="BIN" library="wirepad" deviceset="WIREPAD" device="3,81/1,4"/>
<part name="CIN" library="wirepad" deviceset="WIREPAD" device="3,81/1,4"/>
<part name="NEUTRAL" library="wirepad" deviceset="WIREPAD" device="3,81/1,4"/>
<part name="BOUT" library="wirepad" deviceset="WIREPAD" device="3,81/1,4"/>
<part name="B-NEUTRAL" library="wirepad" deviceset="WIREPAD" device="3,81/1,4"/>
<part name="COUT" library="wirepad" deviceset="WIREPAD" device="3,81/1,4"/>
<part name="C-NEUTRAL" library="wirepad" deviceset="WIREPAD" device="3,81/1,4"/>
<part name="A-NEUTRAL" library="wirepad" deviceset="WIREPAD" device="3,81/1,4"/>
<part name="AOUT" library="wirepad" deviceset="WIREPAD" device="3,81/1,4"/>
</parts>
<sheets>
<sheet>
<plain>
</plain>
<instances>
<instance part="FRAME1" gate="G$1" x="-231.14" y="91.44"/>
<instance part="AIN" gate="G$1" x="-170.18" y="203.2"/>
<instance part="BIN" gate="G$1" x="-170.18" y="193.04"/>
<instance part="CIN" gate="G$1" x="-170.18" y="180.34"/>
<instance part="NEUTRAL" gate="G$1" x="-170.18" y="170.18"/>
<instance part="BOUT" gate="G$1" x="-104.14" y="193.04" rot="R180"/>
<instance part="B-NEUTRAL" gate="G$1" x="-78.74" y="185.42" rot="R180"/>
<instance part="COUT" gate="G$1" x="-104.14" y="177.8" rot="R180"/>
<instance part="C-NEUTRAL" gate="G$1" x="-78.74" y="170.18" rot="R180"/>
<instance part="A-NEUTRAL" gate="G$1" x="-78.74" y="200.66" rot="R180"/>
<instance part="AOUT" gate="G$1" x="-104.14" y="208.28" rot="R180"/>
</instances>
<busses>
</busses>
<nets>
<net name="N$1" class="0">
<segment>
<pinref part="A-NEUTRAL" gate="G$1" pin="P"/>
<wire x1="-81.28" y1="200.66" x2="-121.92" y2="200.66" width="0.1524" layer="91"/>
<wire x1="-121.92" y1="200.66" x2="-121.92" y2="185.42" width="0.1524" layer="91"/>
<pinref part="B-NEUTRAL" gate="G$1" pin="P"/>
<wire x1="-121.92" y1="185.42" x2="-81.28" y2="185.42" width="0.1524" layer="91"/>
<pinref part="C-NEUTRAL" gate="G$1" pin="P"/>
<wire x1="-81.28" y1="170.18" x2="-121.92" y2="170.18" width="0.1524" layer="91"/>
<wire x1="-121.92" y1="170.18" x2="-121.92" y2="185.42" width="0.1524" layer="91"/>
<junction x="-121.92" y="185.42"/>
<pinref part="NEUTRAL" gate="G$1" pin="P"/>
<wire x1="-167.64" y1="170.18" x2="-121.92" y2="170.18" width="0.1524" layer="91"/>
<junction x="-121.92" y="170.18"/>
</segment>
</net>
<net name="N$4" class="0">
<segment>
<pinref part="BOUT" gate="G$1" pin="P"/>
<pinref part="BIN" gate="G$1" pin="P"/>
<wire x1="-106.68" y1="193.04" x2="-167.64" y2="193.04" width="0.1524" layer="91"/>
</segment>
</net>
<net name="N$5" class="0">
<segment>
<pinref part="AOUT" gate="G$1" pin="P"/>
<wire x1="-106.68" y1="208.28" x2="-147.32" y2="208.28" width="0.1524" layer="91"/>
<wire x1="-147.32" y1="208.28" x2="-147.32" y2="203.2" width="0.1524" layer="91"/>
<pinref part="AIN" gate="G$1" pin="P"/>
<wire x1="-147.32" y1="203.2" x2="-167.64" y2="203.2" width="0.1524" layer="91"/>
</segment>
</net>
<net name="N$2" class="0">
<segment>
<pinref part="CIN" gate="G$1" pin="P"/>
<wire x1="-167.64" y1="180.34" x2="-127" y2="180.34" width="0.1524" layer="91"/>
<wire x1="-127" y1="180.34" x2="-127" y2="177.8" width="0.1524" layer="91"/>
<pinref part="COUT" gate="G$1" pin="P"/>
<wire x1="-127" y1="177.8" x2="-106.68" y2="177.8" width="0.1524" layer="91"/>
</segment>
</net>
</nets>
</sheet>
</sheets>
</schematic>
</drawing>
</eagle>
