<?xml version="1.0" encoding="utf-8"?>
<!DOCTYPE eagle SYSTEM "eagle.dtd">
<eagle version="6.6.0">
<drawing>
<settings>
<setting alwaysvectorfont="no"/>
<setting verticaltext="up"/>
</settings>
<grid distance="0.05" unitdist="inch" unit="inch" style="dots" multiple="1" display="yes" altdistance="0.025" altunitdist="inch" altunit="inch"/>
<layers>
<layer number="1" name="Top" color="4" fill="1" visible="yes" active="yes"/>
<layer number="16" name="Bottom" color="1" fill="1" visible="yes" active="yes"/>
<layer number="17" name="Pads" color="2" fill="1" visible="yes" active="yes"/>
<layer number="18" name="Vias" color="2" fill="1" visible="yes" active="yes"/>
<layer number="19" name="Unrouted" color="6" fill="1" visible="yes" active="yes"/>
<layer number="20" name="Dimension" color="15" fill="1" visible="yes" active="yes"/>
<layer number="21" name="tPlace" color="7" fill="1" visible="yes" active="yes"/>
<layer number="22" name="bPlace" color="7" fill="1" visible="yes" active="yes"/>
<layer number="23" name="tOrigins" color="15" fill="1" visible="yes" active="yes"/>
<layer number="24" name="bOrigins" color="15" fill="1" visible="yes" active="yes"/>
<layer number="25" name="tNames" color="7" fill="1" visible="yes" active="yes"/>
<layer number="26" name="bNames" color="7" fill="1" visible="yes" active="yes"/>
<layer number="27" name="tValues" color="7" fill="1" visible="yes" active="yes"/>
<layer number="28" name="bValues" color="7" fill="1" visible="yes" active="yes"/>
<layer number="29" name="tStop" color="7" fill="3" visible="yes" active="yes"/>
<layer number="30" name="bStop" color="7" fill="6" visible="yes" active="yes"/>
<layer number="31" name="tCream" color="7" fill="4" visible="yes" active="yes"/>
<layer number="32" name="bCream" color="7" fill="5" visible="yes" active="yes"/>
<layer number="33" name="tFinish" color="6" fill="3" visible="yes" active="yes"/>
<layer number="34" name="bFinish" color="6" fill="6" visible="yes" active="yes"/>
<layer number="35" name="tGlue" color="7" fill="4" visible="yes" active="yes"/>
<layer number="36" name="bGlue" color="7" fill="5" visible="yes" active="yes"/>
<layer number="37" name="tTest" color="7" fill="1" visible="yes" active="yes"/>
<layer number="38" name="bTest" color="7" fill="1" visible="yes" active="yes"/>
<layer number="39" name="tKeepout" color="4" fill="11" visible="yes" active="yes"/>
<layer number="40" name="bKeepout" color="1" fill="11" visible="yes" active="yes"/>
<layer number="41" name="tRestrict" color="4" fill="10" visible="yes" active="yes"/>
<layer number="42" name="bRestrict" color="1" fill="10" visible="yes" active="yes"/>
<layer number="43" name="vRestrict" color="2" fill="10" visible="yes" active="yes"/>
<layer number="44" name="Drills" color="7" fill="1" visible="yes" active="yes"/>
<layer number="45" name="Holes" color="7" fill="1" visible="yes" active="yes"/>
<layer number="46" name="Milling" color="3" fill="1" visible="yes" active="yes"/>
<layer number="47" name="Measures" color="7" fill="1" visible="yes" active="yes"/>
<layer number="48" name="Document" color="7" fill="1" visible="yes" active="yes"/>
<layer number="49" name="Reference" color="7" fill="1" visible="yes" active="yes"/>
<layer number="51" name="tDocu" color="7" fill="1" visible="yes" active="yes"/>
<layer number="52" name="bDocu" color="7" fill="1" visible="yes" active="yes"/>
<layer number="91" name="Nets" color="2" fill="1" visible="no" active="no"/>
<layer number="92" name="Busses" color="1" fill="1" visible="no" active="no"/>
<layer number="93" name="Pins" color="2" fill="1" visible="no" active="no"/>
<layer number="94" name="Symbols" color="4" fill="1" visible="no" active="no"/>
<layer number="95" name="Names" color="7" fill="1" visible="no" active="no"/>
<layer number="96" name="Values" color="7" fill="1" visible="no" active="no"/>
<layer number="97" name="Info" color="7" fill="1" visible="no" active="no"/>
<layer number="98" name="Guide" color="6" fill="1" visible="no" active="no"/>
<layer number="99" name="SpiceOrder" color="5" fill="1" visible="no" active="no"/>
</layers>
<board>
<plain>
<wire x1="3.81" y1="0" x2="82.22" y2="0" width="0" layer="20"/>
<wire x1="82.22" y1="0" x2="82.22" y2="76.19" width="0" layer="20"/>
<wire x1="82.22" y1="76.19" x2="3.81" y2="76.19" width="0" layer="20"/>
<wire x1="3.81" y1="76.19" x2="3.81" y2="0" width="0" layer="20"/>
<dimension x1="3.81" y1="80" x2="50.8" y2="73.66" x3="27.305" y3="73.66" textsize="1.778" layer="16" dtype="horizontal" precision="6" visible="yes"/>
<dimension x1="3.81" y1="80" x2="7.62" y2="76.2" x3="5.715" y3="76.2" textsize="1.778" layer="16" dtype="horizontal" precision="6" visible="yes"/>
<dimension x1="13.97" y1="69.85" x2="16.51" y2="59.69" x3="15.24" y3="64.77" textsize="1.778" layer="16" dtype="vertical" precision="6" visible="yes"/>
<dimension x1="3.81" y1="55.87" x2="40.64" y2="49.53" x3="22.225" y3="49.53" textsize="1.778" layer="16" dtype="horizontal" precision="6" visible="yes"/>
<dimension x1="5.08" y1="49.53" x2="7.62" y2="12.7" x3="6.35" y3="31.115" textsize="1.778" layer="16" dtype="vertical" precision="6" visible="yes"/>
<dimension x1="21.59" y1="12.7" x2="25.4" y2="1.27" x3="22.86" y3="6.985" textsize="1.778" layer="16" dtype="vertical" precision="6" visible="yes"/>
<dimension x1="7.62" y1="49.53" x2="10.16" y2="17.78" x3="8.89" y3="33.655" textsize="1.778" layer="16" dtype="vertical" precision="6" visible="yes"/>
<circle x="6.35" y="17.78" radius="1.27" width="0.4064" layer="16"/>
<dimension x1="93.98" y1="59.69" x2="96.52" y2="52.07" x3="95.25" y3="55.88" textsize="1.778" layer="16" dtype="vertical" precision="6" visible="yes"/>
</plain>
<libraries>
<library name="pinhead">
<description>&lt;b&gt;Pin Header Connectors&lt;/b&gt;&lt;p&gt;
&lt;author&gt;Created by librarian@cadsoft.de&lt;/author&gt;</description>
<packages>
<package name="1X06">
<description>&lt;b&gt;PIN HEADER&lt;/b&gt;</description>
<wire x1="0.635" y1="1.27" x2="1.905" y2="1.27" width="0.1524" layer="21"/>
<wire x1="1.905" y1="1.27" x2="2.54" y2="0.635" width="0.1524" layer="21"/>
<wire x1="2.54" y1="0.635" x2="2.54" y2="-0.635" width="0.1524" layer="21"/>
<wire x1="2.54" y1="-0.635" x2="1.905" y2="-1.27" width="0.1524" layer="21"/>
<wire x1="2.54" y1="0.635" x2="3.175" y2="1.27" width="0.1524" layer="21"/>
<wire x1="3.175" y1="1.27" x2="4.445" y2="1.27" width="0.1524" layer="21"/>
<wire x1="4.445" y1="1.27" x2="5.08" y2="0.635" width="0.1524" layer="21"/>
<wire x1="5.08" y1="0.635" x2="5.08" y2="-0.635" width="0.1524" layer="21"/>
<wire x1="5.08" y1="-0.635" x2="4.445" y2="-1.27" width="0.1524" layer="21"/>
<wire x1="4.445" y1="-1.27" x2="3.175" y2="-1.27" width="0.1524" layer="21"/>
<wire x1="3.175" y1="-1.27" x2="2.54" y2="-0.635" width="0.1524" layer="21"/>
<wire x1="-2.54" y1="0.635" x2="-1.905" y2="1.27" width="0.1524" layer="21"/>
<wire x1="-1.905" y1="1.27" x2="-0.635" y2="1.27" width="0.1524" layer="21"/>
<wire x1="-0.635" y1="1.27" x2="0" y2="0.635" width="0.1524" layer="21"/>
<wire x1="0" y1="0.635" x2="0" y2="-0.635" width="0.1524" layer="21"/>
<wire x1="0" y1="-0.635" x2="-0.635" y2="-1.27" width="0.1524" layer="21"/>
<wire x1="-0.635" y1="-1.27" x2="-1.905" y2="-1.27" width="0.1524" layer="21"/>
<wire x1="-1.905" y1="-1.27" x2="-2.54" y2="-0.635" width="0.1524" layer="21"/>
<wire x1="0.635" y1="1.27" x2="0" y2="0.635" width="0.1524" layer="21"/>
<wire x1="0" y1="-0.635" x2="0.635" y2="-1.27" width="0.1524" layer="21"/>
<wire x1="1.905" y1="-1.27" x2="0.635" y2="-1.27" width="0.1524" layer="21"/>
<wire x1="-6.985" y1="1.27" x2="-5.715" y2="1.27" width="0.1524" layer="21"/>
<wire x1="-5.715" y1="1.27" x2="-5.08" y2="0.635" width="0.1524" layer="21"/>
<wire x1="-5.08" y1="0.635" x2="-5.08" y2="-0.635" width="0.1524" layer="21"/>
<wire x1="-5.08" y1="-0.635" x2="-5.715" y2="-1.27" width="0.1524" layer="21"/>
<wire x1="-5.08" y1="0.635" x2="-4.445" y2="1.27" width="0.1524" layer="21"/>
<wire x1="-4.445" y1="1.27" x2="-3.175" y2="1.27" width="0.1524" layer="21"/>
<wire x1="-3.175" y1="1.27" x2="-2.54" y2="0.635" width="0.1524" layer="21"/>
<wire x1="-2.54" y1="0.635" x2="-2.54" y2="-0.635" width="0.1524" layer="21"/>
<wire x1="-2.54" y1="-0.635" x2="-3.175" y2="-1.27" width="0.1524" layer="21"/>
<wire x1="-3.175" y1="-1.27" x2="-4.445" y2="-1.27" width="0.1524" layer="21"/>
<wire x1="-4.445" y1="-1.27" x2="-5.08" y2="-0.635" width="0.1524" layer="21"/>
<wire x1="-7.62" y1="0.635" x2="-7.62" y2="-0.635" width="0.1524" layer="21"/>
<wire x1="-6.985" y1="1.27" x2="-7.62" y2="0.635" width="0.1524" layer="21"/>
<wire x1="-7.62" y1="-0.635" x2="-6.985" y2="-1.27" width="0.1524" layer="21"/>
<wire x1="-5.715" y1="-1.27" x2="-6.985" y2="-1.27" width="0.1524" layer="21"/>
<wire x1="5.715" y1="1.27" x2="6.985" y2="1.27" width="0.1524" layer="21"/>
<wire x1="6.985" y1="1.27" x2="7.62" y2="0.635" width="0.1524" layer="21"/>
<wire x1="7.62" y1="0.635" x2="7.62" y2="-0.635" width="0.1524" layer="21"/>
<wire x1="7.62" y1="-0.635" x2="6.985" y2="-1.27" width="0.1524" layer="21"/>
<wire x1="5.715" y1="1.27" x2="5.08" y2="0.635" width="0.1524" layer="21"/>
<wire x1="5.08" y1="-0.635" x2="5.715" y2="-1.27" width="0.1524" layer="21"/>
<wire x1="6.985" y1="-1.27" x2="5.715" y2="-1.27" width="0.1524" layer="21"/>
<pad name="1" x="-6.35" y="0" drill="1.016" shape="long" rot="R90"/>
<pad name="2" x="-3.81" y="0" drill="1.016" shape="long" rot="R90"/>
<pad name="3" x="-1.27" y="0" drill="1.016" shape="long" rot="R90"/>
<pad name="4" x="1.27" y="0" drill="1.016" shape="long" rot="R90"/>
<pad name="5" x="3.81" y="0" drill="1.016" shape="long" rot="R90"/>
<pad name="6" x="6.35" y="0" drill="1.016" shape="long" rot="R90"/>
<text x="-7.6962" y="1.8288" size="1.27" layer="25" ratio="10">&gt;NAME</text>
<text x="-7.62" y="-3.175" size="1.27" layer="27">&gt;VALUE</text>
<rectangle x1="3.556" y1="-0.254" x2="4.064" y2="0.254" layer="51"/>
<rectangle x1="1.016" y1="-0.254" x2="1.524" y2="0.254" layer="51"/>
<rectangle x1="-1.524" y1="-0.254" x2="-1.016" y2="0.254" layer="51"/>
<rectangle x1="-4.064" y1="-0.254" x2="-3.556" y2="0.254" layer="51"/>
<rectangle x1="-6.604" y1="-0.254" x2="-6.096" y2="0.254" layer="51"/>
<rectangle x1="6.096" y1="-0.254" x2="6.604" y2="0.254" layer="51"/>
</package>
<package name="1X07">
<description>&lt;b&gt;PIN HEADER&lt;/b&gt;</description>
<wire x1="3.81" y1="0.635" x2="4.445" y2="1.27" width="0.1524" layer="21"/>
<wire x1="4.445" y1="1.27" x2="5.715" y2="1.27" width="0.1524" layer="21"/>
<wire x1="5.715" y1="1.27" x2="6.35" y2="0.635" width="0.1524" layer="21"/>
<wire x1="6.35" y1="0.635" x2="6.35" y2="-0.635" width="0.1524" layer="21"/>
<wire x1="6.35" y1="-0.635" x2="5.715" y2="-1.27" width="0.1524" layer="21"/>
<wire x1="5.715" y1="-1.27" x2="4.445" y2="-1.27" width="0.1524" layer="21"/>
<wire x1="4.445" y1="-1.27" x2="3.81" y2="-0.635" width="0.1524" layer="21"/>
<wire x1="-0.635" y1="1.27" x2="0.635" y2="1.27" width="0.1524" layer="21"/>
<wire x1="0.635" y1="1.27" x2="1.27" y2="0.635" width="0.1524" layer="21"/>
<wire x1="1.27" y1="0.635" x2="1.27" y2="-0.635" width="0.1524" layer="21"/>
<wire x1="1.27" y1="-0.635" x2="0.635" y2="-1.27" width="0.1524" layer="21"/>
<wire x1="1.27" y1="0.635" x2="1.905" y2="1.27" width="0.1524" layer="21"/>
<wire x1="1.905" y1="1.27" x2="3.175" y2="1.27" width="0.1524" layer="21"/>
<wire x1="3.175" y1="1.27" x2="3.81" y2="0.635" width="0.1524" layer="21"/>
<wire x1="3.81" y1="0.635" x2="3.81" y2="-0.635" width="0.1524" layer="21"/>
<wire x1="3.81" y1="-0.635" x2="3.175" y2="-1.27" width="0.1524" layer="21"/>
<wire x1="3.175" y1="-1.27" x2="1.905" y2="-1.27" width="0.1524" layer="21"/>
<wire x1="1.905" y1="-1.27" x2="1.27" y2="-0.635" width="0.1524" layer="21"/>
<wire x1="-3.81" y1="0.635" x2="-3.175" y2="1.27" width="0.1524" layer="21"/>
<wire x1="-3.175" y1="1.27" x2="-1.905" y2="1.27" width="0.1524" layer="21"/>
<wire x1="-1.905" y1="1.27" x2="-1.27" y2="0.635" width="0.1524" layer="21"/>
<wire x1="-1.27" y1="0.635" x2="-1.27" y2="-0.635" width="0.1524" layer="21"/>
<wire x1="-1.27" y1="-0.635" x2="-1.905" y2="-1.27" width="0.1524" layer="21"/>
<wire x1="-1.905" y1="-1.27" x2="-3.175" y2="-1.27" width="0.1524" layer="21"/>
<wire x1="-3.175" y1="-1.27" x2="-3.81" y2="-0.635" width="0.1524" layer="21"/>
<wire x1="-0.635" y1="1.27" x2="-1.27" y2="0.635" width="0.1524" layer="21"/>
<wire x1="-1.27" y1="-0.635" x2="-0.635" y2="-1.27" width="0.1524" layer="21"/>
<wire x1="0.635" y1="-1.27" x2="-0.635" y2="-1.27" width="0.1524" layer="21"/>
<wire x1="-8.255" y1="1.27" x2="-6.985" y2="1.27" width="0.1524" layer="21"/>
<wire x1="-6.985" y1="1.27" x2="-6.35" y2="0.635" width="0.1524" layer="21"/>
<wire x1="-6.35" y1="0.635" x2="-6.35" y2="-0.635" width="0.1524" layer="21"/>
<wire x1="-6.35" y1="-0.635" x2="-6.985" y2="-1.27" width="0.1524" layer="21"/>
<wire x1="-6.35" y1="0.635" x2="-5.715" y2="1.27" width="0.1524" layer="21"/>
<wire x1="-5.715" y1="1.27" x2="-4.445" y2="1.27" width="0.1524" layer="21"/>
<wire x1="-4.445" y1="1.27" x2="-3.81" y2="0.635" width="0.1524" layer="21"/>
<wire x1="-3.81" y1="0.635" x2="-3.81" y2="-0.635" width="0.1524" layer="21"/>
<wire x1="-3.81" y1="-0.635" x2="-4.445" y2="-1.27" width="0.1524" layer="21"/>
<wire x1="-4.445" y1="-1.27" x2="-5.715" y2="-1.27" width="0.1524" layer="21"/>
<wire x1="-5.715" y1="-1.27" x2="-6.35" y2="-0.635" width="0.1524" layer="21"/>
<wire x1="-8.89" y1="0.635" x2="-8.89" y2="-0.635" width="0.1524" layer="21"/>
<wire x1="-8.255" y1="1.27" x2="-8.89" y2="0.635" width="0.1524" layer="21"/>
<wire x1="-8.89" y1="-0.635" x2="-8.255" y2="-1.27" width="0.1524" layer="21"/>
<wire x1="-6.985" y1="-1.27" x2="-8.255" y2="-1.27" width="0.1524" layer="21"/>
<wire x1="6.985" y1="1.27" x2="8.255" y2="1.27" width="0.1524" layer="21"/>
<wire x1="8.255" y1="1.27" x2="8.89" y2="0.635" width="0.1524" layer="21"/>
<wire x1="8.89" y1="0.635" x2="8.89" y2="-0.635" width="0.1524" layer="21"/>
<wire x1="8.89" y1="-0.635" x2="8.255" y2="-1.27" width="0.1524" layer="21"/>
<wire x1="6.985" y1="1.27" x2="6.35" y2="0.635" width="0.1524" layer="21"/>
<wire x1="6.35" y1="-0.635" x2="6.985" y2="-1.27" width="0.1524" layer="21"/>
<wire x1="8.255" y1="-1.27" x2="6.985" y2="-1.27" width="0.1524" layer="21"/>
<pad name="1" x="-7.62" y="0" drill="1.016" shape="long" rot="R90"/>
<pad name="2" x="-5.08" y="0" drill="1.016" shape="long" rot="R90"/>
<pad name="3" x="-2.54" y="0" drill="1.016" shape="long" rot="R90"/>
<pad name="4" x="0" y="0" drill="1.016" shape="long" rot="R90"/>
<pad name="5" x="2.54" y="0" drill="1.016" shape="long" rot="R90"/>
<pad name="6" x="5.08" y="0" drill="1.016" shape="long" rot="R90"/>
<pad name="7" x="7.62" y="0" drill="1.016" shape="long" rot="R90"/>
<text x="-8.9662" y="1.8288" size="1.27" layer="25" ratio="10">&gt;NAME</text>
<text x="-8.89" y="-3.175" size="1.27" layer="27">&gt;VALUE</text>
<rectangle x1="4.826" y1="-0.254" x2="5.334" y2="0.254" layer="51"/>
<rectangle x1="2.286" y1="-0.254" x2="2.794" y2="0.254" layer="51"/>
<rectangle x1="-0.254" y1="-0.254" x2="0.254" y2="0.254" layer="51"/>
<rectangle x1="-2.794" y1="-0.254" x2="-2.286" y2="0.254" layer="51"/>
<rectangle x1="-5.334" y1="-0.254" x2="-4.826" y2="0.254" layer="51"/>
<rectangle x1="-7.874" y1="-0.254" x2="-7.366" y2="0.254" layer="51"/>
<rectangle x1="7.366" y1="-0.254" x2="7.874" y2="0.254" layer="51"/>
</package>
<package name="1X02">
<description>&lt;b&gt;PIN HEADER&lt;/b&gt;</description>
<wire x1="-1.905" y1="1.27" x2="-0.635" y2="1.27" width="0.1524" layer="21"/>
<wire x1="-0.635" y1="1.27" x2="0" y2="0.635" width="0.1524" layer="21"/>
<wire x1="0" y1="0.635" x2="0" y2="-0.635" width="0.1524" layer="21"/>
<wire x1="0" y1="-0.635" x2="-0.635" y2="-1.27" width="0.1524" layer="21"/>
<wire x1="-2.54" y1="0.635" x2="-2.54" y2="-0.635" width="0.1524" layer="21"/>
<wire x1="-1.905" y1="1.27" x2="-2.54" y2="0.635" width="0.1524" layer="21"/>
<wire x1="-2.54" y1="-0.635" x2="-1.905" y2="-1.27" width="0.1524" layer="21"/>
<wire x1="-0.635" y1="-1.27" x2="-1.905" y2="-1.27" width="0.1524" layer="21"/>
<wire x1="0" y1="0.635" x2="0.635" y2="1.27" width="0.1524" layer="21"/>
<wire x1="0.635" y1="1.27" x2="1.905" y2="1.27" width="0.1524" layer="21"/>
<wire x1="1.905" y1="1.27" x2="2.54" y2="0.635" width="0.1524" layer="21"/>
<wire x1="2.54" y1="0.635" x2="2.54" y2="-0.635" width="0.1524" layer="21"/>
<wire x1="2.54" y1="-0.635" x2="1.905" y2="-1.27" width="0.1524" layer="21"/>
<wire x1="1.905" y1="-1.27" x2="0.635" y2="-1.27" width="0.1524" layer="21"/>
<wire x1="0.635" y1="-1.27" x2="0" y2="-0.635" width="0.1524" layer="21"/>
<pad name="1" x="-1.27" y="0" drill="1.016" shape="long" rot="R90"/>
<pad name="2" x="1.27" y="0" drill="1.016" shape="long" rot="R90"/>
<text x="-2.6162" y="1.8288" size="1.27" layer="25" ratio="10">&gt;NAME</text>
<text x="-2.54" y="-3.175" size="1.27" layer="27">&gt;VALUE</text>
<rectangle x1="-1.524" y1="-0.254" x2="-1.016" y2="0.254" layer="51"/>
<rectangle x1="1.016" y1="-0.254" x2="1.524" y2="0.254" layer="51"/>
</package>
</packages>
</library>
<library name="solpad">
<description>&lt;b&gt;Solder Pads/Test Points&lt;/b&gt;&lt;p&gt;
&lt;author&gt;Created by librarian@cadsoft.de&lt;/author&gt;</description>
<packages>
<package name="LSP10">
<description>&lt;b&gt;SOLDER PAD&lt;/b&gt;&lt;p&gt;
drill 1.0 mm</description>
<wire x1="-1.27" y1="0.254" x2="-1.27" y2="-0.254" width="0.1524" layer="21"/>
<wire x1="1.27" y1="0.254" x2="1.27" y2="-0.254" width="0.1524" layer="21"/>
<wire x1="1.27" y1="0.254" x2="1.143" y2="0.254" width="0.1524" layer="21"/>
<wire x1="1.27" y1="-0.254" x2="1.143" y2="-0.254" width="0.1524" layer="21"/>
<wire x1="-1.27" y1="-0.254" x2="-1.143" y2="-0.254" width="0.1524" layer="21"/>
<wire x1="-1.27" y1="0.254" x2="-1.143" y2="0.254" width="0.1524" layer="21"/>
<wire x1="1.143" y1="0.254" x2="0.635" y2="0.254" width="0.1524" layer="51"/>
<wire x1="-1.143" y1="-0.254" x2="-0.635" y2="-0.254" width="0.1524" layer="51"/>
<wire x1="0.635" y1="0.254" x2="0.635" y2="-0.254" width="0.1524" layer="51"/>
<wire x1="0.635" y1="0.254" x2="-0.635" y2="0.254" width="0.1524" layer="51"/>
<wire x1="0.635" y1="-0.254" x2="1.143" y2="-0.254" width="0.1524" layer="51"/>
<wire x1="-0.635" y1="0.254" x2="-0.635" y2="-0.254" width="0.1524" layer="51"/>
<wire x1="-0.635" y1="0.254" x2="-1.143" y2="0.254" width="0.1524" layer="51"/>
<wire x1="-0.635" y1="-0.254" x2="0.635" y2="-0.254" width="0.1524" layer="51"/>
<pad name="MP" x="0" y="0" drill="1.016" diameter="2.159" shape="octagon"/>
<text x="-1.27" y="1.27" size="1.27" layer="25" ratio="10">&gt;NAME</text>
<text x="0" y="0.254" size="0.0254" layer="27">&gt;VALUE</text>
</package>
</packages>
</library>
<library name="rectifier">
<description>&lt;b&gt;Rectifiers&lt;/b&gt;&lt;p&gt;
General Instrument, Semikron, Diotec, Fagor&lt;p&gt;
&lt;author&gt;Created by librarian@cadsoft.de&lt;/author&gt;</description>
<packages>
<package name="FB15">
<description>&lt;b&gt;FAGOR RECTIFIER&lt;/b&gt;&lt;p&gt;
grid 3 x 5 mm</description>
<wire x1="-10.04" y1="-2.54" x2="-10.04" y2="2.54" width="0.1524" layer="21"/>
<wire x1="10.28" y1="2.54" x2="10.28" y2="-2.54" width="0.1524" layer="21"/>
<wire x1="-10.04" y1="2.54" x2="6.724" y2="2.54" width="0.1524" layer="21"/>
<wire x1="6.724" y1="2.54" x2="10.28" y2="2.54" width="0.1524" layer="21"/>
<wire x1="7.232" y1="-1.778" x2="8.248" y2="-1.778" width="0.1524" layer="21"/>
<wire x1="-6.484" y1="-1.651" x2="-5.468" y2="-1.651" width="0.1524" layer="21"/>
<wire x1="-3.0296" y1="-1.778" x2="-2.3692" y2="-1.778" width="0.1524" layer="21" curve="180"/>
<wire x1="-3.69" y1="-1.778" x2="-3.0296" y2="-1.778" width="0.1524" layer="21" curve="-180"/>
<wire x1="1.7964" y1="-1.778" x2="2.4568" y2="-1.778" width="0.1524" layer="21" curve="180"/>
<wire x1="1.136" y1="-1.778" x2="1.7964" y2="-1.778" width="0.1524" layer="21" curve="-180"/>
<wire x1="10.28" y1="-2.54" x2="6.724" y2="-2.54" width="0.1524" layer="21"/>
<wire x1="6.724" y1="-2.54" x2="-10.04" y2="-2.54" width="0.1524" layer="21"/>
<wire x1="-5.976" y1="-2.159" x2="-5.976" y2="-1.143" width="0.1524" layer="21"/>
<wire x1="6.724" y1="2.54" x2="6.724" y2="1.397" width="0.1524" layer="21"/>
<wire x1="6.724" y1="-1.397" x2="6.724" y2="1.397" width="0.1524" layer="51"/>
<wire x1="6.724" y1="-1.397" x2="6.724" y2="-2.54" width="0.1524" layer="21"/>
<pad name="-" x="7.5114" y="0" drill="1.016" shape="long" rot="R90"/>
<pad name="+" x="-7.5" y="0" drill="1.016" shape="long" rot="R90"/>
<pad name="AC2" x="2.533" y="0" drill="1.016" shape="long" rot="R90"/>
<pad name="AC1" x="-2.4962" y="0" drill="1.016" shape="long" rot="R90"/>
<text x="-10.04" y="3.048" size="1.778" layer="25" ratio="10">&gt;NAME</text>
<text x="-1.912" y="3.048" size="1.778" layer="27" ratio="10">&gt;VALUE</text>
<rectangle x1="-10" y1="-2.5" x2="10" y2="2.5" layer="43"/>
</package>
</packages>
</library>
<library name="optocoupler">
<description>&lt;b&gt;Opto Couplers&lt;/b&gt;&lt;p&gt;
Siemens, Hewlett-Packard, Texas Instuments, Sharp, Motorola&lt;p&gt;
&lt;author&gt;Created by librarian@cadsoft.de&lt;/author&gt;</description>
<packages>
<package name="DIL08">
<description>&lt;b&gt;Dual In Line Package&lt;/b&gt;</description>
<wire x1="5.08" y1="2.921" x2="-5.08" y2="2.921" width="0.1524" layer="21"/>
<wire x1="-5.08" y1="-2.921" x2="5.08" y2="-2.921" width="0.1524" layer="21"/>
<wire x1="5.08" y1="2.921" x2="5.08" y2="-2.921" width="0.1524" layer="21"/>
<wire x1="-5.08" y1="2.921" x2="-5.08" y2="1.016" width="0.1524" layer="21"/>
<wire x1="-5.08" y1="-2.921" x2="-5.08" y2="-1.016" width="0.1524" layer="21"/>
<wire x1="-5.08" y1="1.016" x2="-5.08" y2="-1.016" width="0.1524" layer="21" curve="-180"/>
<pad name="1" x="-3.81" y="-3.81" drill="0.8128" shape="offset" rot="R270"/>
<pad name="2" x="-1.27" y="-3.81" drill="0.8128" shape="offset" rot="R270"/>
<pad name="7" x="-1.27" y="3.81" drill="0.8128" shape="offset" rot="R90"/>
<pad name="8" x="-3.81" y="3.81" drill="0.8128" shape="offset" rot="R90"/>
<pad name="3" x="1.27" y="-3.81" drill="0.8128" shape="offset" rot="R270"/>
<pad name="4" x="3.81" y="-3.81" drill="0.8128" shape="offset" rot="R270"/>
<pad name="6" x="1.27" y="3.81" drill="0.8128" shape="offset" rot="R90"/>
<pad name="5" x="3.81" y="3.81" drill="0.8128" shape="offset" rot="R90"/>
<text x="-5.334" y="-2.921" size="1.27" layer="25" ratio="10" rot="R90">&gt;NAME</text>
<text x="-3.556" y="-0.635" size="1.27" layer="27" ratio="10">&gt;VALUE</text>
</package>
</packages>
</library>
<library name="rcl">
<description>&lt;b&gt;Resistors, Capacitors, Inductors&lt;/b&gt;&lt;p&gt;
Based on the previous libraries:
&lt;ul&gt;
&lt;li&gt;r.lbr
&lt;li&gt;cap.lbr 
&lt;li&gt;cap-fe.lbr
&lt;li&gt;captant.lbr
&lt;li&gt;polcap.lbr
&lt;li&gt;ipc-smd.lbr
&lt;/ul&gt;
All SMD packages are defined according to the IPC specifications and  CECC&lt;p&gt;
&lt;author&gt;Created by librarian@cadsoft.de&lt;/author&gt;&lt;p&gt;
&lt;p&gt;
for Electrolyt Capacitors see also :&lt;p&gt;
www.bccomponents.com &lt;p&gt;
www.panasonic.com&lt;p&gt;
www.kemet.com&lt;p&gt;
http://www.secc.co.jp/pdf/os_e/2004/e_os_all.pdf &lt;b&gt;(SANYO)&lt;/b&gt;
&lt;p&gt;
for trimmer refence see : &lt;u&gt;www.electrospec-inc.com/cross_references/trimpotcrossref.asp&lt;/u&gt;&lt;p&gt;

&lt;table border=0 cellspacing=0 cellpadding=0 width="100%" cellpaddding=0&gt;
&lt;tr valign="top"&gt;

&lt;! &lt;td width="10"&gt;&amp;nbsp;&lt;/td&gt;
&lt;td width="90%"&gt;

&lt;b&gt;&lt;font color="#0000FF" size="4"&gt;TRIM-POT CROSS REFERENCE&lt;/font&gt;&lt;/b&gt;
&lt;P&gt;
&lt;TABLE BORDER=0 CELLSPACING=1 CELLPADDING=2&gt;
  &lt;TR&gt;
    &lt;TD COLSPAN=8&gt;
      &lt;FONT SIZE=3 FACE=ARIAL&gt;&lt;B&gt;RECTANGULAR MULTI-TURN&lt;/B&gt;&lt;/FONT&gt;
    &lt;/TD&gt;
  &lt;/TR&gt;
  &lt;TR&gt;
    &lt;TD ALIGN=CENTER&gt;
      &lt;B&gt;
      &lt;FONT SIZE=3 FACE=ARIAL color="#FF0000"&gt;BOURNS&lt;/FONT&gt;
      &lt;/B&gt;
    &lt;/TD&gt;
    &lt;TD ALIGN=CENTER&gt;
      &lt;B&gt;
      &lt;FONT SIZE=3 FACE=ARIAL color="#FF0000"&gt;BI&amp;nbsp;TECH&lt;/FONT&gt;
      &lt;/B&gt;
    &lt;/TD&gt;
    &lt;TD ALIGN=CENTER&gt;
      &lt;B&gt;
      &lt;FONT SIZE=3 FACE=ARIAL color="#FF0000"&gt;DALE-VISHAY&lt;/FONT&gt;
      &lt;/B&gt;
    &lt;/TD&gt;
    &lt;TD ALIGN=CENTER&gt;
      &lt;B&gt;
      &lt;FONT SIZE=3 FACE=ARIAL color="#FF0000"&gt;PHILIPS/MEPCO&lt;/FONT&gt;
      &lt;/B&gt;
    &lt;/TD&gt;
    &lt;TD ALIGN=CENTER&gt;
      &lt;B&gt;
      &lt;FONT SIZE=3 FACE=ARIAL color="#FF0000"&gt;MURATA&lt;/FONT&gt;
      &lt;/B&gt;
    &lt;/TD&gt;
    &lt;TD ALIGN=CENTER&gt;
      &lt;B&gt;
      &lt;FONT SIZE=3 FACE=ARIAL color="#FF0000"&gt;PANASONIC&lt;/FONT&gt;
      &lt;/B&gt;
    &lt;/TD&gt;
    &lt;TD ALIGN=CENTER&gt;
      &lt;B&gt;
      &lt;FONT SIZE=3 FACE=ARIAL color="#FF0000"&gt;SPECTROL&lt;/FONT&gt;
      &lt;/B&gt;
    &lt;/TD&gt;
    &lt;TD ALIGN=CENTER&gt;
      &lt;B&gt;
      &lt;FONT SIZE=3 FACE=ARIAL color="#FF0000"&gt;MILSPEC&lt;/FONT&gt;
      &lt;/B&gt;
    &lt;/TD&gt;&lt;TD&gt;&amp;nbsp;&lt;/TD&gt;
  &lt;/TR&gt;
  &lt;TR&gt;
    &lt;TD BGCOLOR="#cccccc" ALIGN=CENTER&gt;&lt;FONT FACE=ARIAL SIZE=3 &gt;
      3005P&lt;BR&gt;
      3006P&lt;BR&gt;
      3006W&lt;BR&gt;
      3006Y&lt;BR&gt;
      3009P&lt;BR&gt;
      3009W&lt;BR&gt;
      3009Y&lt;BR&gt;
      3057J&lt;BR&gt;
      3057L&lt;BR&gt;
      3057P&lt;BR&gt;
      3057Y&lt;BR&gt;
      3059J&lt;BR&gt;
      3059L&lt;BR&gt;
      3059P&lt;BR&gt;
      3059Y&lt;BR&gt;&lt;/FONT&gt;
    &lt;/TD&gt;
    &lt;TD BGCOLOR="#cccccc" ALIGN=CENTER&gt;&lt;FONT FACE=ARIAL SIZE=3&gt;
      -&lt;BR&gt;
      89P&lt;BR&gt;
      89W&lt;BR&gt;
      89X&lt;BR&gt;
      89PH&lt;BR&gt;
      76P&lt;BR&gt;
      89XH&lt;BR&gt;
      78SLT&lt;BR&gt;
      78L&amp;nbsp;ALT&lt;BR&gt;
      56P&amp;nbsp;ALT&lt;BR&gt;
      78P&amp;nbsp;ALT&lt;BR&gt;
      T8S&lt;BR&gt;
      78L&lt;BR&gt;
      56P&lt;BR&gt;
      78P&lt;BR&gt;&lt;/FONT&gt;
    &lt;/TD&gt;
    &lt;TD BGCOLOR="#cccccc" ALIGN=CENTER&gt;&lt;FONT FACE=ARIAL SIZE=3&gt;
      -&lt;BR&gt;
      T18/784&lt;BR&gt;
      783&lt;BR&gt;
      781&lt;BR&gt;
      -&lt;BR&gt;
      -&lt;BR&gt;
      -&lt;BR&gt;
      2199&lt;BR&gt;
      1697/1897&lt;BR&gt;
      1680/1880&lt;BR&gt;
      2187&lt;BR&gt;
      -&lt;BR&gt;
      -&lt;BR&gt;
      -&lt;BR&gt;
      -&lt;BR&gt;&lt;/FONT&gt;
    &lt;/TD&gt;
    &lt;TD BGCOLOR="#cccccc" ALIGN=CENTER&gt;&lt;FONT FACE=ARIAL SIZE=3&gt;
      -&lt;BR&gt;
      8035EKP/CT20/RJ-20P&lt;BR&gt;
      -&lt;BR&gt;
      RJ-20X&lt;BR&gt;
      -&lt;BR&gt;
      -&lt;BR&gt;
      -&lt;BR&gt;
      1211L&lt;BR&gt;
      8012EKQ&amp;nbsp;ALT&lt;BR&gt;
      8012EKR&amp;nbsp;ALT&lt;BR&gt;
      1211P&lt;BR&gt;
      8012EKJ&lt;BR&gt;
      8012EKL&lt;BR&gt;
      8012EKQ&lt;BR&gt;
      8012EKR&lt;BR&gt;&lt;/FONT&gt;
    &lt;/TD&gt;
    &lt;TD BGCOLOR="#cccccc" ALIGN=CENTER&gt;&lt;FONT FACE=ARIAL SIZE=3&gt;
      -&lt;BR&gt;
      2101P&lt;BR&gt;
      2101W&lt;BR&gt;
      2101Y&lt;BR&gt;
      -&lt;BR&gt;
      -&lt;BR&gt;
      -&lt;BR&gt;
      -&lt;BR&gt;
      -&lt;BR&gt;
      -&lt;BR&gt;
      -&lt;BR&gt;
      -&lt;BR&gt;
      2102L&lt;BR&gt;
      2102S&lt;BR&gt;
      2102Y&lt;BR&gt;&lt;/FONT&gt;
    &lt;/TD&gt;
    &lt;TD BGCOLOR="#cccccc" ALIGN=CENTER&gt;&lt;FONT FACE=ARIAL SIZE=3&gt;
      -&lt;BR&gt;
      EVMCOG&lt;BR&gt;
      -&lt;BR&gt;
      -&lt;BR&gt;
      -&lt;BR&gt;
      -&lt;BR&gt;
      -&lt;BR&gt;
      -&lt;BR&gt;
      -&lt;BR&gt;
      -&lt;BR&gt;
      -&lt;BR&gt;
      -&lt;BR&gt;
      -&lt;BR&gt;
      -&lt;BR&gt;
      -&lt;BR&gt;&lt;/FONT&gt;
    &lt;/TD&gt;
    &lt;TD BGCOLOR="#cccccc" ALIGN=CENTER&gt;&lt;FONT FACE=ARIAL SIZE=3&gt;
      -&lt;BR&gt;
      43P&lt;BR&gt;
      43W&lt;BR&gt;
      43Y&lt;BR&gt;
      -&lt;BR&gt;
      -&lt;BR&gt;
      -&lt;BR&gt;
      -&lt;BR&gt;
      40L&lt;BR&gt;
      40P&lt;BR&gt;
      40Y&lt;BR&gt;
      70Y-T602&lt;BR&gt;
      70L&lt;BR&gt;
      70P&lt;BR&gt;
      70Y&lt;BR&gt;&lt;/FONT&gt;
    &lt;/TD&gt;
    &lt;TD BGCOLOR="#cccccc" ALIGN=CENTER&gt;&lt;FONT FACE=ARIAL SIZE=3&gt;
      -&lt;BR&gt;
      -&lt;BR&gt;
      -&lt;BR&gt;
      -&lt;BR&gt;
      -&lt;BR&gt;
      -&lt;BR&gt;
      -&lt;BR&gt;
      -&lt;BR&gt;
      RT/RTR12&lt;BR&gt;
      RT/RTR12&lt;BR&gt;
      RT/RTR12&lt;BR&gt;
      -&lt;BR&gt;
      RJ/RJR12&lt;BR&gt;
      RJ/RJR12&lt;BR&gt;
      RJ/RJR12&lt;BR&gt;&lt;/FONT&gt;
    &lt;/TD&gt;
  &lt;/TR&gt;
  &lt;TR&gt;
    &lt;TD COLSPAN=8&gt;&amp;nbsp;
    &lt;/TD&gt;
  &lt;/TR&gt;
  &lt;TR&gt;
    &lt;TD COLSPAN=8&gt;
      &lt;FONT SIZE=4 FACE=ARIAL&gt;&lt;B&gt;SQUARE MULTI-TURN&lt;/B&gt;&lt;/FONT&gt;
    &lt;/TD&gt;
  &lt;/TR&gt;
  &lt;TR&gt;
   &lt;TD ALIGN=CENTER&gt;
      &lt;FONT SIZE=3 FACE=ARIAL&gt;&lt;B&gt;BOURN&lt;/B&gt;&lt;/FONT&gt;
    &lt;/TD&gt;
    &lt;TD ALIGN=CENTER&gt;
      &lt;FONT SIZE=3 FACE=ARIAL&gt;&lt;B&gt;BI&amp;nbsp;TECH&lt;/B&gt;&lt;/FONT&gt;
    &lt;/TD&gt;
    &lt;TD ALIGN=CENTER&gt;
      &lt;FONT SIZE=3 FACE=ARIAL&gt;&lt;B&gt;DALE-VISHAY&lt;/B&gt;&lt;/FONT&gt;
    &lt;/TD&gt;
    &lt;TD ALIGN=CENTER&gt;
      &lt;FONT SIZE=3 FACE=ARIAL&gt;&lt;B&gt;PHILIPS/MEPCO&lt;/B&gt;&lt;/FONT&gt;
    &lt;/TD&gt;
    &lt;TD ALIGN=CENTER&gt;
      &lt;FONT SIZE=3 FACE=ARIAL&gt;&lt;B&gt;MURATA&lt;/B&gt;&lt;/FONT&gt;
    &lt;/TD&gt;
    &lt;TD ALIGN=CENTER&gt;
      &lt;FONT SIZE=3 FACE=ARIAL&gt;&lt;B&gt;PANASONIC&lt;/B&gt;&lt;/FONT&gt;
    &lt;/TD&gt;
    &lt;TD ALIGN=CENTER&gt;
      &lt;FONT SIZE=3 FACE=ARIAL&gt;&lt;B&gt;SPECTROL&lt;/B&gt;&lt;/FONT&gt;
    &lt;/TD&gt;
    &lt;TD ALIGN=CENTER&gt;
      &lt;FONT SIZE=3 FACE=ARIAL&gt;&lt;B&gt;MILSPEC&lt;/B&gt;&lt;/FONT&gt;
    &lt;/TD&gt;
  &lt;/TR&gt;
  &lt;TR&gt;
    &lt;TD BGCOLOR="#cccccc" ALIGN=CENTER&gt;&lt;FONT FACE=ARIAL SIZE=3&gt;
      3250L&lt;BR&gt;
      3250P&lt;BR&gt;
      3250W&lt;BR&gt;
      3250X&lt;BR&gt;
      3252P&lt;BR&gt;
      3252W&lt;BR&gt;
      3252X&lt;BR&gt;
      3260P&lt;BR&gt;
      3260W&lt;BR&gt;
      3260X&lt;BR&gt;
      3262P&lt;BR&gt;
      3262W&lt;BR&gt;
      3262X&lt;BR&gt;
      3266P&lt;BR&gt;
      3266W&lt;BR&gt;
      3266X&lt;BR&gt;
      3290H&lt;BR&gt;
      3290P&lt;BR&gt;
      3290W&lt;BR&gt;
      3292P&lt;BR&gt;
      3292W&lt;BR&gt;
      3292X&lt;BR&gt;
      3296P&lt;BR&gt;
      3296W&lt;BR&gt;
      3296X&lt;BR&gt;
      3296Y&lt;BR&gt;
      3296Z&lt;BR&gt;
      3299P&lt;BR&gt;
      3299W&lt;BR&gt;
      3299X&lt;BR&gt;
      3299Y&lt;BR&gt;
      3299Z&lt;BR&gt;&lt;/FONT&gt;
    &lt;/TD&gt;
    &lt;TD BGCOLOR="#cccccc" ALIGN=CENTER&gt;&lt;FONT FACE=ARIAL SIZE=3&gt;
      -&lt;BR&gt;
      66P&amp;nbsp;ALT&lt;BR&gt;
      66W&amp;nbsp;ALT&lt;BR&gt;
      66X&amp;nbsp;ALT&lt;BR&gt;
      66P&amp;nbsp;ALT&lt;BR&gt;
      66W&amp;nbsp;ALT&lt;BR&gt;
      66X&amp;nbsp;ALT&lt;BR&gt;
      -&lt;BR&gt;
      64W&amp;nbsp;ALT&lt;BR&gt;
      -&lt;BR&gt;
      64P&amp;nbsp;ALT&lt;BR&gt;
      64W&amp;nbsp;ALT&lt;BR&gt;
      64X&amp;nbsp;ALT&lt;BR&gt;
      64P&lt;BR&gt;
      64W&lt;BR&gt;
      64X&lt;BR&gt;
      66X&amp;nbsp;ALT&lt;BR&gt;
      66P&amp;nbsp;ALT&lt;BR&gt;
      66W&amp;nbsp;ALT&lt;BR&gt;
      66P&lt;BR&gt;
      66W&lt;BR&gt;
      66X&lt;BR&gt;
      67P&lt;BR&gt;
      67W&lt;BR&gt;
      67X&lt;BR&gt;
      67Y&lt;BR&gt;
      67Z&lt;BR&gt;
      68P&lt;BR&gt;
      68W&lt;BR&gt;
      68X&lt;BR&gt;
      67Y&amp;nbsp;ALT&lt;BR&gt;
      67Z&amp;nbsp;ALT&lt;BR&gt;&lt;/FONT&gt;
    &lt;/TD&gt;
    &lt;TD BGCOLOR="#cccccc" ALIGN=CENTER&gt;&lt;FONT FACE=ARIAL SIZE=3&gt;
      5050&lt;BR&gt;
      5091&lt;BR&gt;
      5080&lt;BR&gt;
      5087&lt;BR&gt;
      -&lt;BR&gt;
      -&lt;BR&gt;
      -&lt;BR&gt;
      -&lt;BR&gt;
      -&lt;BR&gt;
      -&lt;BR&gt;
      -&lt;BR&gt;
      T63YB&lt;BR&gt;
      T63XB&lt;BR&gt;
      -&lt;BR&gt;
      -&lt;BR&gt;
      -&lt;BR&gt;
      5887&lt;BR&gt;
      5891&lt;BR&gt;
      5880&lt;BR&gt;
      -&lt;BR&gt;
      -&lt;BR&gt;
      -&lt;BR&gt;
      T93Z&lt;BR&gt;
      T93YA&lt;BR&gt;
      T93XA&lt;BR&gt;
      T93YB&lt;BR&gt;
      T93XB&lt;BR&gt;
      -&lt;BR&gt;
      -&lt;BR&gt;
      -&lt;BR&gt;
      -&lt;BR&gt;
      -&lt;BR&gt;&lt;/FONT&gt;
    &lt;/TD&gt;
    &lt;TD BGCOLOR="#cccccc" ALIGN=CENTER&gt;&lt;FONT FACE=ARIAL SIZE=3&gt;
      -&lt;BR&gt;
      -&lt;BR&gt;
      -&lt;BR&gt;
      -&lt;BR&gt;
      -&lt;BR&gt;
      -&lt;BR&gt;
      -&lt;BR&gt;
      -&lt;BR&gt;
      -&lt;BR&gt;
      -&lt;BR&gt;
      8026EKP&lt;BR&gt;
      8026EKW&lt;BR&gt;
      8026EKM&lt;BR&gt;
      8026EKP&lt;BR&gt;
      8026EKB&lt;BR&gt;
      8026EKM&lt;BR&gt;
      1309X&lt;BR&gt;
      1309P&lt;BR&gt;
      1309W&lt;BR&gt;
      8024EKP&lt;BR&gt;
      8024EKW&lt;BR&gt;
      8024EKN&lt;BR&gt;
      RJ-9P/CT9P&lt;BR&gt;
      RJ-9W&lt;BR&gt;
      RJ-9X&lt;BR&gt;
      -&lt;BR&gt;
      -&lt;BR&gt;
      -&lt;BR&gt;
      -&lt;BR&gt;
      -&lt;BR&gt;
      -&lt;BR&gt;
      -&lt;BR&gt;&lt;/FONT&gt;
    &lt;/TD&gt;
    &lt;TD BGCOLOR="#cccccc" ALIGN=CENTER&gt;&lt;FONT FACE=ARIAL SIZE=3&gt;
      -&lt;BR&gt;
      -&lt;BR&gt;
      -&lt;BR&gt;
      -&lt;BR&gt;
      -&lt;BR&gt;
      -&lt;BR&gt;
      -&lt;BR&gt;
      -&lt;BR&gt;
      -&lt;BR&gt;
      -&lt;BR&gt;
      3103P&lt;BR&gt;
      3103Y&lt;BR&gt;
      3103Z&lt;BR&gt;
      3103P&lt;BR&gt;
      3103Y&lt;BR&gt;
      3103Z&lt;BR&gt;
      -&lt;BR&gt;
      -&lt;BR&gt;
      -&lt;BR&gt;
      -&lt;BR&gt;
      -&lt;BR&gt;
      -&lt;BR&gt;
      3105P/3106P&lt;BR&gt;
      3105W/3106W&lt;BR&gt;
      3105X/3106X&lt;BR&gt;
      3105Y/3106Y&lt;BR&gt;
      3105Z/3105Z&lt;BR&gt;
      3102P&lt;BR&gt;
      3102W&lt;BR&gt;
      3102X&lt;BR&gt;
      3102Y&lt;BR&gt;
      3102Z&lt;BR&gt;&lt;/FONT&gt;
    &lt;/TD&gt;
    &lt;TD BGCOLOR="#cccccc" ALIGN=CENTER&gt;&lt;FONT FACE=ARIAL SIZE=3&gt;
      -&lt;BR&gt;
      -&lt;BR&gt;
      -&lt;BR&gt;
      -&lt;BR&gt;
      -&lt;BR&gt;
      -&lt;BR&gt;
      -&lt;BR&gt;
      -&lt;BR&gt;
      -&lt;BR&gt;
      -&lt;BR&gt;
      -&lt;BR&gt;
      -&lt;BR&gt;
      -&lt;BR&gt;
      -&lt;BR&gt;
      -&lt;BR&gt;
      -&lt;BR&gt;
      -&lt;BR&gt;
      -&lt;BR&gt;
      -&lt;BR&gt;
      -&lt;BR&gt;
      -&lt;BR&gt;
      -&lt;BR&gt;
      EVMCBG&lt;BR&gt;
      EVMCCG&lt;BR&gt;
      -&lt;BR&gt;
      -&lt;BR&gt;
      -&lt;BR&gt;
      -&lt;BR&gt;
      -&lt;BR&gt;
      -&lt;BR&gt;
      -&lt;BR&gt;
      -&lt;BR&gt;&lt;/FONT&gt;
    &lt;/TD&gt;
    &lt;TD BGCOLOR="#cccccc" ALIGN=CENTER&gt;&lt;FONT FACE=ARIAL SIZE=3&gt;
      55-1-X&lt;BR&gt;
      55-4-X&lt;BR&gt;
      55-3-X&lt;BR&gt;
      55-2-X&lt;BR&gt;
      -&lt;BR&gt;
      -&lt;BR&gt;
      -&lt;BR&gt;
      -&lt;BR&gt;
      -&lt;BR&gt;
      -&lt;BR&gt;
      -&lt;BR&gt;
      -&lt;BR&gt;
      -&lt;BR&gt;
      -&lt;BR&gt;
      -&lt;BR&gt;
      -&lt;BR&gt;
      50-2-X&lt;BR&gt;
      50-4-X&lt;BR&gt;
      50-3-X&lt;BR&gt;
      -&lt;BR&gt;
      -&lt;BR&gt;
      -&lt;BR&gt;
      64P&lt;BR&gt;
      64W&lt;BR&gt;
      64X&lt;BR&gt;
      64Y&lt;BR&gt;
      64Z&lt;BR&gt;
      -&lt;BR&gt;
      -&lt;BR&gt;
      -&lt;BR&gt;
      -&lt;BR&gt;
      -&lt;BR&gt;&lt;/FONT&gt;
    &lt;/TD&gt;
    &lt;TD BGCOLOR="#cccccc" ALIGN=CENTER&gt;&lt;FONT FACE=ARIAL SIZE=3&gt;
      RT/RTR22&lt;BR&gt;
      RT/RTR22&lt;BR&gt;
      RT/RTR22&lt;BR&gt;
      RT/RTR22&lt;BR&gt;
      RJ/RJR22&lt;BR&gt;
      RJ/RJR22&lt;BR&gt;
      RJ/RJR22&lt;BR&gt;
      RT/RTR26&lt;BR&gt;
      RT/RTR26&lt;BR&gt;
      RT/RTR26&lt;BR&gt;
      RJ/RJR26&lt;BR&gt;
      RJ/RJR26&lt;BR&gt;
      RJ/RJR26&lt;BR&gt;
      RJ/RJR26&lt;BR&gt;
      RJ/RJR26&lt;BR&gt;
      RJ/RJR26&lt;BR&gt;
      RT/RTR24&lt;BR&gt;
      RT/RTR24&lt;BR&gt;
      RT/RTR24&lt;BR&gt;
      RJ/RJR24&lt;BR&gt;
      RJ/RJR24&lt;BR&gt;
      RJ/RJR24&lt;BR&gt;
      RJ/RJR24&lt;BR&gt;
      RJ/RJR24&lt;BR&gt;
      RJ/RJR24&lt;BR&gt;
      -&lt;BR&gt;
      -&lt;BR&gt;
      -&lt;BR&gt;
      -&lt;BR&gt;
      -&lt;BR&gt;
      -&lt;BR&gt;
      -&lt;BR&gt;&lt;/FONT&gt;
    &lt;/TD&gt;
  &lt;/TR&gt;
  &lt;TR&gt;
    &lt;TD COLSPAN=8&gt;&amp;nbsp;
    &lt;/TD&gt;
  &lt;/TR&gt;
  &lt;TR&gt;
    &lt;TD COLSPAN=8&gt;
      &lt;FONT SIZE=4 FACE=ARIAL&gt;&lt;B&gt;SINGLE TURN&lt;/B&gt;&lt;/FONT&gt;
    &lt;/TD&gt;
  &lt;/TR&gt;
  &lt;TR&gt;
    &lt;TD ALIGN=CENTER&gt;
      &lt;FONT SIZE=3 FACE=ARIAL&gt;&lt;B&gt;BOURN&lt;/B&gt;&lt;/FONT&gt;
    &lt;/TD&gt;
    &lt;TD ALIGN=CENTER&gt;
      &lt;FONT SIZE=3 FACE=ARIAL&gt;&lt;B&gt;BI&amp;nbsp;TECH&lt;/B&gt;&lt;/FONT&gt;
    &lt;/TD&gt;
    &lt;TD ALIGN=CENTER&gt;
      &lt;FONT SIZE=3 FACE=ARIAL&gt;&lt;B&gt;DALE-VISHAY&lt;/B&gt;&lt;/FONT&gt;
    &lt;/TD&gt;
    &lt;TD ALIGN=CENTER&gt;
      &lt;FONT SIZE=3 FACE=ARIAL&gt;&lt;B&gt;PHILIPS/MEPCO&lt;/B&gt;&lt;/FONT&gt;
    &lt;/TD&gt;
    &lt;TD ALIGN=CENTER&gt;
      &lt;FONT SIZE=3 FACE=ARIAL&gt;&lt;B&gt;MURATA&lt;/B&gt;&lt;/FONT&gt;
    &lt;/TD&gt;
    &lt;TD ALIGN=CENTER&gt;
      &lt;FONT SIZE=3 FACE=ARIAL&gt;&lt;B&gt;PANASONIC&lt;/B&gt;&lt;/FONT&gt;
    &lt;/TD&gt;
    &lt;TD ALIGN=CENTER&gt;
      &lt;FONT SIZE=3 FACE=ARIAL&gt;&lt;B&gt;SPECTROL&lt;/B&gt;&lt;/FONT&gt;
    &lt;/TD&gt;
    &lt;TD ALIGN=CENTER&gt;
      &lt;FONT SIZE=3 FACE=ARIAL&gt;&lt;B&gt;MILSPEC&lt;/B&gt;&lt;/FONT&gt;
    &lt;/TD&gt;
  &lt;/TR&gt;
  &lt;TR&gt;
    &lt;TD BGCOLOR="#cccccc" ALIGN=CENTER&gt;&lt;FONT FACE=ARIAL SIZE=3&gt;
      3323P&lt;BR&gt;
      3323S&lt;BR&gt;
      3323W&lt;BR&gt;
      3329H&lt;BR&gt;
      3329P&lt;BR&gt;
      3329W&lt;BR&gt;
      3339H&lt;BR&gt;
      3339P&lt;BR&gt;
      3339W&lt;BR&gt;
      3352E&lt;BR&gt;
      3352H&lt;BR&gt;
      3352K&lt;BR&gt;
      3352P&lt;BR&gt;
      3352T&lt;BR&gt;
      3352V&lt;BR&gt;
      3352W&lt;BR&gt;
      3362H&lt;BR&gt;
      3362M&lt;BR&gt;
      3362P&lt;BR&gt;
      3362R&lt;BR&gt;
      3362S&lt;BR&gt;
      3362U&lt;BR&gt;
      3362W&lt;BR&gt;
      3362X&lt;BR&gt;
      3386B&lt;BR&gt;
      3386C&lt;BR&gt;
      3386F&lt;BR&gt;
      3386H&lt;BR&gt;
      3386K&lt;BR&gt;
      3386M&lt;BR&gt;
      3386P&lt;BR&gt;
      3386S&lt;BR&gt;
      3386W&lt;BR&gt;
      3386X&lt;BR&gt;&lt;/FONT&gt;
    &lt;/TD&gt;
    &lt;TD BGCOLOR="#cccccc" ALIGN=CENTER&gt;&lt;FONT FACE=ARIAL SIZE=3&gt;
      25P&lt;BR&gt;
      25S&lt;BR&gt;
      25RX&lt;BR&gt;
      82P&lt;BR&gt;
      82M&lt;BR&gt;
      82PA&lt;BR&gt;
      -&lt;BR&gt;
      -&lt;BR&gt;
      -&lt;BR&gt;
      91E&lt;BR&gt;
      91X&lt;BR&gt;
      91T&lt;BR&gt;
      91B&lt;BR&gt;
      91A&lt;BR&gt;
      91V&lt;BR&gt;
      91W&lt;BR&gt;
      25W&lt;BR&gt;
      25V&lt;BR&gt;
      25P&lt;BR&gt;
      -&lt;BR&gt;
      25S&lt;BR&gt;
      25U&lt;BR&gt;
      25RX&lt;BR&gt;
      25X&lt;BR&gt;
      72XW&lt;BR&gt;
      72XL&lt;BR&gt;
      72PM&lt;BR&gt;
      72RX&lt;BR&gt;
      -&lt;BR&gt;
      72PX&lt;BR&gt;
      72P&lt;BR&gt;
      72RXW&lt;BR&gt;
      72RXL&lt;BR&gt;
      72X&lt;BR&gt;&lt;/FONT&gt;
    &lt;/TD&gt;
    &lt;TD BGCOLOR="#cccccc" ALIGN=CENTER&gt;&lt;FONT FACE=ARIAL SIZE=3&gt;
      -&lt;BR&gt;
      -&lt;BR&gt;
      -&lt;BR&gt;
      T7YB&lt;BR&gt;
      T7YA&lt;BR&gt;
      -&lt;BR&gt;
      -&lt;BR&gt;
      -&lt;BR&gt;
      -&lt;BR&gt;
      -&lt;BR&gt;
      -&lt;BR&gt;
      -&lt;BR&gt;
      -&lt;BR&gt;
      -&lt;BR&gt;
      -&lt;BR&gt;
      -&lt;BR&gt;
      -&lt;BR&gt;
      TXD&lt;BR&gt;
      TYA&lt;BR&gt;
      TYP&lt;BR&gt;
      -&lt;BR&gt;
      TYD&lt;BR&gt;
      TX&lt;BR&gt;
      -&lt;BR&gt;
      150SX&lt;BR&gt;
      100SX&lt;BR&gt;
      102T&lt;BR&gt;
      101S&lt;BR&gt;
      190T&lt;BR&gt;
      150TX&lt;BR&gt;
      101&lt;BR&gt;
      -&lt;BR&gt;
      -&lt;BR&gt;
      101SX&lt;BR&gt;&lt;/FONT&gt;
    &lt;/TD&gt;
    &lt;TD BGCOLOR="#cccccc" ALIGN=CENTER&gt;&lt;FONT FACE=ARIAL SIZE=3&gt;
      ET6P&lt;BR&gt;
      ET6S&lt;BR&gt;
      ET6X&lt;BR&gt;
      RJ-6W/8014EMW&lt;BR&gt;
      RJ-6P/8014EMP&lt;BR&gt;
      RJ-6X/8014EMX&lt;BR&gt;
      TM7W&lt;BR&gt;
      TM7P&lt;BR&gt;
      TM7X&lt;BR&gt;
      -&lt;BR&gt;
      8017SMS&lt;BR&gt;
      -&lt;BR&gt;
      8017SMB&lt;BR&gt;
      8017SMA&lt;BR&gt;
      -&lt;BR&gt;
      -&lt;BR&gt;
      CT-6W&lt;BR&gt;
      CT-6H&lt;BR&gt;
      CT-6P&lt;BR&gt;
      CT-6R&lt;BR&gt;
      -&lt;BR&gt;
      CT-6V&lt;BR&gt;
      CT-6X&lt;BR&gt;
      -&lt;BR&gt;
      -&lt;BR&gt;
      8038EKV&lt;BR&gt;
      -&lt;BR&gt;
      8038EKX&lt;BR&gt;
      -&lt;BR&gt;
      -&lt;BR&gt;
      8038EKP&lt;BR&gt;
      8038EKZ&lt;BR&gt;
      8038EKW&lt;BR&gt;
      -&lt;BR&gt;&lt;/FONT&gt;
    &lt;/TD&gt;
    &lt;TD BGCOLOR="#cccccc" ALIGN=CENTER&gt;&lt;FONT FACE=ARIAL SIZE=3&gt;
      -&lt;BR&gt;
      -&lt;BR&gt;
      -&lt;BR&gt;
      3321H&lt;BR&gt;
      3321P&lt;BR&gt;
      3321N&lt;BR&gt;
      1102H&lt;BR&gt;
      1102P&lt;BR&gt;
      1102T&lt;BR&gt;
      RVA0911V304A&lt;BR&gt;
      -&lt;BR&gt;
      RVA0911H413A&lt;BR&gt;
      RVG0707V100A&lt;BR&gt;
      RVA0607V(H)306A&lt;BR&gt;
      RVA1214H213A&lt;BR&gt;
      -&lt;BR&gt;
      -&lt;BR&gt;
      -&lt;BR&gt;
      -&lt;BR&gt;
      -&lt;BR&gt;
      -&lt;BR&gt;
      -&lt;BR&gt;
      -&lt;BR&gt;
      -&lt;BR&gt;
      3104B&lt;BR&gt;
      3104C&lt;BR&gt;
      3104F&lt;BR&gt;
      3104H&lt;BR&gt;
      -&lt;BR&gt;
      3104M&lt;BR&gt;
      3104P&lt;BR&gt;
      3104S&lt;BR&gt;
      3104W&lt;BR&gt;
      3104X&lt;BR&gt;&lt;/FONT&gt;
    &lt;/TD&gt;
    &lt;TD BGCOLOR="#cccccc" ALIGN=CENTER&gt;&lt;FONT FACE=ARIAL SIZE=3&gt;
      EVMQ0G&lt;BR&gt;
      EVMQIG&lt;BR&gt;
      EVMQ3G&lt;BR&gt;
      EVMS0G&lt;BR&gt;
      EVMQ0G&lt;BR&gt;
      EVMG0G&lt;BR&gt;
      -&lt;BR&gt;
      -&lt;BR&gt;
      -&lt;BR&gt;
      EVMK4GA00B&lt;BR&gt;
      EVM30GA00B&lt;BR&gt;
      EVMK0GA00B&lt;BR&gt;
      EVM38GA00B&lt;BR&gt;
      EVMB6&lt;BR&gt;
      EVLQ0&lt;BR&gt;
      -&lt;BR&gt;
      EVMMSG&lt;BR&gt;
      EVMMBG&lt;BR&gt;
      EVMMAG&lt;BR&gt;
      -&lt;BR&gt;
      -&lt;BR&gt;
      EVMMCS&lt;BR&gt;
      -&lt;BR&gt;
      -&lt;BR&gt;
      -&lt;BR&gt;
      -&lt;BR&gt;
      -&lt;BR&gt;
      EVMM1&lt;BR&gt;
      -&lt;BR&gt;
      -&lt;BR&gt;
      EVMM0&lt;BR&gt;
      -&lt;BR&gt;
      -&lt;BR&gt;
      EVMM3&lt;BR&gt;&lt;/FONT&gt;
    &lt;/TD&gt;
    &lt;TD BGCOLOR="#cccccc" ALIGN=CENTER&gt;&lt;FONT FACE=ARIAL SIZE=3&gt;
      -&lt;BR&gt;
      -&lt;BR&gt;
      -&lt;BR&gt;
      62-3-1&lt;BR&gt;
      62-1-2&lt;BR&gt;
      -&lt;BR&gt;
      -&lt;BR&gt;
      -&lt;BR&gt;
      -&lt;BR&gt;
      -&lt;BR&gt;
      -&lt;BR&gt;
      -&lt;BR&gt;
      -&lt;BR&gt;
      -&lt;BR&gt;
      -&lt;BR&gt;
      -&lt;BR&gt;
      67R&lt;BR&gt;
      -&lt;BR&gt;
      67P&lt;BR&gt;
      -&lt;BR&gt;
      -&lt;BR&gt;
      -&lt;BR&gt;
      -&lt;BR&gt;
      67X&lt;BR&gt;
      63V&lt;BR&gt;
      63S&lt;BR&gt;
      63M&lt;BR&gt;
      -&lt;BR&gt;
      -&lt;BR&gt;
      63H&lt;BR&gt;
      63P&lt;BR&gt;
      -&lt;BR&gt;
      -&lt;BR&gt;
      63X&lt;BR&gt;&lt;/FONT&gt;
    &lt;/TD&gt;
    &lt;TD BGCOLOR="#cccccc" ALIGN=CENTER&gt;&lt;FONT FACE=ARIAL SIZE=3&gt;
      -&lt;BR&gt;
      -&lt;BR&gt;
      -&lt;BR&gt;
      RJ/RJR50&lt;BR&gt;
      RJ/RJR50&lt;BR&gt;
      RJ/RJR50&lt;BR&gt;
      -&lt;BR&gt;
      -&lt;BR&gt;
      -&lt;BR&gt;
      -&lt;BR&gt;
      -&lt;BR&gt;
      -&lt;BR&gt;
      -&lt;BR&gt;
      -&lt;BR&gt;
      -&lt;BR&gt;
      -&lt;BR&gt;
      -&lt;BR&gt;
      -&lt;BR&gt;
      -&lt;BR&gt;
      -&lt;BR&gt;
      -&lt;BR&gt;
      -&lt;BR&gt;
      -&lt;BR&gt;
      -&lt;BR&gt;
      -&lt;BR&gt;
      -&lt;BR&gt;
      -&lt;BR&gt;
      -&lt;BR&gt;
      -&lt;BR&gt;
      -&lt;BR&gt;
      -&lt;BR&gt;
      -&lt;BR&gt;
      -&lt;BR&gt;
      -&lt;BR&gt;&lt;/FONT&gt;
    &lt;/TD&gt;
  &lt;/TR&gt;
&lt;/TABLE&gt;
&lt;P&gt;&amp;nbsp;&lt;P&gt;
&lt;TABLE BORDER=0 CELLSPACING=1 CELLPADDING=3&gt;
  &lt;TR&gt;
    &lt;TD COLSPAN=7&gt;
      &lt;FONT color="#0000FF" SIZE=4 FACE=ARIAL&gt;&lt;B&gt;SMD TRIM-POT CROSS REFERENCE&lt;/B&gt;&lt;/FONT&gt;
      &lt;P&gt;
      &lt;FONT SIZE=4 FACE=ARIAL&gt;&lt;B&gt;MULTI-TURN&lt;/B&gt;&lt;/FONT&gt;
    &lt;/TD&gt;
  &lt;/TR&gt;
  &lt;TR&gt;
    &lt;TD&gt;
      &lt;FONT SIZE=3 FACE=ARIAL&gt;&lt;B&gt;BOURNS&lt;/B&gt;&lt;/FONT&gt;
    &lt;/TD&gt;
    &lt;TD&gt;
      &lt;FONT SIZE=3 FACE=ARIAL&gt;&lt;B&gt;BI&amp;nbsp;TECH&lt;/B&gt;&lt;/FONT&gt;
    &lt;/TD&gt;
    &lt;TD&gt;
      &lt;FONT SIZE=3 FACE=ARIAL&gt;&lt;B&gt;DALE-VISHAY&lt;/B&gt;&lt;/FONT&gt;
    &lt;/TD&gt;
    &lt;TD&gt;
      &lt;FONT SIZE=3 FACE=ARIAL&gt;&lt;B&gt;PHILIPS/MEPCO&lt;/B&gt;&lt;/FONT&gt;
    &lt;/TD&gt;
    &lt;TD&gt;
      &lt;FONT SIZE=3 FACE=ARIAL&gt;&lt;B&gt;PANASONIC&lt;/B&gt;&lt;/FONT&gt;
    &lt;/TD&gt;
    &lt;TD&gt;
      &lt;FONT SIZE=3 FACE=ARIAL&gt;&lt;B&gt;TOCOS&lt;/B&gt;&lt;/FONT&gt;
    &lt;/TD&gt;
    &lt;TD&gt;
      &lt;FONT SIZE=3 FACE=ARIAL&gt;&lt;B&gt;AUX/KYOCERA&lt;/B&gt;&lt;/FONT&gt;
    &lt;/TD&gt;
  &lt;/TR&gt;
  &lt;TR&gt;
    &lt;TD BGCOLOR="#cccccc" ALIGN=CENTER&gt;&lt;FONT FACE=ARIAL SIZE=3&gt;
      3224G&lt;BR&gt;
      3224J&lt;BR&gt;
      3224W&lt;BR&gt;
      3269P&lt;BR&gt;
      3269W&lt;BR&gt;
      3269X&lt;BR&gt;&lt;/FONT&gt;
    &lt;/TD&gt;
    &lt;TD BGCOLOR="#cccccc" ALIGN=CENTER&gt;&lt;FONT FACE=ARIAL SIZE=3&gt;
      44G&lt;BR&gt;
      44J&lt;BR&gt;
      44W&lt;BR&gt;
      84P&lt;BR&gt;
      84W&lt;BR&gt;
      84X&lt;BR&gt;&lt;/FONT&gt;
    &lt;/TD&gt;
    &lt;TD BGCOLOR="#cccccc" ALIGN=CENTER&gt;&lt;FONT FACE=ARIAL SIZE=3&gt;
      -&lt;BR&gt;
      -&lt;BR&gt;
      -&lt;BR&gt;
      ST63Z&lt;BR&gt;
      ST63Y&lt;BR&gt;
      -&lt;BR&gt;&lt;/FONT&gt;
    &lt;/TD&gt;
    &lt;TD BGCOLOR="#cccccc" ALIGN=CENTER&gt;&lt;FONT FACE=ARIAL SIZE=3&gt;
      -&lt;BR&gt;
      -&lt;BR&gt;
      -&lt;BR&gt;
      ST5P&lt;BR&gt;
      ST5W&lt;BR&gt;
      ST5X&lt;BR&gt;&lt;/FONT&gt;
    &lt;/TD&gt;
    &lt;TD BGCOLOR="#cccccc" ALIGN=CENTER&gt;&lt;FONT FACE=ARIAL SIZE=3&gt;
      -&lt;BR&gt;
      -&lt;BR&gt;
      -&lt;BR&gt;
      -&lt;BR&gt;
      -&lt;BR&gt;
      -&lt;BR&gt;&lt;/FONT&gt;
    &lt;/TD&gt;
    &lt;TD BGCOLOR="#cccccc" ALIGN=CENTER&gt;&lt;FONT FACE=ARIAL SIZE=3&gt;
      -&lt;BR&gt;
      -&lt;BR&gt;
      -&lt;BR&gt;
      -&lt;BR&gt;
      -&lt;BR&gt;
      -&lt;BR&gt;&lt;/FONT&gt;
    &lt;/TD&gt;
    &lt;TD BGCOLOR="#cccccc" ALIGN=CENTER&gt;&lt;FONT FACE=ARIAL SIZE=3&gt;
      -&lt;BR&gt;
      -&lt;BR&gt;
      -&lt;BR&gt;
      -&lt;BR&gt;
      -&lt;BR&gt;
      -&lt;BR&gt;&lt;/FONT&gt;
    &lt;/TD&gt;
  &lt;/TR&gt;
  &lt;TR&gt;
    &lt;TD COLSPAN=7&gt;&amp;nbsp;
    &lt;/TD&gt;
  &lt;/TR&gt;
  &lt;TR&gt;
    &lt;TD COLSPAN=7&gt;
      &lt;FONT SIZE=4 FACE=ARIAL&gt;&lt;B&gt;SINGLE TURN&lt;/B&gt;&lt;/FONT&gt;
    &lt;/TD&gt;
  &lt;/TR&gt;
  &lt;TR&gt;
    &lt;TD&gt;
      &lt;FONT SIZE=3 FACE=ARIAL&gt;&lt;B&gt;BOURNS&lt;/B&gt;&lt;/FONT&gt;
    &lt;/TD&gt;
    &lt;TD&gt;
      &lt;FONT SIZE=3 FACE=ARIAL&gt;&lt;B&gt;BI&amp;nbsp;TECH&lt;/B&gt;&lt;/FONT&gt;
    &lt;/TD&gt;
    &lt;TD&gt;
      &lt;FONT SIZE=3 FACE=ARIAL&gt;&lt;B&gt;DALE-VISHAY&lt;/B&gt;&lt;/FONT&gt;
    &lt;/TD&gt;
    &lt;TD&gt;
      &lt;FONT SIZE=3 FACE=ARIAL&gt;&lt;B&gt;PHILIPS/MEPCO&lt;/B&gt;&lt;/FONT&gt;
    &lt;/TD&gt;
    &lt;TD&gt;
      &lt;FONT SIZE=3 FACE=ARIAL&gt;&lt;B&gt;PANASONIC&lt;/B&gt;&lt;/FONT&gt;
    &lt;/TD&gt;
    &lt;TD&gt;
      &lt;FONT SIZE=3 FACE=ARIAL&gt;&lt;B&gt;TOCOS&lt;/B&gt;&lt;/FONT&gt;
    &lt;/TD&gt;
    &lt;TD&gt;
      &lt;FONT SIZE=3 FACE=ARIAL&gt;&lt;B&gt;AUX/KYOCERA&lt;/B&gt;&lt;/FONT&gt;
    &lt;/TD&gt;
  &lt;/TR&gt;
  &lt;TR&gt;
    &lt;TD BGCOLOR="#cccccc" ALIGN=CENTER&gt;&lt;FONT FACE=ARIAL SIZE=3&gt;
      3314G&lt;BR&gt;
      3314J&lt;BR&gt;
      3364A/B&lt;BR&gt;
      3364C/D&lt;BR&gt;
      3364W/X&lt;BR&gt;
      3313G&lt;BR&gt;
      3313J&lt;BR&gt;&lt;/FONT&gt;
    &lt;/TD&gt;
    &lt;TD BGCOLOR="#cccccc" ALIGN=CENTER&gt;&lt;FONT FACE=ARIAL SIZE=3&gt;
      23B&lt;BR&gt;
      23A&lt;BR&gt;
      21X&lt;BR&gt;
      21W&lt;BR&gt;
      -&lt;BR&gt;
      22B&lt;BR&gt;
      22A&lt;BR&gt;&lt;/FONT&gt;
    &lt;/TD&gt;
    &lt;TD BGCOLOR="#cccccc" ALIGN=CENTER&gt;&lt;FONT FACE=ARIAL SIZE=3&gt;
      ST5YL/ST53YL&lt;BR&gt;
      ST5YJ/5T53YJ&lt;BR&gt;
      ST-23A&lt;BR&gt;
      ST-22B&lt;BR&gt;
      ST-22&lt;BR&gt;
      -&lt;BR&gt;
      -&lt;BR&gt;&lt;/FONT&gt;
    &lt;/TD&gt;
    &lt;TD BGCOLOR="#cccccc" ALIGN=CENTER&gt;&lt;FONT FACE=ARIAL SIZE=3&gt;
      ST-4B&lt;BR&gt;
      ST-4A&lt;BR&gt;
      -&lt;BR&gt;
      -&lt;BR&gt;
      -&lt;BR&gt;
      ST-3B&lt;BR&gt;
      ST-3A&lt;BR&gt;&lt;/FONT&gt;
    &lt;/TD&gt;
    &lt;TD BGCOLOR="#cccccc" ALIGN=CENTER&gt;&lt;FONT FACE=ARIAL SIZE=3&gt;
      -&lt;BR&gt;
      EVM-6YS&lt;BR&gt;
      EVM-1E&lt;BR&gt;
      EVM-1G&lt;BR&gt;
      EVM-1D&lt;BR&gt;
      -&lt;BR&gt;
      -&lt;BR&gt;&lt;/FONT&gt;
    &lt;/TD&gt;
    &lt;TD BGCOLOR="#cccccc" ALIGN=CENTER&gt;&lt;FONT FACE=ARIAL SIZE=3&gt;
      G4B&lt;BR&gt;
      G4A&lt;BR&gt;
      TR04-3S1&lt;BR&gt;
      TRG04-2S1&lt;BR&gt;
      -&lt;BR&gt;
      -&lt;BR&gt;
      -&lt;BR&gt;&lt;/FONT&gt;
    &lt;/TD&gt;
    &lt;TD BGCOLOR="#cccccc" ALIGN=CENTER&gt;&lt;FONT FACE=ARIAL SIZE=3&gt;
      -&lt;BR&gt;
      -&lt;BR&gt;
      DVR-43A&lt;BR&gt;
      CVR-42C&lt;BR&gt;
      CVR-42A/C&lt;BR&gt;
      -&lt;BR&gt;
      -&lt;BR&gt;&lt;/FONT&gt;
    &lt;/TD&gt;
  &lt;/TR&gt;
&lt;/TABLE&gt;
&lt;P&gt;
&lt;FONT SIZE=4 FACE=ARIAL&gt;&lt;B&gt;ALT =&amp;nbsp;ALTERNATE&lt;/B&gt;&lt;/FONT&gt;
&lt;P&gt;

&amp;nbsp;
&lt;P&gt;
&lt;/td&gt;
&lt;/tr&gt;
&lt;/table&gt;</description>
<packages>
<package name="0204/5">
<description>&lt;b&gt;RESISTOR&lt;/b&gt;&lt;p&gt;
type 0204, grid 5 mm</description>
<wire x1="2.54" y1="0" x2="2.032" y2="0" width="0.508" layer="51"/>
<wire x1="-2.54" y1="0" x2="-2.032" y2="0" width="0.508" layer="51"/>
<wire x1="-1.778" y1="0.635" x2="-1.524" y2="0.889" width="0.1524" layer="21" curve="-90"/>
<wire x1="-1.778" y1="-0.635" x2="-1.524" y2="-0.889" width="0.1524" layer="21" curve="90"/>
<wire x1="1.524" y1="-0.889" x2="1.778" y2="-0.635" width="0.1524" layer="21" curve="90"/>
<wire x1="1.524" y1="0.889" x2="1.778" y2="0.635" width="0.1524" layer="21" curve="-90"/>
<wire x1="-1.778" y1="-0.635" x2="-1.778" y2="0.635" width="0.1524" layer="51"/>
<wire x1="-1.524" y1="0.889" x2="-1.27" y2="0.889" width="0.1524" layer="21"/>
<wire x1="-1.143" y1="0.762" x2="-1.27" y2="0.889" width="0.1524" layer="21"/>
<wire x1="-1.524" y1="-0.889" x2="-1.27" y2="-0.889" width="0.1524" layer="21"/>
<wire x1="-1.143" y1="-0.762" x2="-1.27" y2="-0.889" width="0.1524" layer="21"/>
<wire x1="1.143" y1="0.762" x2="1.27" y2="0.889" width="0.1524" layer="21"/>
<wire x1="1.143" y1="0.762" x2="-1.143" y2="0.762" width="0.1524" layer="21"/>
<wire x1="1.143" y1="-0.762" x2="1.27" y2="-0.889" width="0.1524" layer="21"/>
<wire x1="1.143" y1="-0.762" x2="-1.143" y2="-0.762" width="0.1524" layer="21"/>
<wire x1="1.524" y1="0.889" x2="1.27" y2="0.889" width="0.1524" layer="21"/>
<wire x1="1.524" y1="-0.889" x2="1.27" y2="-0.889" width="0.1524" layer="21"/>
<wire x1="1.778" y1="-0.635" x2="1.778" y2="0.635" width="0.1524" layer="51"/>
<pad name="1" x="-2.54" y="0" drill="0.8128" shape="octagon"/>
<pad name="2" x="2.54" y="0" drill="0.8128" shape="octagon"/>
<text x="-2.0066" y="1.1684" size="0.9906" layer="25" ratio="10">&gt;NAME</text>
<text x="-2.1336" y="-2.3114" size="0.9906" layer="27" ratio="10">&gt;VALUE</text>
<rectangle x1="-2.032" y1="-0.254" x2="-1.778" y2="0.254" layer="51"/>
<rectangle x1="1.778" y1="-0.254" x2="2.032" y2="0.254" layer="51"/>
</package>
</packages>
</library>
<library name="transistor">
<description>&lt;b&gt;Transistors&lt;/b&gt;&lt;p&gt;
&lt;author&gt;Created by librarian@cadsoft.de&lt;/author&gt;</description>
<packages>
<package name="TO220">
<description>&lt;b&gt;TO 220 horizontal&lt;/b&gt;</description>
<wire x1="-5.207" y1="-1.27" x2="5.207" y2="-1.27" width="0.127" layer="21"/>
<wire x1="5.207" y1="14.605" x2="-5.207" y2="14.605" width="0.127" layer="21"/>
<wire x1="5.207" y1="-1.27" x2="5.207" y2="11.176" width="0.127" layer="21"/>
<wire x1="5.207" y1="11.176" x2="4.318" y2="11.176" width="0.127" layer="21"/>
<wire x1="4.318" y1="11.176" x2="4.318" y2="12.7" width="0.127" layer="21"/>
<wire x1="4.318" y1="12.7" x2="5.207" y2="12.7" width="0.127" layer="21"/>
<wire x1="5.207" y1="12.7" x2="5.207" y2="14.605" width="0.127" layer="21"/>
<wire x1="-5.207" y1="-1.27" x2="-5.207" y2="11.176" width="0.127" layer="21"/>
<wire x1="-5.207" y1="11.176" x2="-4.318" y2="11.176" width="0.127" layer="21"/>
<wire x1="-4.318" y1="11.176" x2="-4.318" y2="12.7" width="0.127" layer="21"/>
<wire x1="-4.318" y1="12.7" x2="-5.207" y2="12.7" width="0.127" layer="21"/>
<wire x1="-5.207" y1="12.7" x2="-5.207" y2="14.605" width="0.127" layer="21"/>
<wire x1="-4.572" y1="-0.635" x2="4.572" y2="-0.635" width="0.0508" layer="21"/>
<wire x1="4.572" y1="7.62" x2="4.572" y2="-0.635" width="0.0508" layer="21"/>
<wire x1="4.572" y1="7.62" x2="-4.572" y2="7.62" width="0.0508" layer="21"/>
<wire x1="-4.572" y1="-0.635" x2="-4.572" y2="7.62" width="0.0508" layer="21"/>
<circle x="0" y="11.176" radius="1.8034" width="0.127" layer="21"/>
<circle x="0" y="11.176" radius="4.191" width="0" layer="42"/>
<circle x="0" y="11.176" radius="4.191" width="0" layer="43"/>
<pad name="1" x="-2.54" y="-6.35" drill="1.1176" shape="long" rot="R90"/>
<pad name="2" x="0" y="-6.35" drill="1.1176" shape="long" rot="R90"/>
<pad name="3" x="2.54" y="-6.35" drill="1.1176" shape="long" rot="R90"/>
<text x="-3.81" y="5.207" size="1.778" layer="25" ratio="10">&gt;NAME</text>
<text x="-3.937" y="2.54" size="1.778" layer="27" ratio="10">&gt;VALUE</text>
<text x="-4.445" y="7.874" size="0.9906" layer="21" ratio="12">A17,5mm</text>
<text x="-3.175" y="0" size="1.27" layer="51" ratio="10">1</text>
<text x="-0.635" y="0" size="1.27" layer="51" ratio="10">2</text>
<text x="1.905" y="0" size="1.27" layer="51" ratio="10">3</text>
<rectangle x1="2.159" y1="-4.699" x2="2.921" y2="-4.064" layer="21"/>
<rectangle x1="-0.381" y1="-4.699" x2="0.381" y2="-4.064" layer="21"/>
<rectangle x1="-2.921" y1="-4.699" x2="-2.159" y2="-4.064" layer="21"/>
<rectangle x1="-3.175" y1="-4.064" x2="-1.905" y2="-1.27" layer="21"/>
<rectangle x1="-0.635" y1="-4.064" x2="0.635" y2="-1.27" layer="21"/>
<rectangle x1="1.905" y1="-4.064" x2="3.175" y2="-1.27" layer="21"/>
<rectangle x1="-2.921" y1="-6.604" x2="-2.159" y2="-4.699" layer="51"/>
<rectangle x1="-0.381" y1="-6.604" x2="0.381" y2="-4.699" layer="51"/>
<rectangle x1="2.159" y1="-6.604" x2="2.921" y2="-4.699" layer="51"/>
<hole x="0" y="11.176" drill="3.302"/>
</package>
</packages>
</library>
<library name="transistor-pnp">
<description>&lt;b&gt;PNP Transistors&lt;/b&gt;&lt;p&gt;
&lt;author&gt;Created by librarian@cadsoft.de&lt;/author&gt;</description>
<packages>
<package name="TO92">
<description>&lt;b&gt;TO-92&lt;/b&gt;</description>
<wire x1="-2.0946" y1="-1.651" x2="-0.7863" y2="2.5485" width="0.1524" layer="21" curve="-111.099"/>
<wire x1="0.7868" y1="2.5484" x2="2.095" y2="-1.651" width="0.1524" layer="21" curve="-111.1"/>
<wire x1="-2.095" y1="-1.651" x2="2.095" y2="-1.651" width="0.1524" layer="21"/>
<wire x1="-2.254" y1="-0.254" x2="-0.286" y2="-0.254" width="0.1524" layer="51"/>
<wire x1="-2.655" y1="-0.254" x2="-2.254" y2="-0.254" width="0.1524" layer="21"/>
<wire x1="-0.286" y1="-0.254" x2="0.286" y2="-0.254" width="0.1524" layer="21"/>
<wire x1="2.254" y1="-0.254" x2="2.655" y2="-0.254" width="0.1524" layer="21"/>
<wire x1="0.286" y1="-0.254" x2="2.254" y2="-0.254" width="0.1524" layer="51"/>
<wire x1="-0.7863" y1="2.5485" x2="0.7863" y2="2.5485" width="0.1524" layer="51" curve="-34.2936"/>
<pad name="1" x="1.27" y="0" drill="0.8128" shape="octagon"/>
<pad name="2" x="0" y="1.905" drill="0.8128" shape="octagon"/>
<pad name="3" x="-1.27" y="0" drill="0.8128" shape="octagon"/>
<text x="3.175" y="0.635" size="1.27" layer="25" ratio="10">&gt;NAME</text>
<text x="3.175" y="-1.27" size="1.27" layer="27" ratio="10">&gt;VALUE</text>
<text x="1.143" y="0" size="1.27" layer="51" ratio="10">1</text>
<text x="-0.635" y="0.635" size="1.27" layer="51" ratio="10">2</text>
<text x="-2.159" y="0" size="1.27" layer="51" ratio="10">3</text>
</package>
</packages>
</library>
<library name="diode">
<description>&lt;b&gt;Diodes&lt;/b&gt;&lt;p&gt;
Based on the following sources:
&lt;ul&gt;
&lt;li&gt;Motorola : www.onsemi.com
&lt;li&gt;Fairchild : www.fairchildsemi.com
&lt;li&gt;Philips : www.semiconductors.com
&lt;li&gt;Vishay : www.vishay.de
&lt;/ul&gt;
&lt;author&gt;Created by librarian@cadsoft.de&lt;/author&gt;</description>
<packages>
<package name="DO41-10">
<description>&lt;B&gt;DIODE&lt;/B&gt;&lt;p&gt;
diameter 2.54 mm, horizontal, grid 10.16 mm</description>
<wire x1="2.032" y1="-1.27" x2="-2.032" y2="-1.27" width="0.1524" layer="21"/>
<wire x1="2.032" y1="-1.27" x2="2.032" y2="1.27" width="0.1524" layer="21"/>
<wire x1="-2.032" y1="1.27" x2="2.032" y2="1.27" width="0.1524" layer="21"/>
<wire x1="-2.032" y1="1.27" x2="-2.032" y2="-1.27" width="0.1524" layer="21"/>
<wire x1="5.08" y1="0" x2="4.064" y2="0" width="0.762" layer="51"/>
<wire x1="-5.08" y1="0" x2="-4.064" y2="0" width="0.762" layer="51"/>
<wire x1="-0.635" y1="0" x2="0" y2="0" width="0.1524" layer="21"/>
<wire x1="1.016" y1="0.635" x2="1.016" y2="-0.635" width="0.1524" layer="21"/>
<wire x1="1.016" y1="-0.635" x2="0" y2="0" width="0.1524" layer="21"/>
<wire x1="0" y1="0" x2="1.524" y2="0" width="0.1524" layer="21"/>
<wire x1="0" y1="0" x2="1.016" y2="0.635" width="0.1524" layer="21"/>
<wire x1="0" y1="0.635" x2="0" y2="0" width="0.1524" layer="21"/>
<wire x1="0" y1="0" x2="0" y2="-0.635" width="0.1524" layer="21"/>
<pad name="A" x="5.08" y="0" drill="1.1176"/>
<pad name="C" x="-5.08" y="0" drill="1.1176"/>
<text x="-2.032" y="1.651" size="1.27" layer="25" ratio="10">&gt;NAME</text>
<text x="-2.032" y="-2.794" size="1.27" layer="27" ratio="10">&gt;VALUE</text>
<rectangle x1="-1.651" y1="-1.27" x2="-1.143" y2="1.27" layer="21"/>
<rectangle x1="2.032" y1="-0.381" x2="3.937" y2="0.381" layer="21"/>
<rectangle x1="-3.937" y1="-0.381" x2="-2.032" y2="0.381" layer="21"/>
</package>
</packages>
</library>
<library name="capacitor-wima">
<description>&lt;b&gt;WIMA Capacitors&lt;/b&gt;&lt;p&gt;
&lt;author&gt;Created by librarian@cadsoft.de&lt;/author&gt;</description>
<packages>
<package name="C2.5-5">
<description>&lt;B&gt;MKS2&lt;/B&gt;, 5 x 5 mm, grid 2.54 mm</description>
<wire x1="-2.159" y1="2.286" x2="2.159" y2="2.286" width="0.1524" layer="21"/>
<wire x1="2.159" y1="-2.286" x2="-2.159" y2="-2.286" width="0.1524" layer="21"/>
<wire x1="2.413" y1="2.032" x2="2.413" y2="-2.032" width="0.1524" layer="21"/>
<wire x1="-2.413" y1="2.032" x2="-2.413" y2="-2.032" width="0.1524" layer="21"/>
<wire x1="2.159" y1="2.286" x2="2.413" y2="2.032" width="0.1524" layer="21" curve="-90"/>
<wire x1="-2.413" y1="2.032" x2="-2.159" y2="2.286" width="0.1524" layer="21" curve="-90"/>
<wire x1="2.159" y1="-2.286" x2="2.413" y2="-2.032" width="0.1524" layer="21" curve="90"/>
<wire x1="-2.413" y1="-2.032" x2="-2.159" y2="-2.286" width="0.1524" layer="21" curve="90"/>
<wire x1="1.27" y1="0" x2="0.381" y2="0" width="0.1524" layer="51"/>
<wire x1="0.381" y1="0" x2="0.254" y2="0" width="0.1524" layer="21"/>
<wire x1="0.254" y1="0" x2="0.254" y2="0.762" width="0.254" layer="21"/>
<wire x1="0.254" y1="0" x2="0.254" y2="-0.762" width="0.254" layer="21"/>
<wire x1="-0.254" y1="0.762" x2="-0.254" y2="0" width="0.254" layer="21"/>
<wire x1="-0.254" y1="0" x2="-0.254" y2="-0.762" width="0.254" layer="21"/>
<wire x1="-0.254" y1="0" x2="-0.381" y2="0" width="0.1524" layer="21"/>
<wire x1="-0.381" y1="0" x2="-1.27" y2="0" width="0.1524" layer="51"/>
<pad name="1" x="-1.27" y="0" drill="0.8128" diameter="1.6002" shape="octagon"/>
<pad name="2" x="1.27" y="0" drill="0.8128" diameter="1.6002" shape="octagon"/>
<text x="-1.778" y="2.54" size="1.27" layer="25" ratio="10">&gt;NAME</text>
<text x="-1.778" y="-3.81" size="1.27" layer="27" ratio="10">&gt;VALUE</text>
</package>
</packages>
</library>
<library name="switch-omron">
<description>&lt;b&gt;Omron Switches&lt;/b&gt;&lt;p&gt;
&lt;author&gt;Created by librarian@cadsoft.de&lt;/author&gt;</description>
<packages>
<package name="B3F-31XX">
<description>&lt;b&gt;OMRON SWITCH&lt;/b&gt;</description>
<wire x1="3.683" y1="2.667" x2="3.683" y2="0" width="0.1524" layer="51"/>
<wire x1="3.683" y1="0" x2="3.683" y2="-3.556" width="0.1524" layer="21"/>
<wire x1="3.683" y1="-3.556" x2="2.54" y2="-3.556" width="0.1524" layer="21"/>
<wire x1="-3.683" y1="0" x2="-3.683" y2="-3.556" width="0.1524" layer="21"/>
<wire x1="-3.683" y1="0" x2="-3.683" y2="2.667" width="0.1524" layer="51"/>
<wire x1="-3.683" y1="2.667" x2="-3.429" y2="2.667" width="0.1524" layer="51"/>
<wire x1="-3.429" y1="2.667" x2="-3.429" y2="0" width="0.1524" layer="51"/>
<wire x1="-3.429" y1="-3.302" x2="-0.635" y2="-3.302" width="0.1524" layer="21"/>
<wire x1="3.429" y1="0" x2="3.429" y2="2.667" width="0.1524" layer="51"/>
<wire x1="3.429" y1="2.667" x2="3.683" y2="2.667" width="0.1524" layer="51"/>
<wire x1="-2.54" y1="-3.556" x2="-2.54" y2="-3.81" width="0.1524" layer="21"/>
<wire x1="-2.54" y1="-3.81" x2="-1.27" y2="-3.81" width="0.1524" layer="21"/>
<wire x1="2.54" y1="-3.556" x2="2.54" y2="-3.81" width="0.1524" layer="21"/>
<wire x1="2.54" y1="-3.556" x2="-3.683" y2="-3.556" width="0.1524" layer="21"/>
<wire x1="-1.27" y1="-3.81" x2="-1.27" y2="-4.191" width="0.1524" layer="21"/>
<wire x1="-1.27" y1="-3.81" x2="1.27" y2="-3.81" width="0.1524" layer="21"/>
<wire x1="-1.27" y1="-4.191" x2="1.27" y2="-4.191" width="0.1524" layer="21"/>
<wire x1="1.27" y1="-3.81" x2="1.27" y2="-4.191" width="0.1524" layer="21"/>
<wire x1="1.27" y1="-3.81" x2="2.54" y2="-3.81" width="0.1524" layer="21"/>
<wire x1="-0.635" y1="-3.302" x2="-0.635" y2="-2.286" width="0.1524" layer="21"/>
<wire x1="-0.635" y1="-3.302" x2="0.635" y2="-3.302" width="0.1524" layer="21"/>
<wire x1="-0.635" y1="-2.286" x2="0.635" y2="-2.286" width="0.1524" layer="21"/>
<wire x1="0.635" y1="-3.302" x2="0.635" y2="-2.286" width="0.1524" layer="21"/>
<wire x1="0.635" y1="-3.302" x2="3.429" y2="-3.302" width="0.1524" layer="21"/>
<wire x1="-3.429" y1="0" x2="-2.667" y2="0" width="0.1524" layer="21"/>
<wire x1="-2.667" y1="0.254" x2="-2.667" y2="0" width="0.1524" layer="21"/>
<wire x1="-2.667" y1="0.254" x2="-1.905" y2="0.254" width="0.1524" layer="21"/>
<wire x1="-1.905" y1="0" x2="-1.905" y2="0.254" width="0.1524" layer="21"/>
<wire x1="-1.905" y1="0" x2="-0.762" y2="0" width="0.1524" layer="21"/>
<wire x1="-0.762" y1="-0.254" x2="-0.762" y2="0" width="0.1524" layer="21"/>
<wire x1="-0.762" y1="-0.254" x2="0.762" y2="-0.254" width="0.1524" layer="21"/>
<wire x1="0.762" y1="0" x2="0.762" y2="-0.254" width="0.1524" layer="21"/>
<wire x1="0.762" y1="0" x2="1.778" y2="0" width="0.1524" layer="21"/>
<wire x1="1.778" y1="0" x2="1.778" y2="0.254" width="0.1524" layer="21"/>
<wire x1="1.778" y1="0.254" x2="2.667" y2="0.254" width="0.1524" layer="21"/>
<wire x1="2.667" y1="0" x2="2.667" y2="0.254" width="0.1524" layer="21"/>
<wire x1="2.667" y1="0" x2="3.429" y2="0" width="0.1524" layer="21"/>
<wire x1="-1.651" y1="-0.889" x2="-0.762" y2="-0.889" width="0.1524" layer="51"/>
<wire x1="-0.762" y1="-0.889" x2="0.508" y2="-1.27" width="0.1524" layer="51"/>
<wire x1="0.508" y1="-0.889" x2="1.651" y2="-0.889" width="0.1524" layer="51"/>
<wire x1="0" y1="-1.27" x2="0" y2="-1.651" width="0.1524" layer="51"/>
<wire x1="-0.254" y1="-1.651" x2="0" y2="-1.651" width="0.1524" layer="51"/>
<wire x1="0" y1="-1.651" x2="0.254" y2="-1.651" width="0.1524" layer="51"/>
<wire x1="-3.429" y1="-0.508" x2="-3.429" y2="-2.032" width="0.1524" layer="51"/>
<wire x1="-3.429" y1="-0.508" x2="-3.429" y2="0" width="0.1524" layer="21"/>
<wire x1="-3.429" y1="-2.032" x2="-3.429" y2="-3.302" width="0.1524" layer="21"/>
<wire x1="3.429" y1="-2.032" x2="3.429" y2="-3.302" width="0.1524" layer="21"/>
<wire x1="3.429" y1="-0.508" x2="3.429" y2="-2.032" width="0.1524" layer="51"/>
<wire x1="3.429" y1="-0.508" x2="3.429" y2="0" width="0.1524" layer="21"/>
<pad name="1" x="-2.2606" y="-1.2446" drill="1.016" shape="octagon"/>
<pad name="2" x="2.2606" y="-1.2446" drill="1.016" shape="octagon"/>
<pad name="3" x="-3.5052" y="1.2446" drill="1.4986" diameter="2.159"/>
<pad name="4" x="3.5052" y="1.2446" drill="1.4986" diameter="2.159"/>
<text x="-2.54" y="2.54" size="1.27" layer="25" ratio="10">&gt;NAME</text>
<text x="-3.683" y="-5.969" size="1.27" layer="27" ratio="10">&gt;VALUE</text>
</package>
</packages>
</library>
<library name="jumper">
<description>&lt;b&gt;Jumpers&lt;/b&gt;&lt;p&gt;
&lt;author&gt;Created by librarian@cadsoft.de&lt;/author&gt;</description>
<packages>
<package name="JP1">
<description>&lt;b&gt;JUMPER&lt;/b&gt;</description>
<wire x1="-1.016" y1="0" x2="-1.27" y2="0.254" width="0.1524" layer="21"/>
<wire x1="-1.016" y1="0" x2="-1.27" y2="-0.254" width="0.1524" layer="21"/>
<wire x1="1.016" y1="0" x2="1.27" y2="0.254" width="0.1524" layer="21"/>
<wire x1="1.016" y1="0" x2="1.27" y2="-0.254" width="0.1524" layer="21"/>
<wire x1="1.27" y1="-0.254" x2="1.27" y2="-2.286" width="0.1524" layer="21"/>
<wire x1="1.016" y1="-2.54" x2="1.27" y2="-2.286" width="0.1524" layer="21"/>
<wire x1="1.27" y1="2.286" x2="1.016" y2="2.54" width="0.1524" layer="21"/>
<wire x1="1.27" y1="2.286" x2="1.27" y2="0.254" width="0.1524" layer="21"/>
<wire x1="1.016" y1="2.54" x2="-1.016" y2="2.54" width="0.1524" layer="21"/>
<wire x1="-1.27" y1="2.286" x2="-1.016" y2="2.54" width="0.1524" layer="21"/>
<wire x1="-1.27" y1="2.286" x2="-1.27" y2="0.254" width="0.1524" layer="21"/>
<wire x1="-1.27" y1="-0.254" x2="-1.27" y2="-2.286" width="0.1524" layer="21"/>
<wire x1="-1.016" y1="-2.54" x2="-1.27" y2="-2.286" width="0.1524" layer="21"/>
<wire x1="-1.016" y1="-2.54" x2="1.016" y2="-2.54" width="0.1524" layer="21"/>
<pad name="1" x="0" y="-1.27" drill="0.9144" shape="long"/>
<pad name="2" x="0" y="1.27" drill="0.9144" shape="long"/>
<text x="-1.651" y="-2.54" size="1.27" layer="25" ratio="10" rot="R90">&gt;NAME</text>
<text x="2.921" y="-2.54" size="1.27" layer="27" ratio="10" rot="R90">&gt;VALUE</text>
<rectangle x1="-0.3048" y1="0.9652" x2="0.3048" y2="1.5748" layer="51"/>
<rectangle x1="-0.3048" y1="-1.5748" x2="0.3048" y2="-0.9652" layer="51"/>
</package>
</packages>
</library>
<library name="wirepad">
<description>&lt;b&gt;Single Pads&lt;/b&gt;&lt;p&gt;
&lt;author&gt;Created by librarian@cadsoft.de&lt;/author&gt;</description>
<packages>
<package name="5-1,8">
<description>&lt;b&gt;THROUGH-HOLE PAD&lt;/b&gt;</description>
<wire x1="1.1684" y1="2.794" x2="-1.1684" y2="2.794" width="0.1524" layer="21"/>
<wire x1="-1.1684" y1="-2.794" x2="-1.1684" y2="2.794" width="0.1524" layer="21"/>
<wire x1="-1.1684" y1="-2.794" x2="1.1684" y2="-2.794" width="0.1524" layer="21"/>
<wire x1="1.1684" y1="2.794" x2="1.1684" y2="-2.794" width="0.1524" layer="21"/>
<smd name="1" x="0" y="0" dx="1.8288" dy="5.08" layer="1"/>
<text x="-1.524" y="-2.54" size="1.27" layer="25" ratio="10" rot="R90">&gt;NAME</text>
<text x="-0.1" y="2.8" size="0.0254" layer="27">&gt;VALUE</text>
</package>
<package name="4,16O1,6">
<description>&lt;b&gt;THROUGH-HOLE PAD&lt;/b&gt;</description>
<pad name="1" x="0" y="0" drill="1.6002" diameter="4.1656" shape="octagon"/>
<text x="0" y="0" size="0.0254" layer="27">&gt;VALUE</text>
<text x="-2.1" y="2.2" size="1.27" layer="25">&gt;NAME</text>
</package>
</packages>
</library>
</libraries>
<attributes>
</attributes>
<variantdefs>
</variantdefs>
<classes>
<class number="0" name="default" width="0" drill="0">
</class>
</classes>
<designrules name="default">
<description language="de">&lt;b&gt;EAGLE Design Rules&lt;/b&gt;
&lt;p&gt;
Die Standard-Design-Rules sind so gewählt, dass sie für 
die meisten Anwendungen passen. Sollte ihre Platine 
besondere Anforderungen haben, treffen Sie die erforderlichen
Einstellungen hier und speichern die Design Rules unter 
einem neuen Namen ab.</description>
<description language="en">&lt;b&gt;EAGLE Design Rules&lt;/b&gt;
&lt;p&gt;
The default Design Rules have been set to cover
a wide range of applications. Your particular design
may have different requirements, so please make the
necessary adjustments and save your customized
design rules under a new name.</description>
<param name="layerSetup" value="(1*16)"/>
<param name="mtCopper" value="0.035mm 0.035mm 0.035mm 0.035mm 0.035mm 0.035mm 0.035mm 0.035mm 0.035mm 0.035mm 0.035mm 0.035mm 0.035mm 0.035mm 0.035mm 0.035mm"/>
<param name="mtIsolate" value="1.5mm 0.15mm 0.2mm 0.15mm 0.2mm 0.15mm 0.2mm 0.15mm 0.2mm 0.15mm 0.2mm 0.15mm 0.2mm 0.15mm 0.2mm"/>
<param name="mdWireWire" value="8mil"/>
<param name="mdWirePad" value="8mil"/>
<param name="mdWireVia" value="8mil"/>
<param name="mdPadPad" value="8mil"/>
<param name="mdPadVia" value="8mil"/>
<param name="mdViaVia" value="8mil"/>
<param name="mdSmdPad" value="8mil"/>
<param name="mdSmdVia" value="8mil"/>
<param name="mdSmdSmd" value="8mil"/>
<param name="mdViaViaSameLayer" value="8mil"/>
<param name="mnLayersViaInSmd" value="2"/>
<param name="mdCopperDimension" value="40mil"/>
<param name="mdDrill" value="8mil"/>
<param name="mdSmdStop" value="0mil"/>
<param name="msWidth" value="10mil"/>
<param name="msDrill" value="24mil"/>
<param name="msMicroVia" value="9.99mm"/>
<param name="msBlindViaRatio" value="0.5"/>
<param name="rvPadTop" value="0.25"/>
<param name="rvPadInner" value="0.25"/>
<param name="rvPadBottom" value="0.25"/>
<param name="rvViaOuter" value="0.25"/>
<param name="rvViaInner" value="0.25"/>
<param name="rvMicroViaOuter" value="0.25"/>
<param name="rvMicroViaInner" value="0.25"/>
<param name="rlMinPadTop" value="10mil"/>
<param name="rlMaxPadTop" value="20mil"/>
<param name="rlMinPadInner" value="10mil"/>
<param name="rlMaxPadInner" value="20mil"/>
<param name="rlMinPadBottom" value="10mil"/>
<param name="rlMaxPadBottom" value="20mil"/>
<param name="rlMinViaOuter" value="8mil"/>
<param name="rlMaxViaOuter" value="20mil"/>
<param name="rlMinViaInner" value="8mil"/>
<param name="rlMaxViaInner" value="20mil"/>
<param name="rlMinMicroViaOuter" value="4mil"/>
<param name="rlMaxMicroViaOuter" value="20mil"/>
<param name="rlMinMicroViaInner" value="4mil"/>
<param name="rlMaxMicroViaInner" value="20mil"/>
<param name="psTop" value="-1"/>
<param name="psBottom" value="-1"/>
<param name="psFirst" value="-1"/>
<param name="psElongationLong" value="100"/>
<param name="psElongationOffset" value="100"/>
<param name="mvStopFrame" value="1"/>
<param name="mvCreamFrame" value="0"/>
<param name="mlMinStopFrame" value="4mil"/>
<param name="mlMaxStopFrame" value="4mil"/>
<param name="mlMinCreamFrame" value="0mil"/>
<param name="mlMaxCreamFrame" value="0mil"/>
<param name="mlViaStopLimit" value="0mil"/>
<param name="srRoundness" value="0"/>
<param name="srMinRoundness" value="0mil"/>
<param name="srMaxRoundness" value="0mil"/>
<param name="slThermalIsolate" value="10mil"/>
<param name="slThermalsForVias" value="0"/>
<param name="dpMaxLengthDifference" value="10mm"/>
<param name="dpGapFactor" value="2.5"/>
<param name="checkGrid" value="0"/>
<param name="checkAngle" value="0"/>
<param name="checkFont" value="1"/>
<param name="checkRestrict" value="1"/>
<param name="useDiameter" value="13"/>
<param name="maxErrors" value="50"/>
</designrules>
<autorouter>
<pass name="Default">
<param name="RoutingGrid" value="50mil"/>
<param name="tpViaShape" value="round"/>
<param name="PrefDir.1" value="|"/>
<param name="PrefDir.2" value="0"/>
<param name="PrefDir.3" value="0"/>
<param name="PrefDir.4" value="0"/>
<param name="PrefDir.5" value="0"/>
<param name="PrefDir.6" value="0"/>
<param name="PrefDir.7" value="0"/>
<param name="PrefDir.8" value="0"/>
<param name="PrefDir.9" value="0"/>
<param name="PrefDir.10" value="0"/>
<param name="PrefDir.11" value="0"/>
<param name="PrefDir.12" value="0"/>
<param name="PrefDir.13" value="0"/>
<param name="PrefDir.14" value="0"/>
<param name="PrefDir.15" value="0"/>
<param name="PrefDir.16" value="-"/>
<param name="cfVia" value="8"/>
<param name="cfNonPref" value="5"/>
<param name="cfChangeDir" value="2"/>
<param name="cfOrthStep" value="2"/>
<param name="cfDiagStep" value="3"/>
<param name="cfExtdStep" value="0"/>
<param name="cfBonusStep" value="1"/>
<param name="cfMalusStep" value="1"/>
<param name="cfPadImpact" value="4"/>
<param name="cfSmdImpact" value="4"/>
<param name="cfBusImpact" value="0"/>
<param name="cfHugging" value="3"/>
<param name="cfAvoid" value="4"/>
<param name="cfPolygon" value="10"/>
<param name="cfBase.1" value="0"/>
<param name="cfBase.2" value="1"/>
<param name="cfBase.3" value="1"/>
<param name="cfBase.4" value="1"/>
<param name="cfBase.5" value="1"/>
<param name="cfBase.6" value="1"/>
<param name="cfBase.7" value="1"/>
<param name="cfBase.8" value="1"/>
<param name="cfBase.9" value="1"/>
<param name="cfBase.10" value="1"/>
<param name="cfBase.11" value="1"/>
<param name="cfBase.12" value="1"/>
<param name="cfBase.13" value="1"/>
<param name="cfBase.14" value="1"/>
<param name="cfBase.15" value="1"/>
<param name="cfBase.16" value="0"/>
<param name="mnVias" value="20"/>
<param name="mnSegments" value="9999"/>
<param name="mnExtdSteps" value="9999"/>
<param name="mnRipupLevel" value="10"/>
<param name="mnRipupSteps" value="100"/>
<param name="mnRipupTotal" value="100"/>
</pass>
<pass name="Follow-me" refer="Default" active="yes">
</pass>
<pass name="Busses" refer="Default" active="yes">
<param name="cfNonPref" value="4"/>
<param name="cfBusImpact" value="4"/>
<param name="cfHugging" value="0"/>
<param name="mnVias" value="0"/>
</pass>
<pass name="Route" refer="Default" active="yes">
</pass>
<pass name="Optimize1" refer="Default" active="yes">
<param name="cfVia" value="99"/>
<param name="cfExtdStep" value="10"/>
<param name="cfHugging" value="1"/>
<param name="mnExtdSteps" value="1"/>
<param name="mnRipupLevel" value="0"/>
</pass>
<pass name="Optimize2" refer="Optimize1" active="yes">
<param name="cfNonPref" value="0"/>
<param name="cfChangeDir" value="6"/>
<param name="cfExtdStep" value="0"/>
<param name="cfBonusStep" value="2"/>
<param name="cfMalusStep" value="2"/>
<param name="cfPadImpact" value="2"/>
<param name="cfSmdImpact" value="2"/>
<param name="cfHugging" value="0"/>
</pass>
<pass name="Optimize3" refer="Optimize2" active="yes">
<param name="cfChangeDir" value="8"/>
<param name="cfPadImpact" value="0"/>
<param name="cfSmdImpact" value="0"/>
</pass>
<pass name="Optimize4" refer="Optimize3" active="yes">
<param name="cfChangeDir" value="25"/>
</pass>
</autorouter>
<elements>
<element name="R_S" library="pinhead" package="1X06" value="" x="13.97" y="69.85"/>
<element name="L_S" library="pinhead" package="1X06" value="" x="17.78" y="59.69"/>
<element name="SIM808" library="pinhead" package="1X07" value="" x="16.51" y="49.53"/>
<element name="5V_IN" library="pinhead" package="1X02" value="" x="48.26" y="13.97" rot="R270"/>
<element name="B1" library="rectifier" package="FB15" value="" x="63.5" y="38.1" rot="R90"/>
<element name="TLP621" library="optocoupler" package="DIL08" value="TIL198" x="21.59" y="36.83">
<attribute name="OC_NEWARK" value="unknown" x="52.07" y="29.21" size="1.778" layer="27" display="off"/>
<attribute name="MPN" value="" x="52.07" y="29.21" size="1.778" layer="27" display="off"/>
<attribute name="MF" value="" x="52.07" y="29.21" size="1.778" layer="27" display="off"/>
<attribute name="OC_FARNELL" value="unknown" x="52.07" y="29.21" size="1.778" layer="27" display="off"/>
</element>
<element name="R1" library="rcl" package="0204/5" value="" x="13.97" y="44.45" rot="R180"/>
<element name="R2" library="rcl" package="0204/5" value="" x="11.43" y="35.56" rot="R90"/>
<element name="T1" library="transistor" package="TO220" value="TIP122" x="44.45" y="29.21" rot="R270"/>
<element name="Q1" library="transistor-pnp" package="TO92" value="BC557" x="31.75" y="20.32" rot="R180"/>
<element name="R3" library="rcl" package="0204/5" value="" x="31.75" y="25.4"/>
<element name="R4" library="rcl" package="0204/5" value="" x="29.21" y="11.43" rot="R180"/>
<element name="R5" library="rcl" package="0204/5" value="" x="31.75" y="15.24" rot="R180"/>
<element name="R6" library="rcl" package="0204/5" value="" x="39.37" y="11.43" rot="R180"/>
<element name="D1" library="diode" package="DO41-10" value="1N4004" x="29.21" y="6.35" rot="R180"/>
<element name="C1" library="capacitor-wima" package="C2.5-5" value="" x="39.37" y="17.78" rot="R270"/>
<element name="S1" library="switch-omron" package="B3F-31XX" value="" x="15.24" y="13.97">
<attribute name="OC_NEWARK" value="36M3582" x="58.42" y="8.89" size="1.778" layer="27" display="off"/>
<attribute name="MPN" value="B3F-3100" x="58.42" y="8.89" size="1.778" layer="27" display="off"/>
<attribute name="MF" value="" x="58.42" y="8.89" size="1.778" layer="27" display="off"/>
<attribute name="OC_FARNELL" value="959704" x="58.42" y="8.89" size="1.778" layer="27" display="off"/>
</element>
<element name="BUZZ+" library="solpad" package="LSP10" value="LSP10" x="58.42" y="59.69"/>
<element name="BUZZ-" library="solpad" package="LSP10" value="LSP10" x="58.42" y="52.07"/>
<element name="R7" library="rcl" package="0204/5" value="" x="40.64" y="66.04" rot="R180"/>
<element name="DIRECT" library="jumper" package="JP1" value="" x="49.53" y="41.91" rot="R270"/>
<element name="CON_PAD+" library="wirepad" package="5-1,8" value="WIREPADSMD5-1,8" x="78.74" y="60.96" rot="R90"/>
<element name="CONV_PAD-" library="wirepad" package="5-1,8" value="WIREPADSMD5-1,8" x="78.74" y="53.34" rot="R90"/>
<element name="IGN-" library="wirepad" package="5-1,8" value="WIREPADSMD5-1,8" x="78.74" y="6.35" rot="R90"/>
<element name="IGN+" library="wirepad" package="5-1,8" value="WIREPADSMD5-1,8" x="78.74" y="13.97" rot="R90"/>
<element name="V5V_PAD+" library="wirepad" package="5-1,8" value="WIREPADSMD5-1,8" x="53.34" y="17.78" rot="R270"/>
<element name="V5V_PAD-" library="wirepad" package="5-1,8" value="WIREPADSMD5-1,8" x="53.34" y="10.16" rot="R90"/>
<element name="IN1" library="wirepad" package="4,16O1,6" value="WIREPAD4,16O1,6" x="73.66" y="35.56"/>
<element name="IN2" library="wirepad" package="4,16O1,6" value="WIREPAD4,16O1,6" x="73.66" y="43.18"/>
<element name="CONV_IN+" library="wirepad" package="4,16O1,6" value="WIREPAD4,16O1,6" x="73.66" y="60.96"/>
<element name="CON_IN-" library="wirepad" package="4,16O1,6" value="WIREPAD4,16O1,6" x="73.66" y="53.34"/>
<element name="IGN_PAD-" library="wirepad" package="4,16O1,6" value="WIREPAD4,16O1,6" x="73.66" y="6.35"/>
<element name="IGN_PAD+" library="wirepad" package="4,16O1,6" value="WIREPAD4,16O1,6" x="73.66" y="13.97"/>
<element name="IN_PAD2" library="wirepad" package="5-1,8" value="WIREPADSMD5-1,8" x="78.74" y="43.18" rot="R90"/>
<element name="IN_PAD1" library="wirepad" package="5-1,8" value="WIREPADSMD5-1,8" x="78.74" y="35.56" rot="R270"/>
</elements>
<signals>
<signal name="GND">
<contactref element="TLP621" pad="7"/>
<contactref element="5V_IN" pad="2"/>
<contactref element="T1" pad="1"/>
<contactref element="R6" pad="1"/>
<contactref element="BUZZ-" pad="MP"/>
<contactref element="DIRECT" pad="1"/>
<contactref element="V5V_PAD-" pad="1"/>
<wire x1="48.26" y1="41.91" x2="58.42" y2="52.07" width="0" layer="19" extent="1-1"/>
<wire x1="38.1" y1="31.75" x2="48.26" y2="41.91" width="0" layer="19" extent="1-1"/>
<wire x1="20.32" y1="40.64" x2="38.1" y2="31.75" width="0" layer="19" extent="1-1"/>
<wire x1="41.91" y1="11.43" x2="38.1" y2="31.75" width="0" layer="19" extent="1-1"/>
<wire x1="48.26" y1="12.7" x2="41.91" y2="11.43" width="0" layer="19" extent="1-1"/>
<wire x1="53.34" y1="10.16" x2="48.26" y2="12.7" width="0" layer="19" extent="1-1"/>
</signal>
<signal name="N$4">
<contactref element="R_S" pad="3"/>
<contactref element="L_S" pad="4"/>
<wire x1="19.05" y1="59.69" x2="12.7" y2="69.85" width="0" layer="19" extent="1-1"/>
</signal>
<signal name="N$5">
<contactref element="L_S" pad="2"/>
<contactref element="SIM808" pad="6"/>
<wire x1="21.59" y1="49.53" x2="13.97" y2="59.69" width="0" layer="19" extent="1-1"/>
</signal>
<signal name="N$8">
<contactref element="L_S" pad="3"/>
<contactref element="SIM808" pad="5"/>
<wire x1="19.05" y1="49.53" x2="16.51" y2="59.69" width="0" layer="19" extent="1-1"/>
</signal>
<signal name="N$9">
<contactref element="L_S" pad="6"/>
<contactref element="SIM808" pad="4"/>
<wire x1="16.51" y1="49.53" x2="24.13" y2="59.69" width="0" layer="19" extent="1-1"/>
</signal>
<signal name="N$15">
<contactref element="B1" pad="+"/>
<contactref element="CONV_IN+" pad="1"/>
<contactref element="CON_PAD+" pad="1"/>
<wire x1="73.66" y1="60.96" x2="78.74" y2="60.96" width="0" layer="19" extent="1-1"/>
<wire x1="63.5" y1="30.6" x2="73.66" y2="60.96" width="0" layer="19" extent="1-1"/>
</signal>
<signal name="S_IN">
<contactref element="L_S" pad="5"/>
<contactref element="R1" pad="1"/>
<contactref element="TLP621" pad="8"/>
<wire x1="16.51" y1="44.45" x2="21.59" y2="59.69" width="0" layer="19" extent="1-1"/>
<wire x1="17.78" y1="40.64" x2="16.51" y2="44.45" width="0" layer="19" extent="1-1"/>
</signal>
<signal name="N$1">
<contactref element="TLP621" pad="1"/>
<contactref element="R2" pad="1"/>
<wire x1="11.43" y1="33.02" x2="17.78" y2="33.02" width="0" layer="19" extent="1-1"/>
</signal>
<signal name="N$3">
<contactref element="R2" pad="2"/>
<contactref element="IGN+" pad="1"/>
<contactref element="IGN_PAD+" pad="1"/>
<wire x1="73.66" y1="13.97" x2="78.74" y2="13.97" width="0" layer="19" extent="1-1"/>
<wire x1="11.43" y1="38.1" x2="73.66" y2="13.97" width="0" layer="19" extent="1-1"/>
</signal>
<signal name="N$7">
<contactref element="B1" pad="-"/>
<contactref element="CON_IN-" pad="1"/>
<contactref element="CONV_PAD-" pad="1"/>
<wire x1="73.66" y1="53.34" x2="78.74" y2="53.34" width="0" layer="19" extent="1-1"/>
<wire x1="63.5" y1="45.6114" x2="73.66" y2="53.34" width="0" layer="19" extent="1-1"/>
</signal>
<signal name="N$13">
<contactref element="R4" pad="2"/>
<contactref element="D1" pad="A"/>
<contactref element="S1" pad="2"/>
<wire x1="24.13" y1="6.35" x2="26.67" y2="11.43" width="0" layer="19" extent="1-1"/>
<wire x1="17.5006" y1="12.7254" x2="24.13" y2="6.35" width="0" layer="19" extent="1-1"/>
</signal>
<signal name="N$14">
<contactref element="R4" pad="1"/>
<contactref element="Q1" pad="2"/>
<contactref element="C1" pad="1"/>
<wire x1="31.75" y1="18.415" x2="39.37" y2="19.05" width="0" layer="19" extent="1-1"/>
<wire x1="31.75" y1="11.43" x2="31.75" y2="18.415" width="0" layer="19" extent="1-1"/>
</signal>
<signal name="N$16">
<contactref element="Q1" pad="3"/>
<contactref element="R5" pad="1"/>
<wire x1="34.29" y1="15.24" x2="33.02" y2="20.32" width="0" layer="19" extent="1-1"/>
</signal>
<signal name="N$17">
<contactref element="R3" pad="1"/>
<contactref element="Q1" pad="1"/>
<wire x1="30.48" y1="20.32" x2="29.21" y2="25.4" width="0" layer="19" extent="1-1"/>
</signal>
<signal name="N$18">
<contactref element="R6" pad="2"/>
<contactref element="D1" pad="C"/>
<wire x1="34.29" y1="6.35" x2="36.83" y2="11.43" width="0" layer="19" extent="1-1"/>
</signal>
<signal name="N$20">
<contactref element="T1" pad="3"/>
<contactref element="R3" pad="2"/>
<wire x1="34.29" y1="25.4" x2="38.1" y2="26.67" width="0" layer="19" extent="1-1"/>
</signal>
<signal name="VIN">
<contactref element="R_S" pad="1"/>
<contactref element="SIM808" pad="3"/>
<contactref element="S1" pad="1"/>
<contactref element="R5" pad="2"/>
<contactref element="C1" pad="2"/>
<contactref element="R1" pad="2"/>
<contactref element="5V_IN" pad="1"/>
<contactref element="V5V_PAD+" pad="1"/>
<wire x1="13.97" y1="49.53" x2="7.62" y2="69.85" width="0" layer="19" extent="1-1"/>
<wire x1="11.43" y1="44.45" x2="13.97" y2="49.53" width="0" layer="19" extent="1-1"/>
<wire x1="12.9794" y1="12.7254" x2="11.43" y2="44.45" width="0" layer="19" extent="1-1"/>
<wire x1="29.21" y1="15.24" x2="12.9794" y2="12.7254" width="0" layer="19" extent="1-1"/>
<wire x1="39.37" y1="16.51" x2="29.21" y2="15.24" width="0" layer="19" extent="1-1"/>
<wire x1="48.26" y1="15.24" x2="39.37" y2="16.51" width="0" layer="19" extent="1-1"/>
<wire x1="53.34" y1="17.78" x2="48.26" y2="15.24" width="0" layer="19" extent="1-1"/>
</signal>
<signal name="N$12">
<contactref element="B1" pad="AC2"/>
<contactref element="IN2" pad="1"/>
<contactref element="IN_PAD2" pad="1"/>
<wire x1="73.66" y1="43.18" x2="78.74" y2="43.18" width="0" layer="19" extent="1-1"/>
<wire x1="63.5" y1="40.633" x2="73.66" y2="43.18" width="0" layer="19" extent="1-1"/>
</signal>
<signal name="RST_CON">
<contactref element="R_S" pad="2"/>
<contactref element="L_S" pad="1"/>
<contactref element="SIM808" pad="2"/>
<contactref element="T1" pad="2"/>
<contactref element="DIRECT" pad="2"/>
<wire x1="38.1" y1="29.21" x2="50.8" y2="41.91" width="0" layer="19" extent="1-1"/>
<wire x1="11.43" y1="49.53" x2="38.1" y2="29.21" width="0" layer="19" extent="1-1"/>
<wire x1="11.43" y1="59.69" x2="11.43" y2="49.53" width="0" layer="19" extent="1-1"/>
<wire x1="10.16" y1="69.85" x2="11.43" y2="59.69" width="0" layer="19" extent="1-1"/>
</signal>
<signal name="N$2">
<contactref element="B1" pad="AC1"/>
<contactref element="IN1" pad="1"/>
<contactref element="IN_PAD1" pad="1"/>
<wire x1="73.66" y1="35.56" x2="78.74" y2="35.56" width="0" layer="19" extent="1-1"/>
<wire x1="63.5" y1="35.6038" x2="73.66" y2="35.56" width="0" layer="19" extent="1-1"/>
</signal>
<signal name="N$11">
<contactref element="BUZZ+" pad="MP"/>
<contactref element="R7" pad="1"/>
<wire x1="43.18" y1="66.04" x2="58.42" y2="59.69" width="0" layer="19" extent="1-1"/>
</signal>
<signal name="N$19">
<contactref element="R7" pad="2"/>
<contactref element="R_S" pad="6"/>
<wire x1="20.32" y1="69.85" x2="38.1" y2="66.04" width="0" layer="19" extent="1-1"/>
</signal>
<signal name="N$10">
<contactref element="IGN-" pad="1"/>
<contactref element="TLP621" pad="2"/>
<contactref element="IGN_PAD-" pad="1"/>
<wire x1="73.66" y1="6.35" x2="78.74" y2="6.35" width="0" layer="19" extent="1-1"/>
<wire x1="20.32" y1="33.02" x2="73.66" y2="6.35" width="0" layer="19" extent="1-1"/>
</signal>
</signals>
</board>
</drawing>
</eagle>
