<?xml version="1.0" encoding="utf-8"?>
<!DOCTYPE eagle SYSTEM "eagle.dtd">
<eagle version="6.6.0">
<drawing>
<settings>
<setting alwaysvectorfont="no"/>
<setting verticaltext="up"/>
</settings>
<grid distance="0.1" unitdist="inch" unit="inch" style="lines" multiple="1" display="no" altdistance="0.01" altunitdist="inch" altunit="inch"/>
<layers>
<layer number="1" name="Top" color="4" fill="1" visible="no" active="no"/>
<layer number="16" name="Bottom" color="1" fill="1" visible="no" active="no"/>
<layer number="17" name="Pads" color="2" fill="1" visible="no" active="no"/>
<layer number="18" name="Vias" color="2" fill="1" visible="no" active="no"/>
<layer number="19" name="Unrouted" color="6" fill="1" visible="no" active="no"/>
<layer number="20" name="Dimension" color="15" fill="1" visible="no" active="no"/>
<layer number="21" name="tPlace" color="7" fill="1" visible="no" active="no"/>
<layer number="22" name="bPlace" color="7" fill="1" visible="no" active="no"/>
<layer number="23" name="tOrigins" color="15" fill="1" visible="no" active="no"/>
<layer number="24" name="bOrigins" color="15" fill="1" visible="no" active="no"/>
<layer number="25" name="tNames" color="7" fill="1" visible="no" active="no"/>
<layer number="26" name="bNames" color="7" fill="1" visible="no" active="no"/>
<layer number="27" name="tValues" color="7" fill="1" visible="no" active="no"/>
<layer number="28" name="bValues" color="7" fill="1" visible="no" active="no"/>
<layer number="29" name="tStop" color="7" fill="3" visible="no" active="no"/>
<layer number="30" name="bStop" color="7" fill="6" visible="no" active="no"/>
<layer number="31" name="tCream" color="7" fill="4" visible="no" active="no"/>
<layer number="32" name="bCream" color="7" fill="5" visible="no" active="no"/>
<layer number="33" name="tFinish" color="6" fill="3" visible="no" active="no"/>
<layer number="34" name="bFinish" color="6" fill="6" visible="no" active="no"/>
<layer number="35" name="tGlue" color="7" fill="4" visible="no" active="no"/>
<layer number="36" name="bGlue" color="7" fill="5" visible="no" active="no"/>
<layer number="37" name="tTest" color="7" fill="1" visible="no" active="no"/>
<layer number="38" name="bTest" color="7" fill="1" visible="no" active="no"/>
<layer number="39" name="tKeepout" color="4" fill="11" visible="no" active="no"/>
<layer number="40" name="bKeepout" color="1" fill="11" visible="no" active="no"/>
<layer number="41" name="tRestrict" color="4" fill="10" visible="no" active="no"/>
<layer number="42" name="bRestrict" color="1" fill="10" visible="no" active="no"/>
<layer number="43" name="vRestrict" color="2" fill="10" visible="no" active="no"/>
<layer number="44" name="Drills" color="7" fill="1" visible="no" active="no"/>
<layer number="45" name="Holes" color="7" fill="1" visible="no" active="no"/>
<layer number="46" name="Milling" color="3" fill="1" visible="no" active="no"/>
<layer number="47" name="Measures" color="7" fill="1" visible="no" active="no"/>
<layer number="48" name="Document" color="7" fill="1" visible="no" active="no"/>
<layer number="49" name="Reference" color="7" fill="1" visible="no" active="no"/>
<layer number="51" name="tDocu" color="7" fill="1" visible="no" active="no"/>
<layer number="52" name="bDocu" color="7" fill="1" visible="no" active="no"/>
<layer number="91" name="Nets" color="2" fill="1" visible="yes" active="yes"/>
<layer number="92" name="Busses" color="1" fill="1" visible="yes" active="yes"/>
<layer number="93" name="Pins" color="2" fill="1" visible="no" active="yes"/>
<layer number="94" name="Symbols" color="4" fill="1" visible="yes" active="yes"/>
<layer number="95" name="Names" color="7" fill="1" visible="yes" active="yes"/>
<layer number="96" name="Values" color="7" fill="1" visible="yes" active="yes"/>
<layer number="97" name="Info" color="7" fill="1" visible="yes" active="yes"/>
<layer number="98" name="Guide" color="6" fill="1" visible="yes" active="yes"/>
<layer number="99" name="SpiceOrder" color="5" fill="1" visible="yes" active="yes"/>
</layers>
<schematic xreflabel="%F%N/%S.%C%R" xrefpart="/%S.%C%R">
<libraries>
<library name="pinhead">
<description>&lt;b&gt;Pin Header Connectors&lt;/b&gt;&lt;p&gt;
&lt;author&gt;Created by librarian@cadsoft.de&lt;/author&gt;</description>
<packages>
<package name="1X06">
<description>&lt;b&gt;PIN HEADER&lt;/b&gt;</description>
<wire x1="0.635" y1="1.27" x2="1.905" y2="1.27" width="0.1524" layer="21"/>
<wire x1="1.905" y1="1.27" x2="2.54" y2="0.635" width="0.1524" layer="21"/>
<wire x1="2.54" y1="0.635" x2="2.54" y2="-0.635" width="0.1524" layer="21"/>
<wire x1="2.54" y1="-0.635" x2="1.905" y2="-1.27" width="0.1524" layer="21"/>
<wire x1="2.54" y1="0.635" x2="3.175" y2="1.27" width="0.1524" layer="21"/>
<wire x1="3.175" y1="1.27" x2="4.445" y2="1.27" width="0.1524" layer="21"/>
<wire x1="4.445" y1="1.27" x2="5.08" y2="0.635" width="0.1524" layer="21"/>
<wire x1="5.08" y1="0.635" x2="5.08" y2="-0.635" width="0.1524" layer="21"/>
<wire x1="5.08" y1="-0.635" x2="4.445" y2="-1.27" width="0.1524" layer="21"/>
<wire x1="4.445" y1="-1.27" x2="3.175" y2="-1.27" width="0.1524" layer="21"/>
<wire x1="3.175" y1="-1.27" x2="2.54" y2="-0.635" width="0.1524" layer="21"/>
<wire x1="-2.54" y1="0.635" x2="-1.905" y2="1.27" width="0.1524" layer="21"/>
<wire x1="-1.905" y1="1.27" x2="-0.635" y2="1.27" width="0.1524" layer="21"/>
<wire x1="-0.635" y1="1.27" x2="0" y2="0.635" width="0.1524" layer="21"/>
<wire x1="0" y1="0.635" x2="0" y2="-0.635" width="0.1524" layer="21"/>
<wire x1="0" y1="-0.635" x2="-0.635" y2="-1.27" width="0.1524" layer="21"/>
<wire x1="-0.635" y1="-1.27" x2="-1.905" y2="-1.27" width="0.1524" layer="21"/>
<wire x1="-1.905" y1="-1.27" x2="-2.54" y2="-0.635" width="0.1524" layer="21"/>
<wire x1="0.635" y1="1.27" x2="0" y2="0.635" width="0.1524" layer="21"/>
<wire x1="0" y1="-0.635" x2="0.635" y2="-1.27" width="0.1524" layer="21"/>
<wire x1="1.905" y1="-1.27" x2="0.635" y2="-1.27" width="0.1524" layer="21"/>
<wire x1="-6.985" y1="1.27" x2="-5.715" y2="1.27" width="0.1524" layer="21"/>
<wire x1="-5.715" y1="1.27" x2="-5.08" y2="0.635" width="0.1524" layer="21"/>
<wire x1="-5.08" y1="0.635" x2="-5.08" y2="-0.635" width="0.1524" layer="21"/>
<wire x1="-5.08" y1="-0.635" x2="-5.715" y2="-1.27" width="0.1524" layer="21"/>
<wire x1="-5.08" y1="0.635" x2="-4.445" y2="1.27" width="0.1524" layer="21"/>
<wire x1="-4.445" y1="1.27" x2="-3.175" y2="1.27" width="0.1524" layer="21"/>
<wire x1="-3.175" y1="1.27" x2="-2.54" y2="0.635" width="0.1524" layer="21"/>
<wire x1="-2.54" y1="0.635" x2="-2.54" y2="-0.635" width="0.1524" layer="21"/>
<wire x1="-2.54" y1="-0.635" x2="-3.175" y2="-1.27" width="0.1524" layer="21"/>
<wire x1="-3.175" y1="-1.27" x2="-4.445" y2="-1.27" width="0.1524" layer="21"/>
<wire x1="-4.445" y1="-1.27" x2="-5.08" y2="-0.635" width="0.1524" layer="21"/>
<wire x1="-7.62" y1="0.635" x2="-7.62" y2="-0.635" width="0.1524" layer="21"/>
<wire x1="-6.985" y1="1.27" x2="-7.62" y2="0.635" width="0.1524" layer="21"/>
<wire x1="-7.62" y1="-0.635" x2="-6.985" y2="-1.27" width="0.1524" layer="21"/>
<wire x1="-5.715" y1="-1.27" x2="-6.985" y2="-1.27" width="0.1524" layer="21"/>
<wire x1="5.715" y1="1.27" x2="6.985" y2="1.27" width="0.1524" layer="21"/>
<wire x1="6.985" y1="1.27" x2="7.62" y2="0.635" width="0.1524" layer="21"/>
<wire x1="7.62" y1="0.635" x2="7.62" y2="-0.635" width="0.1524" layer="21"/>
<wire x1="7.62" y1="-0.635" x2="6.985" y2="-1.27" width="0.1524" layer="21"/>
<wire x1="5.715" y1="1.27" x2="5.08" y2="0.635" width="0.1524" layer="21"/>
<wire x1="5.08" y1="-0.635" x2="5.715" y2="-1.27" width="0.1524" layer="21"/>
<wire x1="6.985" y1="-1.27" x2="5.715" y2="-1.27" width="0.1524" layer="21"/>
<pad name="1" x="-6.35" y="0" drill="1.016" shape="long" rot="R90"/>
<pad name="2" x="-3.81" y="0" drill="1.016" shape="long" rot="R90"/>
<pad name="3" x="-1.27" y="0" drill="1.016" shape="long" rot="R90"/>
<pad name="4" x="1.27" y="0" drill="1.016" shape="long" rot="R90"/>
<pad name="5" x="3.81" y="0" drill="1.016" shape="long" rot="R90"/>
<pad name="6" x="6.35" y="0" drill="1.016" shape="long" rot="R90"/>
<text x="-7.6962" y="1.8288" size="1.27" layer="25" ratio="10">&gt;NAME</text>
<text x="-7.62" y="-3.175" size="1.27" layer="27">&gt;VALUE</text>
<rectangle x1="3.556" y1="-0.254" x2="4.064" y2="0.254" layer="51"/>
<rectangle x1="1.016" y1="-0.254" x2="1.524" y2="0.254" layer="51"/>
<rectangle x1="-1.524" y1="-0.254" x2="-1.016" y2="0.254" layer="51"/>
<rectangle x1="-4.064" y1="-0.254" x2="-3.556" y2="0.254" layer="51"/>
<rectangle x1="-6.604" y1="-0.254" x2="-6.096" y2="0.254" layer="51"/>
<rectangle x1="6.096" y1="-0.254" x2="6.604" y2="0.254" layer="51"/>
</package>
<package name="1X06/90">
<description>&lt;b&gt;PIN HEADER&lt;/b&gt;</description>
<wire x1="-7.62" y1="-1.905" x2="-5.08" y2="-1.905" width="0.1524" layer="21"/>
<wire x1="-5.08" y1="-1.905" x2="-5.08" y2="0.635" width="0.1524" layer="21"/>
<wire x1="-5.08" y1="0.635" x2="-7.62" y2="0.635" width="0.1524" layer="21"/>
<wire x1="-7.62" y1="0.635" x2="-7.62" y2="-1.905" width="0.1524" layer="21"/>
<wire x1="-6.35" y1="6.985" x2="-6.35" y2="1.27" width="0.762" layer="21"/>
<wire x1="-5.08" y1="-1.905" x2="-2.54" y2="-1.905" width="0.1524" layer="21"/>
<wire x1="-2.54" y1="-1.905" x2="-2.54" y2="0.635" width="0.1524" layer="21"/>
<wire x1="-2.54" y1="0.635" x2="-5.08" y2="0.635" width="0.1524" layer="21"/>
<wire x1="-3.81" y1="6.985" x2="-3.81" y2="1.27" width="0.762" layer="21"/>
<wire x1="-2.54" y1="-1.905" x2="0" y2="-1.905" width="0.1524" layer="21"/>
<wire x1="0" y1="-1.905" x2="0" y2="0.635" width="0.1524" layer="21"/>
<wire x1="0" y1="0.635" x2="-2.54" y2="0.635" width="0.1524" layer="21"/>
<wire x1="-1.27" y1="6.985" x2="-1.27" y2="1.27" width="0.762" layer="21"/>
<wire x1="0" y1="-1.905" x2="2.54" y2="-1.905" width="0.1524" layer="21"/>
<wire x1="2.54" y1="-1.905" x2="2.54" y2="0.635" width="0.1524" layer="21"/>
<wire x1="2.54" y1="0.635" x2="0" y2="0.635" width="0.1524" layer="21"/>
<wire x1="1.27" y1="6.985" x2="1.27" y2="1.27" width="0.762" layer="21"/>
<wire x1="2.54" y1="-1.905" x2="5.08" y2="-1.905" width="0.1524" layer="21"/>
<wire x1="5.08" y1="-1.905" x2="5.08" y2="0.635" width="0.1524" layer="21"/>
<wire x1="5.08" y1="0.635" x2="2.54" y2="0.635" width="0.1524" layer="21"/>
<wire x1="3.81" y1="6.985" x2="3.81" y2="1.27" width="0.762" layer="21"/>
<wire x1="5.08" y1="-1.905" x2="7.62" y2="-1.905" width="0.1524" layer="21"/>
<wire x1="7.62" y1="-1.905" x2="7.62" y2="0.635" width="0.1524" layer="21"/>
<wire x1="7.62" y1="0.635" x2="5.08" y2="0.635" width="0.1524" layer="21"/>
<wire x1="6.35" y1="6.985" x2="6.35" y2="1.27" width="0.762" layer="21"/>
<pad name="1" x="-6.35" y="-3.81" drill="1.016" shape="long" rot="R90"/>
<pad name="2" x="-3.81" y="-3.81" drill="1.016" shape="long" rot="R90"/>
<pad name="3" x="-1.27" y="-3.81" drill="1.016" shape="long" rot="R90"/>
<pad name="4" x="1.27" y="-3.81" drill="1.016" shape="long" rot="R90"/>
<pad name="5" x="3.81" y="-3.81" drill="1.016" shape="long" rot="R90"/>
<pad name="6" x="6.35" y="-3.81" drill="1.016" shape="long" rot="R90"/>
<text x="-8.255" y="-3.81" size="1.27" layer="25" ratio="10" rot="R90">&gt;NAME</text>
<text x="9.525" y="-3.81" size="1.27" layer="27" rot="R90">&gt;VALUE</text>
<rectangle x1="-6.731" y1="0.635" x2="-5.969" y2="1.143" layer="21"/>
<rectangle x1="-4.191" y1="0.635" x2="-3.429" y2="1.143" layer="21"/>
<rectangle x1="-1.651" y1="0.635" x2="-0.889" y2="1.143" layer="21"/>
<rectangle x1="0.889" y1="0.635" x2="1.651" y2="1.143" layer="21"/>
<rectangle x1="3.429" y1="0.635" x2="4.191" y2="1.143" layer="21"/>
<rectangle x1="5.969" y1="0.635" x2="6.731" y2="1.143" layer="21"/>
<rectangle x1="-6.731" y1="-2.921" x2="-5.969" y2="-1.905" layer="21"/>
<rectangle x1="-4.191" y1="-2.921" x2="-3.429" y2="-1.905" layer="21"/>
<rectangle x1="-1.651" y1="-2.921" x2="-0.889" y2="-1.905" layer="21"/>
<rectangle x1="0.889" y1="-2.921" x2="1.651" y2="-1.905" layer="21"/>
<rectangle x1="3.429" y1="-2.921" x2="4.191" y2="-1.905" layer="21"/>
<rectangle x1="5.969" y1="-2.921" x2="6.731" y2="-1.905" layer="21"/>
</package>
<package name="1X07">
<description>&lt;b&gt;PIN HEADER&lt;/b&gt;</description>
<wire x1="3.81" y1="0.635" x2="4.445" y2="1.27" width="0.1524" layer="21"/>
<wire x1="4.445" y1="1.27" x2="5.715" y2="1.27" width="0.1524" layer="21"/>
<wire x1="5.715" y1="1.27" x2="6.35" y2="0.635" width="0.1524" layer="21"/>
<wire x1="6.35" y1="0.635" x2="6.35" y2="-0.635" width="0.1524" layer="21"/>
<wire x1="6.35" y1="-0.635" x2="5.715" y2="-1.27" width="0.1524" layer="21"/>
<wire x1="5.715" y1="-1.27" x2="4.445" y2="-1.27" width="0.1524" layer="21"/>
<wire x1="4.445" y1="-1.27" x2="3.81" y2="-0.635" width="0.1524" layer="21"/>
<wire x1="-0.635" y1="1.27" x2="0.635" y2="1.27" width="0.1524" layer="21"/>
<wire x1="0.635" y1="1.27" x2="1.27" y2="0.635" width="0.1524" layer="21"/>
<wire x1="1.27" y1="0.635" x2="1.27" y2="-0.635" width="0.1524" layer="21"/>
<wire x1="1.27" y1="-0.635" x2="0.635" y2="-1.27" width="0.1524" layer="21"/>
<wire x1="1.27" y1="0.635" x2="1.905" y2="1.27" width="0.1524" layer="21"/>
<wire x1="1.905" y1="1.27" x2="3.175" y2="1.27" width="0.1524" layer="21"/>
<wire x1="3.175" y1="1.27" x2="3.81" y2="0.635" width="0.1524" layer="21"/>
<wire x1="3.81" y1="0.635" x2="3.81" y2="-0.635" width="0.1524" layer="21"/>
<wire x1="3.81" y1="-0.635" x2="3.175" y2="-1.27" width="0.1524" layer="21"/>
<wire x1="3.175" y1="-1.27" x2="1.905" y2="-1.27" width="0.1524" layer="21"/>
<wire x1="1.905" y1="-1.27" x2="1.27" y2="-0.635" width="0.1524" layer="21"/>
<wire x1="-3.81" y1="0.635" x2="-3.175" y2="1.27" width="0.1524" layer="21"/>
<wire x1="-3.175" y1="1.27" x2="-1.905" y2="1.27" width="0.1524" layer="21"/>
<wire x1="-1.905" y1="1.27" x2="-1.27" y2="0.635" width="0.1524" layer="21"/>
<wire x1="-1.27" y1="0.635" x2="-1.27" y2="-0.635" width="0.1524" layer="21"/>
<wire x1="-1.27" y1="-0.635" x2="-1.905" y2="-1.27" width="0.1524" layer="21"/>
<wire x1="-1.905" y1="-1.27" x2="-3.175" y2="-1.27" width="0.1524" layer="21"/>
<wire x1="-3.175" y1="-1.27" x2="-3.81" y2="-0.635" width="0.1524" layer="21"/>
<wire x1="-0.635" y1="1.27" x2="-1.27" y2="0.635" width="0.1524" layer="21"/>
<wire x1="-1.27" y1="-0.635" x2="-0.635" y2="-1.27" width="0.1524" layer="21"/>
<wire x1="0.635" y1="-1.27" x2="-0.635" y2="-1.27" width="0.1524" layer="21"/>
<wire x1="-8.255" y1="1.27" x2="-6.985" y2="1.27" width="0.1524" layer="21"/>
<wire x1="-6.985" y1="1.27" x2="-6.35" y2="0.635" width="0.1524" layer="21"/>
<wire x1="-6.35" y1="0.635" x2="-6.35" y2="-0.635" width="0.1524" layer="21"/>
<wire x1="-6.35" y1="-0.635" x2="-6.985" y2="-1.27" width="0.1524" layer="21"/>
<wire x1="-6.35" y1="0.635" x2="-5.715" y2="1.27" width="0.1524" layer="21"/>
<wire x1="-5.715" y1="1.27" x2="-4.445" y2="1.27" width="0.1524" layer="21"/>
<wire x1="-4.445" y1="1.27" x2="-3.81" y2="0.635" width="0.1524" layer="21"/>
<wire x1="-3.81" y1="0.635" x2="-3.81" y2="-0.635" width="0.1524" layer="21"/>
<wire x1="-3.81" y1="-0.635" x2="-4.445" y2="-1.27" width="0.1524" layer="21"/>
<wire x1="-4.445" y1="-1.27" x2="-5.715" y2="-1.27" width="0.1524" layer="21"/>
<wire x1="-5.715" y1="-1.27" x2="-6.35" y2="-0.635" width="0.1524" layer="21"/>
<wire x1="-8.89" y1="0.635" x2="-8.89" y2="-0.635" width="0.1524" layer="21"/>
<wire x1="-8.255" y1="1.27" x2="-8.89" y2="0.635" width="0.1524" layer="21"/>
<wire x1="-8.89" y1="-0.635" x2="-8.255" y2="-1.27" width="0.1524" layer="21"/>
<wire x1="-6.985" y1="-1.27" x2="-8.255" y2="-1.27" width="0.1524" layer="21"/>
<wire x1="6.985" y1="1.27" x2="8.255" y2="1.27" width="0.1524" layer="21"/>
<wire x1="8.255" y1="1.27" x2="8.89" y2="0.635" width="0.1524" layer="21"/>
<wire x1="8.89" y1="0.635" x2="8.89" y2="-0.635" width="0.1524" layer="21"/>
<wire x1="8.89" y1="-0.635" x2="8.255" y2="-1.27" width="0.1524" layer="21"/>
<wire x1="6.985" y1="1.27" x2="6.35" y2="0.635" width="0.1524" layer="21"/>
<wire x1="6.35" y1="-0.635" x2="6.985" y2="-1.27" width="0.1524" layer="21"/>
<wire x1="8.255" y1="-1.27" x2="6.985" y2="-1.27" width="0.1524" layer="21"/>
<pad name="1" x="-7.62" y="0" drill="1.016" shape="long" rot="R90"/>
<pad name="2" x="-5.08" y="0" drill="1.016" shape="long" rot="R90"/>
<pad name="3" x="-2.54" y="0" drill="1.016" shape="long" rot="R90"/>
<pad name="4" x="0" y="0" drill="1.016" shape="long" rot="R90"/>
<pad name="5" x="2.54" y="0" drill="1.016" shape="long" rot="R90"/>
<pad name="6" x="5.08" y="0" drill="1.016" shape="long" rot="R90"/>
<pad name="7" x="7.62" y="0" drill="1.016" shape="long" rot="R90"/>
<text x="-8.9662" y="1.8288" size="1.27" layer="25" ratio="10">&gt;NAME</text>
<text x="-8.89" y="-3.175" size="1.27" layer="27">&gt;VALUE</text>
<rectangle x1="4.826" y1="-0.254" x2="5.334" y2="0.254" layer="51"/>
<rectangle x1="2.286" y1="-0.254" x2="2.794" y2="0.254" layer="51"/>
<rectangle x1="-0.254" y1="-0.254" x2="0.254" y2="0.254" layer="51"/>
<rectangle x1="-2.794" y1="-0.254" x2="-2.286" y2="0.254" layer="51"/>
<rectangle x1="-5.334" y1="-0.254" x2="-4.826" y2="0.254" layer="51"/>
<rectangle x1="-7.874" y1="-0.254" x2="-7.366" y2="0.254" layer="51"/>
<rectangle x1="7.366" y1="-0.254" x2="7.874" y2="0.254" layer="51"/>
</package>
<package name="1X07/90">
<description>&lt;b&gt;PIN HEADER&lt;/b&gt;</description>
<wire x1="-8.89" y1="-1.905" x2="-6.35" y2="-1.905" width="0.1524" layer="21"/>
<wire x1="-6.35" y1="-1.905" x2="-6.35" y2="0.635" width="0.1524" layer="21"/>
<wire x1="-6.35" y1="0.635" x2="-8.89" y2="0.635" width="0.1524" layer="21"/>
<wire x1="-8.89" y1="0.635" x2="-8.89" y2="-1.905" width="0.1524" layer="21"/>
<wire x1="-7.62" y1="6.985" x2="-7.62" y2="1.27" width="0.762" layer="21"/>
<wire x1="-6.35" y1="-1.905" x2="-3.81" y2="-1.905" width="0.1524" layer="21"/>
<wire x1="-3.81" y1="-1.905" x2="-3.81" y2="0.635" width="0.1524" layer="21"/>
<wire x1="-3.81" y1="0.635" x2="-6.35" y2="0.635" width="0.1524" layer="21"/>
<wire x1="-5.08" y1="6.985" x2="-5.08" y2="1.27" width="0.762" layer="21"/>
<wire x1="-3.81" y1="-1.905" x2="-1.27" y2="-1.905" width="0.1524" layer="21"/>
<wire x1="-1.27" y1="-1.905" x2="-1.27" y2="0.635" width="0.1524" layer="21"/>
<wire x1="-1.27" y1="0.635" x2="-3.81" y2="0.635" width="0.1524" layer="21"/>
<wire x1="-2.54" y1="6.985" x2="-2.54" y2="1.27" width="0.762" layer="21"/>
<wire x1="-1.27" y1="-1.905" x2="1.27" y2="-1.905" width="0.1524" layer="21"/>
<wire x1="1.27" y1="-1.905" x2="1.27" y2="0.635" width="0.1524" layer="21"/>
<wire x1="1.27" y1="0.635" x2="-1.27" y2="0.635" width="0.1524" layer="21"/>
<wire x1="0" y1="6.985" x2="0" y2="1.27" width="0.762" layer="21"/>
<wire x1="1.27" y1="-1.905" x2="3.81" y2="-1.905" width="0.1524" layer="21"/>
<wire x1="3.81" y1="-1.905" x2="3.81" y2="0.635" width="0.1524" layer="21"/>
<wire x1="3.81" y1="0.635" x2="1.27" y2="0.635" width="0.1524" layer="21"/>
<wire x1="2.54" y1="6.985" x2="2.54" y2="1.27" width="0.762" layer="21"/>
<wire x1="3.81" y1="-1.905" x2="6.35" y2="-1.905" width="0.1524" layer="21"/>
<wire x1="6.35" y1="-1.905" x2="6.35" y2="0.635" width="0.1524" layer="21"/>
<wire x1="6.35" y1="0.635" x2="3.81" y2="0.635" width="0.1524" layer="21"/>
<wire x1="5.08" y1="6.985" x2="5.08" y2="1.27" width="0.762" layer="21"/>
<wire x1="6.35" y1="-1.905" x2="8.89" y2="-1.905" width="0.1524" layer="21"/>
<wire x1="8.89" y1="-1.905" x2="8.89" y2="0.635" width="0.1524" layer="21"/>
<wire x1="8.89" y1="0.635" x2="6.35" y2="0.635" width="0.1524" layer="21"/>
<wire x1="7.62" y1="6.985" x2="7.62" y2="1.27" width="0.762" layer="21"/>
<pad name="1" x="-7.62" y="-3.81" drill="1.016" shape="long" rot="R90"/>
<pad name="2" x="-5.08" y="-3.81" drill="1.016" shape="long" rot="R90"/>
<pad name="3" x="-2.54" y="-3.81" drill="1.016" shape="long" rot="R90"/>
<pad name="4" x="0" y="-3.81" drill="1.016" shape="long" rot="R90"/>
<pad name="5" x="2.54" y="-3.81" drill="1.016" shape="long" rot="R90"/>
<pad name="6" x="5.08" y="-3.81" drill="1.016" shape="long" rot="R90"/>
<pad name="7" x="7.62" y="-3.81" drill="1.016" shape="long" rot="R90"/>
<text x="-9.525" y="-3.81" size="1.27" layer="25" ratio="10" rot="R90">&gt;NAME</text>
<text x="10.795" y="-3.81" size="1.27" layer="27" rot="R90">&gt;VALUE</text>
<rectangle x1="-8.001" y1="0.635" x2="-7.239" y2="1.143" layer="21"/>
<rectangle x1="-5.461" y1="0.635" x2="-4.699" y2="1.143" layer="21"/>
<rectangle x1="-2.921" y1="0.635" x2="-2.159" y2="1.143" layer="21"/>
<rectangle x1="-0.381" y1="0.635" x2="0.381" y2="1.143" layer="21"/>
<rectangle x1="2.159" y1="0.635" x2="2.921" y2="1.143" layer="21"/>
<rectangle x1="4.699" y1="0.635" x2="5.461" y2="1.143" layer="21"/>
<rectangle x1="7.239" y1="0.635" x2="8.001" y2="1.143" layer="21"/>
<rectangle x1="-8.001" y1="-2.921" x2="-7.239" y2="-1.905" layer="21"/>
<rectangle x1="-5.461" y1="-2.921" x2="-4.699" y2="-1.905" layer="21"/>
<rectangle x1="-2.921" y1="-2.921" x2="-2.159" y2="-1.905" layer="21"/>
<rectangle x1="-0.381" y1="-2.921" x2="0.381" y2="-1.905" layer="21"/>
<rectangle x1="2.159" y1="-2.921" x2="2.921" y2="-1.905" layer="21"/>
<rectangle x1="4.699" y1="-2.921" x2="5.461" y2="-1.905" layer="21"/>
<rectangle x1="7.239" y1="-2.921" x2="8.001" y2="-1.905" layer="21"/>
</package>
<package name="1X02">
<description>&lt;b&gt;PIN HEADER&lt;/b&gt;</description>
<wire x1="-1.905" y1="1.27" x2="-0.635" y2="1.27" width="0.1524" layer="21"/>
<wire x1="-0.635" y1="1.27" x2="0" y2="0.635" width="0.1524" layer="21"/>
<wire x1="0" y1="0.635" x2="0" y2="-0.635" width="0.1524" layer="21"/>
<wire x1="0" y1="-0.635" x2="-0.635" y2="-1.27" width="0.1524" layer="21"/>
<wire x1="-2.54" y1="0.635" x2="-2.54" y2="-0.635" width="0.1524" layer="21"/>
<wire x1="-1.905" y1="1.27" x2="-2.54" y2="0.635" width="0.1524" layer="21"/>
<wire x1="-2.54" y1="-0.635" x2="-1.905" y2="-1.27" width="0.1524" layer="21"/>
<wire x1="-0.635" y1="-1.27" x2="-1.905" y2="-1.27" width="0.1524" layer="21"/>
<wire x1="0" y1="0.635" x2="0.635" y2="1.27" width="0.1524" layer="21"/>
<wire x1="0.635" y1="1.27" x2="1.905" y2="1.27" width="0.1524" layer="21"/>
<wire x1="1.905" y1="1.27" x2="2.54" y2="0.635" width="0.1524" layer="21"/>
<wire x1="2.54" y1="0.635" x2="2.54" y2="-0.635" width="0.1524" layer="21"/>
<wire x1="2.54" y1="-0.635" x2="1.905" y2="-1.27" width="0.1524" layer="21"/>
<wire x1="1.905" y1="-1.27" x2="0.635" y2="-1.27" width="0.1524" layer="21"/>
<wire x1="0.635" y1="-1.27" x2="0" y2="-0.635" width="0.1524" layer="21"/>
<pad name="1" x="-1.27" y="0" drill="1.016" shape="long" rot="R90"/>
<pad name="2" x="1.27" y="0" drill="1.016" shape="long" rot="R90"/>
<text x="-2.6162" y="1.8288" size="1.27" layer="25" ratio="10">&gt;NAME</text>
<text x="-2.54" y="-3.175" size="1.27" layer="27">&gt;VALUE</text>
<rectangle x1="-1.524" y1="-0.254" x2="-1.016" y2="0.254" layer="51"/>
<rectangle x1="1.016" y1="-0.254" x2="1.524" y2="0.254" layer="51"/>
</package>
<package name="1X02/90">
<description>&lt;b&gt;PIN HEADER&lt;/b&gt;</description>
<wire x1="-2.54" y1="-1.905" x2="0" y2="-1.905" width="0.1524" layer="21"/>
<wire x1="0" y1="-1.905" x2="0" y2="0.635" width="0.1524" layer="21"/>
<wire x1="0" y1="0.635" x2="-2.54" y2="0.635" width="0.1524" layer="21"/>
<wire x1="-2.54" y1="0.635" x2="-2.54" y2="-1.905" width="0.1524" layer="21"/>
<wire x1="-1.27" y1="6.985" x2="-1.27" y2="1.27" width="0.762" layer="21"/>
<wire x1="0" y1="-1.905" x2="2.54" y2="-1.905" width="0.1524" layer="21"/>
<wire x1="2.54" y1="-1.905" x2="2.54" y2="0.635" width="0.1524" layer="21"/>
<wire x1="2.54" y1="0.635" x2="0" y2="0.635" width="0.1524" layer="21"/>
<wire x1="1.27" y1="6.985" x2="1.27" y2="1.27" width="0.762" layer="21"/>
<pad name="1" x="-1.27" y="-3.81" drill="1.016" shape="long" rot="R90"/>
<pad name="2" x="1.27" y="-3.81" drill="1.016" shape="long" rot="R90"/>
<text x="-3.175" y="-3.81" size="1.27" layer="25" ratio="10" rot="R90">&gt;NAME</text>
<text x="4.445" y="-3.81" size="1.27" layer="27" rot="R90">&gt;VALUE</text>
<rectangle x1="-1.651" y1="0.635" x2="-0.889" y2="1.143" layer="21"/>
<rectangle x1="0.889" y1="0.635" x2="1.651" y2="1.143" layer="21"/>
<rectangle x1="-1.651" y1="-2.921" x2="-0.889" y2="-1.905" layer="21"/>
<rectangle x1="0.889" y1="-2.921" x2="1.651" y2="-1.905" layer="21"/>
</package>
<package name="1X05">
<description>&lt;b&gt;PIN HEADER&lt;/b&gt;</description>
<wire x1="1.905" y1="1.27" x2="3.175" y2="1.27" width="0.1524" layer="21"/>
<wire x1="3.175" y1="1.27" x2="3.81" y2="0.635" width="0.1524" layer="21"/>
<wire x1="3.81" y1="0.635" x2="3.81" y2="-0.635" width="0.1524" layer="21"/>
<wire x1="3.81" y1="-0.635" x2="3.175" y2="-1.27" width="0.1524" layer="21"/>
<wire x1="-1.27" y1="0.635" x2="-0.635" y2="1.27" width="0.1524" layer="21"/>
<wire x1="-0.635" y1="1.27" x2="0.635" y2="1.27" width="0.1524" layer="21"/>
<wire x1="0.635" y1="1.27" x2="1.27" y2="0.635" width="0.1524" layer="21"/>
<wire x1="1.27" y1="0.635" x2="1.27" y2="-0.635" width="0.1524" layer="21"/>
<wire x1="1.27" y1="-0.635" x2="0.635" y2="-1.27" width="0.1524" layer="21"/>
<wire x1="0.635" y1="-1.27" x2="-0.635" y2="-1.27" width="0.1524" layer="21"/>
<wire x1="-0.635" y1="-1.27" x2="-1.27" y2="-0.635" width="0.1524" layer="21"/>
<wire x1="1.905" y1="1.27" x2="1.27" y2="0.635" width="0.1524" layer="21"/>
<wire x1="1.27" y1="-0.635" x2="1.905" y2="-1.27" width="0.1524" layer="21"/>
<wire x1="3.175" y1="-1.27" x2="1.905" y2="-1.27" width="0.1524" layer="21"/>
<wire x1="-5.715" y1="1.27" x2="-4.445" y2="1.27" width="0.1524" layer="21"/>
<wire x1="-4.445" y1="1.27" x2="-3.81" y2="0.635" width="0.1524" layer="21"/>
<wire x1="-3.81" y1="0.635" x2="-3.81" y2="-0.635" width="0.1524" layer="21"/>
<wire x1="-3.81" y1="-0.635" x2="-4.445" y2="-1.27" width="0.1524" layer="21"/>
<wire x1="-3.81" y1="0.635" x2="-3.175" y2="1.27" width="0.1524" layer="21"/>
<wire x1="-3.175" y1="1.27" x2="-1.905" y2="1.27" width="0.1524" layer="21"/>
<wire x1="-1.905" y1="1.27" x2="-1.27" y2="0.635" width="0.1524" layer="21"/>
<wire x1="-1.27" y1="0.635" x2="-1.27" y2="-0.635" width="0.1524" layer="21"/>
<wire x1="-1.27" y1="-0.635" x2="-1.905" y2="-1.27" width="0.1524" layer="21"/>
<wire x1="-1.905" y1="-1.27" x2="-3.175" y2="-1.27" width="0.1524" layer="21"/>
<wire x1="-3.175" y1="-1.27" x2="-3.81" y2="-0.635" width="0.1524" layer="21"/>
<wire x1="-6.35" y1="0.635" x2="-6.35" y2="-0.635" width="0.1524" layer="21"/>
<wire x1="-5.715" y1="1.27" x2="-6.35" y2="0.635" width="0.1524" layer="21"/>
<wire x1="-6.35" y1="-0.635" x2="-5.715" y2="-1.27" width="0.1524" layer="21"/>
<wire x1="-4.445" y1="-1.27" x2="-5.715" y2="-1.27" width="0.1524" layer="21"/>
<wire x1="4.445" y1="1.27" x2="5.715" y2="1.27" width="0.1524" layer="21"/>
<wire x1="5.715" y1="1.27" x2="6.35" y2="0.635" width="0.1524" layer="21"/>
<wire x1="6.35" y1="0.635" x2="6.35" y2="-0.635" width="0.1524" layer="21"/>
<wire x1="6.35" y1="-0.635" x2="5.715" y2="-1.27" width="0.1524" layer="21"/>
<wire x1="4.445" y1="1.27" x2="3.81" y2="0.635" width="0.1524" layer="21"/>
<wire x1="3.81" y1="-0.635" x2="4.445" y2="-1.27" width="0.1524" layer="21"/>
<wire x1="5.715" y1="-1.27" x2="4.445" y2="-1.27" width="0.1524" layer="21"/>
<pad name="1" x="-5.08" y="0" drill="1.016" shape="long" rot="R90"/>
<pad name="2" x="-2.54" y="0" drill="1.016" shape="long" rot="R90"/>
<pad name="3" x="0" y="0" drill="1.016" shape="long" rot="R90"/>
<pad name="4" x="2.54" y="0" drill="1.016" shape="long" rot="R90"/>
<pad name="5" x="5.08" y="0" drill="1.016" shape="long" rot="R90"/>
<text x="-6.4262" y="1.8288" size="1.27" layer="25" ratio="10">&gt;NAME</text>
<text x="-6.35" y="-3.175" size="1.27" layer="27">&gt;VALUE</text>
<rectangle x1="2.286" y1="-0.254" x2="2.794" y2="0.254" layer="51"/>
<rectangle x1="-0.254" y1="-0.254" x2="0.254" y2="0.254" layer="51"/>
<rectangle x1="-2.794" y1="-0.254" x2="-2.286" y2="0.254" layer="51"/>
<rectangle x1="-5.334" y1="-0.254" x2="-4.826" y2="0.254" layer="51"/>
<rectangle x1="4.826" y1="-0.254" x2="5.334" y2="0.254" layer="51"/>
</package>
<package name="1X05/90">
<description>&lt;b&gt;PIN HEADER&lt;/b&gt;</description>
<wire x1="-6.35" y1="-1.905" x2="-3.81" y2="-1.905" width="0.1524" layer="21"/>
<wire x1="-3.81" y1="-1.905" x2="-3.81" y2="0.635" width="0.1524" layer="21"/>
<wire x1="-3.81" y1="0.635" x2="-6.35" y2="0.635" width="0.1524" layer="21"/>
<wire x1="-6.35" y1="0.635" x2="-6.35" y2="-1.905" width="0.1524" layer="21"/>
<wire x1="-5.08" y1="6.985" x2="-5.08" y2="1.27" width="0.762" layer="21"/>
<wire x1="-3.81" y1="-1.905" x2="-1.27" y2="-1.905" width="0.1524" layer="21"/>
<wire x1="-1.27" y1="-1.905" x2="-1.27" y2="0.635" width="0.1524" layer="21"/>
<wire x1="-1.27" y1="0.635" x2="-3.81" y2="0.635" width="0.1524" layer="21"/>
<wire x1="-2.54" y1="6.985" x2="-2.54" y2="1.27" width="0.762" layer="21"/>
<wire x1="-1.27" y1="-1.905" x2="1.27" y2="-1.905" width="0.1524" layer="21"/>
<wire x1="1.27" y1="-1.905" x2="1.27" y2="0.635" width="0.1524" layer="21"/>
<wire x1="1.27" y1="0.635" x2="-1.27" y2="0.635" width="0.1524" layer="21"/>
<wire x1="0" y1="6.985" x2="0" y2="1.27" width="0.762" layer="21"/>
<wire x1="1.27" y1="-1.905" x2="3.81" y2="-1.905" width="0.1524" layer="21"/>
<wire x1="3.81" y1="-1.905" x2="3.81" y2="0.635" width="0.1524" layer="21"/>
<wire x1="3.81" y1="0.635" x2="1.27" y2="0.635" width="0.1524" layer="21"/>
<wire x1="2.54" y1="6.985" x2="2.54" y2="1.27" width="0.762" layer="21"/>
<wire x1="3.81" y1="-1.905" x2="6.35" y2="-1.905" width="0.1524" layer="21"/>
<wire x1="6.35" y1="-1.905" x2="6.35" y2="0.635" width="0.1524" layer="21"/>
<wire x1="6.35" y1="0.635" x2="3.81" y2="0.635" width="0.1524" layer="21"/>
<wire x1="5.08" y1="6.985" x2="5.08" y2="1.27" width="0.762" layer="21"/>
<pad name="1" x="-5.08" y="-3.81" drill="1.016" shape="long" rot="R90"/>
<pad name="2" x="-2.54" y="-3.81" drill="1.016" shape="long" rot="R90"/>
<pad name="3" x="0" y="-3.81" drill="1.016" shape="long" rot="R90"/>
<pad name="4" x="2.54" y="-3.81" drill="1.016" shape="long" rot="R90"/>
<pad name="5" x="5.08" y="-3.81" drill="1.016" shape="long" rot="R90"/>
<text x="-6.985" y="-3.81" size="1.27" layer="25" ratio="10" rot="R90">&gt;NAME</text>
<text x="8.255" y="-3.81" size="1.27" layer="27" rot="R90">&gt;VALUE</text>
<rectangle x1="-5.461" y1="0.635" x2="-4.699" y2="1.143" layer="21"/>
<rectangle x1="-2.921" y1="0.635" x2="-2.159" y2="1.143" layer="21"/>
<rectangle x1="-0.381" y1="0.635" x2="0.381" y2="1.143" layer="21"/>
<rectangle x1="2.159" y1="0.635" x2="2.921" y2="1.143" layer="21"/>
<rectangle x1="4.699" y1="0.635" x2="5.461" y2="1.143" layer="21"/>
<rectangle x1="-5.461" y1="-2.921" x2="-4.699" y2="-1.905" layer="21"/>
<rectangle x1="-2.921" y1="-2.921" x2="-2.159" y2="-1.905" layer="21"/>
<rectangle x1="-0.381" y1="-2.921" x2="0.381" y2="-1.905" layer="21"/>
<rectangle x1="2.159" y1="-2.921" x2="2.921" y2="-1.905" layer="21"/>
<rectangle x1="4.699" y1="-2.921" x2="5.461" y2="-1.905" layer="21"/>
</package>
<package name="1_05X2MM">
<description>CON-M-1X5-200</description>
<text x="-4.5" y="1.5" size="1.27" layer="25" ratio="10">&gt;NAME</text>
<text x="-4.75" y="-2.75" size="1.27" layer="27">&gt;VALUE</text>
<wire x1="-5" y1="0.5" x2="-4.5" y2="1" width="0.1524" layer="21"/>
<wire x1="-4.5" y1="1" x2="-3.5" y2="1" width="0.1524" layer="21"/>
<wire x1="-3.5" y1="1" x2="-3" y2="0.5" width="0.1524" layer="21"/>
<wire x1="-3" y1="-0.5" x2="-3.5" y2="-1" width="0.1524" layer="21"/>
<wire x1="-3.5" y1="-1" x2="-4.5" y2="-1" width="0.1524" layer="21"/>
<wire x1="-4.5" y1="-1" x2="-5" y2="-0.5" width="0.1524" layer="21"/>
<wire x1="-5" y1="0.5" x2="-5" y2="-0.5" width="0.1524" layer="21"/>
<pad name="1" x="-4" y="0" drill="1.016" diameter="1.3" shape="square" rot="R90"/>
<rectangle x1="-4.254" y1="-0.254" x2="-3.746" y2="0.254" layer="51"/>
<wire x1="-3" y1="0.5" x2="-2.5" y2="1" width="0.1524" layer="21"/>
<wire x1="-2.5" y1="1" x2="-1.5" y2="1" width="0.1524" layer="21"/>
<wire x1="-1.5" y1="1" x2="-1" y2="0.5" width="0.1524" layer="21"/>
<wire x1="-1" y1="-0.5" x2="-1.5" y2="-1" width="0.1524" layer="21"/>
<wire x1="-1.5" y1="-1" x2="-2.5" y2="-1" width="0.1524" layer="21"/>
<wire x1="-2.5" y1="-1" x2="-3" y2="-0.5" width="0.1524" layer="21"/>
<wire x1="-3" y1="0.5" x2="-3" y2="-0.5" width="0.1524" layer="21"/>
<pad name="3" x="-2" y="0" drill="1.016" diameter="1.3" rot="R90"/>
<rectangle x1="-2.254" y1="-0.254" x2="-1.746" y2="0.254" layer="51"/>
<wire x1="-1" y1="0.5" x2="-0.5" y2="1" width="0.1524" layer="21"/>
<wire x1="-0.5" y1="1" x2="0.5" y2="1" width="0.1524" layer="21"/>
<wire x1="0.5" y1="1" x2="1" y2="0.5" width="0.1524" layer="21"/>
<wire x1="1" y1="-0.5" x2="0.5" y2="-1" width="0.1524" layer="21"/>
<wire x1="0.5" y1="-1" x2="-0.5" y2="-1" width="0.1524" layer="21"/>
<wire x1="-0.5" y1="-1" x2="-1" y2="-0.5" width="0.1524" layer="21"/>
<wire x1="-1" y1="0.5" x2="-1" y2="-0.5" width="0.1524" layer="21"/>
<pad name="2" x="0" y="0" drill="1.016" diameter="1.3" rot="R90"/>
<rectangle x1="-0.254" y1="-0.254" x2="0.254" y2="0.254" layer="51"/>
<wire x1="1" y1="0.5" x2="1.5" y2="1" width="0.1524" layer="21"/>
<wire x1="1.5" y1="1" x2="2.5" y2="1" width="0.1524" layer="21"/>
<wire x1="2.5" y1="1" x2="3" y2="0.5" width="0.1524" layer="21"/>
<wire x1="3" y1="-0.5" x2="2.5" y2="-1" width="0.1524" layer="21"/>
<wire x1="2.5" y1="-1" x2="1.5" y2="-1" width="0.1524" layer="21"/>
<wire x1="1.5" y1="-1" x2="1" y2="-0.5" width="0.1524" layer="21"/>
<wire x1="1" y1="0.5" x2="1" y2="-0.5" width="0.1524" layer="21"/>
<pad name="4" x="2" y="0" drill="1.016" diameter="1.3" rot="R90"/>
<rectangle x1="1.746" y1="-0.254" x2="2.254" y2="0.254" layer="51"/>
<wire x1="3" y1="0.5" x2="3.5" y2="1" width="0.1524" layer="21"/>
<wire x1="3.5" y1="1" x2="4.5" y2="1" width="0.1524" layer="21"/>
<wire x1="4.5" y1="1" x2="5" y2="0.5" width="0.1524" layer="21"/>
<wire x1="5" y1="0.5" x2="5" y2="-0.5" width="0.1524" layer="21"/>
<wire x1="5" y1="-0.5" x2="4.5" y2="-1" width="0.1524" layer="21"/>
<wire x1="4.5" y1="-1" x2="3.5" y2="-1" width="0.1524" layer="21"/>
<wire x1="3.5" y1="-1" x2="3" y2="-0.5" width="0.1524" layer="21"/>
<wire x1="3" y1="0.5" x2="3" y2="-0.5" width="0.1524" layer="21"/>
<pad name="5" x="4" y="0" drill="1.016" diameter="1.3" rot="R90"/>
<rectangle x1="3.746" y1="-0.254" x2="4.254" y2="0.254" layer="51"/>
</package>
</packages>
<symbols>
<symbol name="PINHD6">
<wire x1="-6.35" y1="-7.62" x2="1.27" y2="-7.62" width="0.4064" layer="94"/>
<wire x1="1.27" y1="-7.62" x2="1.27" y2="10.16" width="0.4064" layer="94"/>
<wire x1="1.27" y1="10.16" x2="-6.35" y2="10.16" width="0.4064" layer="94"/>
<wire x1="-6.35" y1="10.16" x2="-6.35" y2="-7.62" width="0.4064" layer="94"/>
<text x="-6.35" y="10.795" size="1.778" layer="95">&gt;NAME</text>
<text x="-6.35" y="-10.16" size="1.778" layer="96">&gt;VALUE</text>
<pin name="1" x="-2.54" y="7.62" visible="pad" length="short" direction="pas" function="dot"/>
<pin name="2" x="-2.54" y="5.08" visible="pad" length="short" direction="pas" function="dot"/>
<pin name="3" x="-2.54" y="2.54" visible="pad" length="short" direction="pas" function="dot"/>
<pin name="4" x="-2.54" y="0" visible="pad" length="short" direction="pas" function="dot"/>
<pin name="5" x="-2.54" y="-2.54" visible="pad" length="short" direction="pas" function="dot"/>
<pin name="6" x="-2.54" y="-5.08" visible="pad" length="short" direction="pas" function="dot"/>
</symbol>
<symbol name="PINHD7">
<wire x1="-6.35" y1="-10.16" x2="1.27" y2="-10.16" width="0.4064" layer="94"/>
<wire x1="1.27" y1="-10.16" x2="1.27" y2="10.16" width="0.4064" layer="94"/>
<wire x1="1.27" y1="10.16" x2="-6.35" y2="10.16" width="0.4064" layer="94"/>
<wire x1="-6.35" y1="10.16" x2="-6.35" y2="-10.16" width="0.4064" layer="94"/>
<text x="-6.35" y="10.795" size="1.778" layer="95">&gt;NAME</text>
<text x="-6.35" y="-12.7" size="1.778" layer="96">&gt;VALUE</text>
<pin name="1" x="-2.54" y="7.62" visible="pad" length="short" direction="pas" function="dot"/>
<pin name="2" x="-2.54" y="5.08" visible="pad" length="short" direction="pas" function="dot"/>
<pin name="3" x="-2.54" y="2.54" visible="pad" length="short" direction="pas" function="dot"/>
<pin name="4" x="-2.54" y="0" visible="pad" length="short" direction="pas" function="dot"/>
<pin name="5" x="-2.54" y="-2.54" visible="pad" length="short" direction="pas" function="dot"/>
<pin name="6" x="-2.54" y="-5.08" visible="pad" length="short" direction="pas" function="dot"/>
<pin name="7" x="-2.54" y="-7.62" visible="pad" length="short" direction="pas" function="dot"/>
</symbol>
<symbol name="PINHD2">
<wire x1="-6.35" y1="-2.54" x2="1.27" y2="-2.54" width="0.4064" layer="94"/>
<wire x1="1.27" y1="-2.54" x2="1.27" y2="5.08" width="0.4064" layer="94"/>
<wire x1="1.27" y1="5.08" x2="-6.35" y2="5.08" width="0.4064" layer="94"/>
<wire x1="-6.35" y1="5.08" x2="-6.35" y2="-2.54" width="0.4064" layer="94"/>
<text x="-6.35" y="5.715" size="1.778" layer="95">&gt;NAME</text>
<text x="-6.35" y="-5.08" size="1.778" layer="96">&gt;VALUE</text>
<pin name="1" x="-2.54" y="2.54" visible="pad" length="short" direction="pas" function="dot"/>
<pin name="2" x="-2.54" y="0" visible="pad" length="short" direction="pas" function="dot"/>
</symbol>
<symbol name="PINHD5">
<wire x1="-6.35" y1="-7.62" x2="1.27" y2="-7.62" width="0.4064" layer="94"/>
<wire x1="1.27" y1="-7.62" x2="1.27" y2="7.62" width="0.4064" layer="94"/>
<wire x1="1.27" y1="7.62" x2="-6.35" y2="7.62" width="0.4064" layer="94"/>
<wire x1="-6.35" y1="7.62" x2="-6.35" y2="-7.62" width="0.4064" layer="94"/>
<text x="-6.35" y="8.255" size="1.778" layer="95">&gt;NAME</text>
<text x="-6.35" y="-10.16" size="1.778" layer="96">&gt;VALUE</text>
<pin name="1" x="-2.54" y="5.08" visible="pad" length="short" direction="pas" function="dot"/>
<pin name="2" x="-2.54" y="2.54" visible="pad" length="short" direction="pas" function="dot"/>
<pin name="3" x="-2.54" y="0" visible="pad" length="short" direction="pas" function="dot"/>
<pin name="4" x="-2.54" y="-2.54" visible="pad" length="short" direction="pas" function="dot"/>
<pin name="5" x="-2.54" y="-5.08" visible="pad" length="short" direction="pas" function="dot"/>
</symbol>
</symbols>
<devicesets>
<deviceset name="PINHD-1X6" prefix="JP" uservalue="yes">
<description>&lt;b&gt;PIN HEADER&lt;/b&gt;</description>
<gates>
<gate name="A" symbol="PINHD6" x="0" y="-2.54"/>
</gates>
<devices>
<device name="" package="1X06">
<connects>
<connect gate="A" pin="1" pad="1"/>
<connect gate="A" pin="2" pad="2"/>
<connect gate="A" pin="3" pad="3"/>
<connect gate="A" pin="4" pad="4"/>
<connect gate="A" pin="5" pad="5"/>
<connect gate="A" pin="6" pad="6"/>
</connects>
<technologies>
<technology name=""/>
</technologies>
</device>
<device name="/90" package="1X06/90">
<connects>
<connect gate="A" pin="1" pad="1"/>
<connect gate="A" pin="2" pad="2"/>
<connect gate="A" pin="3" pad="3"/>
<connect gate="A" pin="4" pad="4"/>
<connect gate="A" pin="5" pad="5"/>
<connect gate="A" pin="6" pad="6"/>
</connects>
<technologies>
<technology name=""/>
</technologies>
</device>
</devices>
</deviceset>
<deviceset name="PINHD-1X7" prefix="JP" uservalue="yes">
<description>&lt;b&gt;PIN HEADER&lt;/b&gt;</description>
<gates>
<gate name="A" symbol="PINHD7" x="0" y="0"/>
</gates>
<devices>
<device name="" package="1X07">
<connects>
<connect gate="A" pin="1" pad="1"/>
<connect gate="A" pin="2" pad="2"/>
<connect gate="A" pin="3" pad="3"/>
<connect gate="A" pin="4" pad="4"/>
<connect gate="A" pin="5" pad="5"/>
<connect gate="A" pin="6" pad="6"/>
<connect gate="A" pin="7" pad="7"/>
</connects>
<technologies>
<technology name=""/>
</technologies>
</device>
<device name="/90" package="1X07/90">
<connects>
<connect gate="A" pin="1" pad="1"/>
<connect gate="A" pin="2" pad="2"/>
<connect gate="A" pin="3" pad="3"/>
<connect gate="A" pin="4" pad="4"/>
<connect gate="A" pin="5" pad="5"/>
<connect gate="A" pin="6" pad="6"/>
<connect gate="A" pin="7" pad="7"/>
</connects>
<technologies>
<technology name=""/>
</technologies>
</device>
</devices>
</deviceset>
<deviceset name="PINHD-1X2" prefix="JP" uservalue="yes">
<description>&lt;b&gt;PIN HEADER&lt;/b&gt;</description>
<gates>
<gate name="G$1" symbol="PINHD2" x="0" y="0"/>
</gates>
<devices>
<device name="" package="1X02">
<connects>
<connect gate="G$1" pin="1" pad="1"/>
<connect gate="G$1" pin="2" pad="2"/>
</connects>
<technologies>
<technology name=""/>
</technologies>
</device>
<device name="/90" package="1X02/90">
<connects>
<connect gate="G$1" pin="1" pad="1"/>
<connect gate="G$1" pin="2" pad="2"/>
</connects>
<technologies>
<technology name=""/>
</technologies>
</device>
</devices>
</deviceset>
<deviceset name="PINHD-1X5" prefix="JP" uservalue="yes">
<description>&lt;b&gt;PIN HEADER&lt;/b&gt;</description>
<gates>
<gate name="A" symbol="PINHD5" x="0" y="0"/>
</gates>
<devices>
<device name="" package="1X05">
<connects>
<connect gate="A" pin="1" pad="1"/>
<connect gate="A" pin="2" pad="2"/>
<connect gate="A" pin="3" pad="3"/>
<connect gate="A" pin="4" pad="4"/>
<connect gate="A" pin="5" pad="5"/>
</connects>
<technologies>
<technology name=""/>
</technologies>
</device>
<device name="/90" package="1X05/90">
<connects>
<connect gate="A" pin="1" pad="1"/>
<connect gate="A" pin="2" pad="2"/>
<connect gate="A" pin="3" pad="3"/>
<connect gate="A" pin="4" pad="4"/>
<connect gate="A" pin="5" pad="5"/>
</connects>
<technologies>
<technology name=""/>
</technologies>
</device>
<device name="5X2MM" package="1_05X2MM">
<connects>
<connect gate="A" pin="1" pad="1"/>
<connect gate="A" pin="2" pad="2"/>
<connect gate="A" pin="3" pad="3"/>
<connect gate="A" pin="4" pad="4"/>
<connect gate="A" pin="5" pad="5"/>
</connects>
<technologies>
<technology name=""/>
</technologies>
</device>
</devices>
</deviceset>
</devicesets>
</library>
<library name="supply1">
<description>&lt;b&gt;Supply Symbols&lt;/b&gt;&lt;p&gt;
 GND, VCC, 0V, +5V, -5V, etc.&lt;p&gt;
 Please keep in mind, that these devices are necessary for the
 automatic wiring of the supply signals.&lt;p&gt;
 The pin name defined in the symbol is identical to the net which is to be wired automatically.&lt;p&gt;
 In this library the device names are the same as the pin names of the symbols, therefore the correct signal names appear next to the supply symbols in the schematic.&lt;p&gt;
 &lt;author&gt;Created by librarian@cadsoft.de&lt;/author&gt;</description>
<packages>
</packages>
<symbols>
<symbol name="+5V">
<wire x1="1.27" y1="-1.905" x2="0" y2="0" width="0.254" layer="94"/>
<wire x1="0" y1="0" x2="-1.27" y2="-1.905" width="0.254" layer="94"/>
<text x="-2.54" y="-5.08" size="1.778" layer="96" rot="R90">&gt;VALUE</text>
<pin name="+5V" x="0" y="-2.54" visible="off" length="short" direction="sup" rot="R90"/>
</symbol>
<symbol name="GND">
<wire x1="-1.905" y1="0" x2="1.905" y2="0" width="0.254" layer="94"/>
<text x="-2.54" y="-2.54" size="1.778" layer="96">&gt;VALUE</text>
<pin name="GND" x="0" y="2.54" visible="off" length="short" direction="sup" rot="R270"/>
</symbol>
</symbols>
<devicesets>
<deviceset name="+5V" prefix="P+">
<description>&lt;b&gt;SUPPLY SYMBOL&lt;/b&gt;</description>
<gates>
<gate name="1" symbol="+5V" x="0" y="0"/>
</gates>
<devices>
<device name="">
<technologies>
<technology name=""/>
</technologies>
</device>
</devices>
</deviceset>
<deviceset name="GND" prefix="GND">
<description>&lt;b&gt;SUPPLY SYMBOL&lt;/b&gt;</description>
<gates>
<gate name="1" symbol="GND" x="0" y="0"/>
</gates>
<devices>
<device name="">
<technologies>
<technology name=""/>
</technologies>
</device>
</devices>
</deviceset>
</devicesets>
</library>
<library name="diode">
<description>&lt;b&gt;Diodes&lt;/b&gt;&lt;p&gt;
Based on the following sources:
&lt;ul&gt;
&lt;li&gt;Motorola : www.onsemi.com
&lt;li&gt;Fairchild : www.fairchildsemi.com
&lt;li&gt;Philips : www.semiconductors.com
&lt;li&gt;Vishay : www.vishay.de
&lt;/ul&gt;
&lt;author&gt;Created by librarian@cadsoft.de&lt;/author&gt;</description>
<packages>
<package name="DO201-15">
<description>&lt;B&gt;DIODE&lt;/B&gt;&lt;p&gt;
diameter 5.6 mm, horizontal, grid 15.24 mm</description>
<wire x1="-1.27" y1="0" x2="0" y2="0" width="0.1524" layer="21"/>
<wire x1="0" y1="0.5842" x2="0" y2="0" width="0.1524" layer="21"/>
<wire x1="0" y1="0" x2="1.143" y2="0.5842" width="0.1524" layer="21"/>
<wire x1="1.143" y1="0.5842" x2="1.143" y2="-0.5842" width="0.1524" layer="21"/>
<wire x1="1.143" y1="-0.5842" x2="0" y2="0" width="0.1524" layer="21"/>
<wire x1="0" y1="0" x2="2.286" y2="0" width="0.1524" layer="21"/>
<wire x1="0" y1="0" x2="0" y2="-0.5842" width="0.1524" layer="21"/>
<wire x1="-5.08" y1="-2.794" x2="-5.08" y2="2.794" width="0.1524" layer="21"/>
<wire x1="5.08" y1="2.794" x2="5.08" y2="-2.794" width="0.1524" layer="21"/>
<wire x1="-5.08" y1="2.794" x2="5.08" y2="2.794" width="0.1524" layer="21"/>
<wire x1="5.08" y1="-2.794" x2="-5.08" y2="-2.794" width="0.1524" layer="21"/>
<wire x1="7.62" y1="0" x2="6.223" y2="0" width="1.27" layer="51"/>
<wire x1="-7.62" y1="0" x2="-6.223" y2="0" width="1.27" layer="51"/>
<pad name="C" x="-7.62" y="0" drill="1.4986" shape="long"/>
<pad name="A" x="7.62" y="0" drill="1.4986" shape="long"/>
<text x="-5.08" y="3.175" size="1.27" layer="25" ratio="10">&gt;NAME</text>
<text x="-2.54" y="-2.159" size="1.27" layer="27" ratio="10">&gt;VALUE</text>
<rectangle x1="-4.191" y1="-2.794" x2="-3.429" y2="2.794" layer="21"/>
<rectangle x1="-5.969" y1="-0.635" x2="-5.08" y2="0.635" layer="21"/>
<rectangle x1="5.08" y1="-0.635" x2="5.969" y2="0.635" layer="21"/>
</package>
</packages>
<symbols>
<symbol name="D">
<wire x1="-1.27" y1="-1.27" x2="1.27" y2="0" width="0.254" layer="94"/>
<wire x1="1.27" y1="0" x2="-1.27" y2="1.27" width="0.254" layer="94"/>
<wire x1="1.27" y1="1.27" x2="1.27" y2="0" width="0.254" layer="94"/>
<wire x1="-1.27" y1="1.27" x2="-1.27" y2="-1.27" width="0.254" layer="94"/>
<wire x1="1.27" y1="0" x2="1.27" y2="-1.27" width="0.254" layer="94"/>
<text x="2.54" y="0.4826" size="1.778" layer="95">&gt;NAME</text>
<text x="2.54" y="-2.3114" size="1.778" layer="96">&gt;VALUE</text>
<pin name="A" x="-2.54" y="0" visible="off" length="short" direction="pas"/>
<pin name="C" x="2.54" y="0" visible="off" length="short" direction="pas" rot="R180"/>
<text x="-2.54" y="0" size="0.4064" layer="99" align="center">SpiceOrder 1</text>
<text x="2.54" y="0" size="0.4064" layer="99" align="center">SpiceOrder 2</text>
</symbol>
</symbols>
<devicesets>
<deviceset name="1N5400" prefix="D">
<description>&lt;B&gt;DIODE&lt;/B&gt;&lt;p&gt;
standard rectifier, 3 A, 50 V (Motorola)</description>
<gates>
<gate name="1" symbol="D" x="0" y="0"/>
</gates>
<devices>
<device name="" package="DO201-15">
<connects>
<connect gate="1" pin="A" pad="A"/>
<connect gate="1" pin="C" pad="C"/>
</connects>
<technologies>
<technology name=""/>
</technologies>
</device>
</devices>
</deviceset>
</devicesets>
</library>
<library name="solpad">
<description>&lt;b&gt;Solder Pads/Test Points&lt;/b&gt;&lt;p&gt;
&lt;author&gt;Created by librarian@cadsoft.de&lt;/author&gt;</description>
<packages>
<package name="SE14">
<description>&lt;b&gt;SOLDER PAD&lt;/b&gt;&lt;p&gt;
drill 1.4 mm</description>
<wire x1="-1.524" y1="0.635" x2="-1.524" y2="-0.635" width="0.1524" layer="21"/>
<wire x1="0.635" y1="-1.524" x2="1.524" y2="-0.635" width="0.1524" layer="21"/>
<wire x1="0.635" y1="1.524" x2="1.524" y2="0.635" width="0.1524" layer="21"/>
<wire x1="1.524" y1="0.635" x2="1.524" y2="-0.635" width="0.1524" layer="21"/>
<wire x1="-1.524" y1="0.635" x2="-0.635" y2="1.524" width="0.1524" layer="21"/>
<wire x1="-0.635" y1="1.524" x2="0.635" y2="1.524" width="0.1524" layer="21"/>
<wire x1="-0.635" y1="-1.524" x2="-1.524" y2="-0.635" width="0.1524" layer="21"/>
<wire x1="0.635" y1="-1.524" x2="-0.635" y2="-1.524" width="0.1524" layer="21"/>
<circle x="0" y="0" radius="0.762" width="0.1524" layer="51"/>
<circle x="0" y="0" radius="0.381" width="0.254" layer="51"/>
<pad name="MP" x="0" y="0" drill="1.397" diameter="2.54" shape="octagon"/>
<text x="-1.397" y="1.778" size="1.27" layer="25" ratio="10">&gt;NAME</text>
<text x="0" y="0.381" size="0.0254" layer="27">&gt;VALUE</text>
</package>
</packages>
<symbols>
<symbol name="LSP">
<wire x1="-1.016" y1="2.032" x2="1.016" y2="0" width="0.254" layer="94"/>
<wire x1="-1.016" y1="0" x2="1.016" y2="2.032" width="0.254" layer="94"/>
<circle x="0" y="1.016" radius="1.016" width="0.4064" layer="94"/>
<text x="-1.27" y="2.921" size="1.778" layer="95">&gt;NAME</text>
<pin name="MP" x="0" y="-2.54" visible="off" length="short" direction="pas" rot="R90"/>
</symbol>
</symbols>
<devicesets>
<deviceset name="SE14" prefix="LSP">
<description>&lt;b&gt;SOLDER PAD&lt;/b&gt;&lt;p&gt; E1553,  drill 1,4mm, distributor Buerklin, 07F820</description>
<gates>
<gate name="1" symbol="LSP" x="0" y="0"/>
</gates>
<devices>
<device name="" package="SE14">
<connects>
<connect gate="1" pin="MP" pad="MP"/>
</connects>
<technologies>
<technology name=""/>
</technologies>
</device>
</devices>
</deviceset>
</devicesets>
</library>
</libraries>
<attributes>
</attributes>
<variantdefs>
</variantdefs>
<classes>
<class number="0" name="default" width="0" drill="0">
</class>
</classes>
<parts>
<part name="P+1" library="supply1" deviceset="+5V" device=""/>
<part name="GND1" library="supply1" deviceset="GND" device=""/>
<part name="R_S" library="pinhead" deviceset="PINHD-1X6" device=""/>
<part name="L_S" library="pinhead" deviceset="PINHD-1X6" device=""/>
<part name="SIM808" library="pinhead" deviceset="PINHD-1X7" device=""/>
<part name="5V_IN" library="pinhead" deviceset="PINHD-1X2" device=""/>
<part name="JP1" library="pinhead" deviceset="PINHD-1X5" device=""/>
<part name="D1" library="diode" deviceset="1N5400" device=""/>
<part name="D2" library="diode" deviceset="1N5400" device=""/>
<part name="D3" library="diode" deviceset="1N5400" device=""/>
<part name="D4" library="diode" deviceset="1N5400" device=""/>
<part name="+" library="solpad" deviceset="SE14" device=""/>
<part name="-" library="solpad" deviceset="SE14" device=""/>
<part name="+1" library="solpad" deviceset="SE14" device=""/>
<part name="+2" library="solpad" deviceset="SE14" device=""/>
<part name="GND2" library="supply1" deviceset="GND" device=""/>
</parts>
<sheets>
<sheet>
<plain>
</plain>
<instances>
<instance part="P+1" gate="1" x="-139.7" y="63.5"/>
<instance part="GND1" gate="1" x="-142.24" y="30.48"/>
<instance part="R_S" gate="A" x="-167.64" y="68.58" rot="R90"/>
<instance part="L_S" gate="A" x="-165.1" y="35.56" rot="MR270"/>
<instance part="SIM808" gate="A" x="-165.1" y="15.24" rot="MR270"/>
<instance part="5V_IN" gate="G$1" x="-116.84" y="53.34"/>
<instance part="JP1" gate="A" x="-147.32" y="50.8"/>
<instance part="D1" gate="1" x="-124.46" y="40.64"/>
<instance part="D2" gate="1" x="-124.46" y="35.56" rot="R180"/>
<instance part="D3" gate="1" x="-124.46" y="30.48"/>
<instance part="D4" gate="1" x="-124.46" y="25.4" rot="R180"/>
<instance part="+" gate="1" x="-96.52" y="40.64" rot="R270"/>
<instance part="-" gate="1" x="-96.52" y="25.4" rot="R270"/>
<instance part="+1" gate="1" x="-132.08" y="43.18"/>
<instance part="+2" gate="1" x="-134.62" y="33.02"/>
<instance part="GND2" gate="1" x="-177.8" y="25.4"/>
</instances>
<busses>
</busses>
<nets>
<net name="+5V" class="0">
<segment>
<pinref part="P+1" gate="1" pin="+5V"/>
<wire x1="-119.38" y1="55.88" x2="-139.7" y2="55.88" width="0.1524" layer="91"/>
<wire x1="-139.7" y1="60.96" x2="-139.7" y2="55.88" width="0.1524" layer="91"/>
<wire x1="-180.34" y1="71.12" x2="-180.34" y2="66.04" width="0.1524" layer="91"/>
<wire x1="-180.34" y1="66.04" x2="-180.34" y2="10.16" width="0.1524" layer="91"/>
<wire x1="-180.34" y1="71.12" x2="-144.78" y2="71.12" width="0.1524" layer="91"/>
<wire x1="-144.78" y1="71.12" x2="-144.78" y2="55.88" width="0.1524" layer="91"/>
<wire x1="-144.78" y1="55.88" x2="-139.7" y2="55.88" width="0.1524" layer="91"/>
<junction x="-139.7" y="55.88"/>
<pinref part="R_S" gate="A" pin="1"/>
<wire x1="-175.26" y1="66.04" x2="-180.34" y2="66.04" width="0.1524" layer="91"/>
<junction x="-180.34" y="66.04"/>
<wire x1="-180.34" y1="10.16" x2="-167.64" y2="10.16" width="0.1524" layer="91"/>
<pinref part="SIM808" gate="A" pin="3"/>
<wire x1="-167.64" y1="17.78" x2="-167.64" y2="10.16" width="0.1524" layer="91"/>
<pinref part="5V_IN" gate="G$1" pin="1"/>
</segment>
</net>
<net name="GND" class="0">
<segment>
<pinref part="GND1" gate="1" pin="GND"/>
<wire x1="-142.24" y1="33.02" x2="-142.24" y2="35.56" width="0.1524" layer="91"/>
<wire x1="-142.24" y1="35.56" x2="-132.08" y2="53.34" width="0.1524" layer="91"/>
<wire x1="-132.08" y1="53.34" x2="-119.38" y2="53.34" width="0.1524" layer="91"/>
<pinref part="SIM808" gate="A" pin="7"/>
<wire x1="-157.48" y1="17.78" x2="-157.48" y2="27.94" width="0.1524" layer="91"/>
<wire x1="-157.48" y1="27.94" x2="-157.48" y2="30.48" width="0.1524" layer="91"/>
<wire x1="-157.48" y1="30.48" x2="-152.4" y2="35.56" width="0.1524" layer="91"/>
<wire x1="-152.4" y1="35.56" x2="-142.24" y2="35.56" width="0.1524" layer="91"/>
<junction x="-142.24" y="35.56"/>
<pinref part="5V_IN" gate="G$1" pin="2"/>
<pinref part="D4" gate="1" pin="A"/>
<pinref part="D2" gate="1" pin="A"/>
<wire x1="-121.92" y1="35.56" x2="-119.38" y2="35.56" width="0.1524" layer="91"/>
<wire x1="-119.38" y1="35.56" x2="-119.38" y2="25.4" width="0.1524" layer="91"/>
<wire x1="-119.38" y1="25.4" x2="-121.92" y2="25.4" width="0.1524" layer="91"/>
<junction x="-119.38" y="25.4"/>
<wire x1="-99.06" y1="25.4" x2="-119.38" y2="25.4" width="0.1524" layer="91"/>
<wire x1="-119.38" y1="25.4" x2="-119.38" y2="20.32" width="0.1524" layer="91"/>
<wire x1="-119.38" y1="20.32" x2="-149.86" y2="20.32" width="0.1524" layer="91"/>
<wire x1="-149.86" y1="20.32" x2="-149.86" y2="27.94" width="0.1524" layer="91"/>
<wire x1="-149.86" y1="27.94" x2="-157.48" y2="27.94" width="0.1524" layer="91"/>
<junction x="-157.48" y="27.94"/>
<pinref part="-" gate="1" pin="MP"/>
</segment>
<segment>
<wire x1="-172.72" y1="48.26" x2="-172.72" y2="38.1" width="0.1524" layer="91"/>
<wire x1="-172.72" y1="66.04" x2="-172.72" y2="48.26" width="0.1524" layer="91"/>
<wire x1="-172.72" y1="48.26" x2="-149.86" y2="48.26" width="0.1524" layer="91"/>
<pinref part="R_S" gate="A" pin="2"/>
<junction x="-172.72" y="48.26"/>
<pinref part="L_S" gate="A" pin="1"/>
<pinref part="SIM808" gate="A" pin="2"/>
<wire x1="-170.18" y1="17.78" x2="-172.72" y2="25.4" width="0.1524" layer="91"/>
<wire x1="-172.72" y1="25.4" x2="-172.72" y2="27.94" width="0.1524" layer="91"/>
<junction x="-172.72" y="38.1"/>
<pinref part="JP1" gate="A" pin="4"/>
<pinref part="GND2" gate="1" pin="GND"/>
<wire x1="-172.72" y1="27.94" x2="-172.72" y2="38.1" width="0.1524" layer="91"/>
<wire x1="-172.72" y1="27.94" x2="-177.8" y2="27.94" width="0.1524" layer="91"/>
<junction x="-172.72" y="27.94"/>
</segment>
</net>
<net name="N$1" class="0">
<segment>
<wire x1="-162.56" y1="66.04" x2="-162.56" y2="55.88" width="0.1524" layer="91"/>
<wire x1="-162.56" y1="55.88" x2="-149.86" y2="55.88" width="0.1524" layer="91"/>
<pinref part="R_S" gate="A" pin="6"/>
<pinref part="JP1" gate="A" pin="1"/>
</segment>
</net>
<net name="N$2" class="0">
<segment>
<wire x1="-165.1" y1="66.04" x2="-165.1" y2="53.34" width="0.1524" layer="91"/>
<wire x1="-165.1" y1="53.34" x2="-149.86" y2="53.34" width="0.1524" layer="91"/>
<pinref part="R_S" gate="A" pin="5"/>
<pinref part="JP1" gate="A" pin="2"/>
</segment>
</net>
<net name="N$3" class="0">
<segment>
<wire x1="-167.64" y1="66.04" x2="-167.64" y2="50.8" width="0.1524" layer="91"/>
<wire x1="-167.64" y1="50.8" x2="-149.86" y2="50.8" width="0.1524" layer="91"/>
<pinref part="R_S" gate="A" pin="4"/>
<pinref part="JP1" gate="A" pin="3"/>
</segment>
</net>
<net name="N$4" class="0">
<segment>
<wire x1="-170.18" y1="66.04" x2="-170.18" y2="48.26" width="0.1524" layer="91"/>
<wire x1="-170.18" y1="48.26" x2="-167.64" y2="45.72" width="0.1524" layer="91"/>
<wire x1="-167.64" y1="45.72" x2="-165.1" y2="45.72" width="0.1524" layer="91"/>
<pinref part="R_S" gate="A" pin="3"/>
<pinref part="L_S" gate="A" pin="4"/>
<wire x1="-165.1" y1="38.1" x2="-165.1" y2="45.72" width="0.1524" layer="91"/>
</segment>
</net>
<net name="N$6" class="0">
<segment>
<wire x1="-162.56" y1="45.72" x2="-149.86" y2="45.72" width="0.1524" layer="91"/>
<pinref part="L_S" gate="A" pin="5"/>
<wire x1="-162.56" y1="38.1" x2="-162.56" y2="45.72" width="0.1524" layer="91"/>
<pinref part="JP1" gate="A" pin="5"/>
</segment>
</net>
<net name="N$5" class="0">
<segment>
<pinref part="L_S" gate="A" pin="2"/>
<wire x1="-170.18" y1="38.1" x2="-167.64" y2="40.64" width="0.1524" layer="91"/>
<wire x1="-167.64" y1="40.64" x2="-154.94" y2="40.64" width="0.1524" layer="91"/>
<wire x1="-154.94" y1="40.64" x2="-154.94" y2="35.56" width="0.1524" layer="91"/>
<wire x1="-154.94" y1="35.56" x2="-160.02" y2="30.48" width="0.1524" layer="91"/>
<pinref part="SIM808" gate="A" pin="6"/>
<wire x1="-160.02" y1="30.48" x2="-160.02" y2="17.78" width="0.1524" layer="91"/>
</segment>
</net>
<net name="N$8" class="0">
<segment>
<pinref part="L_S" gate="A" pin="3"/>
<wire x1="-167.64" y1="38.1" x2="-167.64" y2="27.94" width="0.1524" layer="91"/>
<wire x1="-167.64" y1="27.94" x2="-162.56" y2="22.86" width="0.1524" layer="91"/>
<pinref part="SIM808" gate="A" pin="5"/>
<wire x1="-162.56" y1="22.86" x2="-162.56" y2="17.78" width="0.1524" layer="91"/>
</segment>
</net>
<net name="N$9" class="0">
<segment>
<pinref part="L_S" gate="A" pin="6"/>
<wire x1="-160.02" y1="38.1" x2="-160.02" y2="33.02" width="0.1524" layer="91"/>
<pinref part="SIM808" gate="A" pin="4"/>
<wire x1="-160.02" y1="33.02" x2="-165.1" y2="27.94" width="0.1524" layer="91"/>
<wire x1="-165.1" y1="27.94" x2="-165.1" y2="17.78" width="0.1524" layer="91"/>
</segment>
</net>
<net name="N$12" class="0">
<segment>
<pinref part="D1" gate="1" pin="A"/>
<pinref part="D2" gate="1" pin="C"/>
<wire x1="-127" y1="40.64" x2="-127" y2="38.1" width="0.1524" layer="91"/>
<wire x1="-127" y1="38.1" x2="-127" y2="35.56" width="0.1524" layer="91"/>
<wire x1="-132.08" y1="38.1" x2="-127" y2="38.1" width="0.1524" layer="91"/>
<junction x="-127" y="38.1"/>
<pinref part="+1" gate="1" pin="MP"/>
<wire x1="-132.08" y1="40.64" x2="-132.08" y2="38.1" width="0.1524" layer="91"/>
</segment>
</net>
<net name="N$13" class="0">
<segment>
<pinref part="D3" gate="1" pin="A"/>
<pinref part="D4" gate="1" pin="C"/>
<wire x1="-127" y1="30.48" x2="-127" y2="27.94" width="0.1524" layer="91"/>
<wire x1="-127" y1="27.94" x2="-127" y2="25.4" width="0.1524" layer="91"/>
<wire x1="-134.62" y1="27.94" x2="-127" y2="27.94" width="0.1524" layer="91"/>
<junction x="-127" y="27.94"/>
<pinref part="+2" gate="1" pin="MP"/>
<wire x1="-134.62" y1="30.48" x2="-134.62" y2="27.94" width="0.1524" layer="91"/>
</segment>
</net>
<net name="N$15" class="0">
<segment>
<pinref part="D3" gate="1" pin="C"/>
<wire x1="-116.84" y1="30.48" x2="-121.92" y2="30.48" width="0.1524" layer="91"/>
<pinref part="D1" gate="1" pin="C"/>
<wire x1="-121.92" y1="40.64" x2="-116.84" y2="40.64" width="0.1524" layer="91"/>
<wire x1="-116.84" y1="40.64" x2="-116.84" y2="30.48" width="0.1524" layer="91"/>
<junction x="-116.84" y="40.64"/>
<wire x1="-99.06" y1="40.64" x2="-116.84" y2="40.64" width="0.1524" layer="91"/>
<pinref part="+" gate="1" pin="MP"/>
</segment>
</net>
</nets>
</sheet>
</sheets>
<errors>
<approved hash="101,1,-139.7,36.83,K11,2,,,,"/>
<approved hash="101,1,-139.7,46.99,K11,1,,,,"/>
<approved hash="106,1,-124.46,53.34,PWR_IN,,,,,"/>
<approved hash="111,1,-170.18,13.97,GND,,,,,"/>
<approved hash="111,1,-170.18,13.335,GND,,,,,"/>
<approved hash="111,1,-139.7,36.83,N$1,,,,,"/>
<approved hash="111,1,-139.7,46.355,+5V,,,,,"/>
<approved hash="111,1,-129.54,45.72,+5V,,,,,"/>
<approved hash="113,1,-166.501,13.7329,SIM,,,,,"/>
<approved hash="113,1,-170.311,66.7612,NANO_RIGHT,,,,,"/>
<approved hash="113,1,-169.041,36.9612,NANO_LEFT,,,,,"/>
<approved hash="113,1,-105.41,35.8817,LED1,,,,,"/>
<approved hash="113,1,-110.011,19.9305,RESET_SWITCH,,,,,"/>
<approved hash="113,1,-149.145,52.2012,EXTRA_PIN,,,,,"/>
</errors>
</schematic>
</drawing>
</eagle>
